<?xml version="1.0" encoding="UTF-8" standalone="no"?>
<!-- Created with sK1/UniConvertor (http://sk1project.org/) -->

<svg
   xmlns:dc="http://purl.org/dc/elements/1.1/"
   xmlns:cc="http://creativecommons.org/ns#"
   xmlns:rdf="http://www.w3.org/1999/02/22-rdf-syntax-ns#"
   xmlns:svg="http://www.w3.org/2000/svg"
   xmlns="http://www.w3.org/2000/svg"
   xmlns:sodipodi="http://sodipodi.sourceforge.net/DTD/sodipodi-0.dtd"
   xmlns:inkscape="http://www.inkscape.org/namespaces/inkscape"
   width="595.276pt"
   height="841.89pt"
   viewBox="0 0 595.276 841.89"
   fill-rule="evenodd"
   id="svg3421"
   version="1.1"
   inkscape:version="0.48.5 r10040"
   sodipodi:docname="bluetooth_logo.svg">
  <metadata
     id="metadata3457">
    <rdf:RDF>
      <cc:Work
         rdf:about="">
        <dc:format>image/svg+xml</dc:format>
        <dc:type
           rdf:resource="http://purl.org/dc/dcmitype/StillImage" />
        <dc:title></dc:title>
      </cc:Work>
    </rdf:RDF>
  </metadata>
  <defs
     id="defs3455" />
  <sodipodi:namedview
     pagecolor="#ffffff"
     bordercolor="#666666"
     borderopacity="1"
     objecttolerance="10"
     gridtolerance="10"
     guidetolerance="10"
     inkscape:pageopacity="0"
     inkscape:pageshadow="2"
     inkscape:window-width="1366"
     inkscape:window-height="706"
     id="namedview3453"
     showgrid="false"
     inkscape:zoom="14.352468"
     inkscape:cx="118.59643"
     inkscape:cy="169.39654"
     inkscape:window-x="-8"
     inkscape:window-y="-8"
     inkscape:window-maximized="1"
     inkscape:current-layer="svg3421" />
  <path
     inkscape:connector-curvature="0"
     id="path3425"
     d="m 40.578388,606.32603 192.756002,0 0,192.756 -192.756002,0 0,-192.756"
     style="fill:#ffffff;stroke:none"
     sodipodi:nodetypes="ccccc" />
  <path
     inkscape:connector-curvature="0"
     id="path3427"
     d="m 88.946188,717.40103 0,-29.779 8.2829,0 c 2.1994,0 4.361602,0.159 5.826602,2.184 1.1727,1.628 1.3561,3.335 1.3561,5.36 0,2.58 -0.5125,5.122 -3.2981,6.233 l 0,0.081 c 2.8958,0.436 3.994,3.057 3.994,6.908 0,1.231 -0.0731,2.461 -0.3651,3.652 -1.0998,3.773 -3.0787,5.361 -6.743102,5.361 l -9.0533,0 m 0,0 6.0843,-17.748 c 1.2464,0 2.8588,0.08 3.6647,-1.033 0.477,-0.754 0.5502,-1.786 0.5502,-3.216 0,-2.223 -0.4397,-3.336 -2.7856,-3.415 l -2.3826,0 0,7.664 0.9533,0 m 0,0 0.1463,13.38 c 1.0627,0 2.1623,0.12 3.079,-0.317 1.3918,-0.676 1.5752,-2.622 1.5752,-4.13 0,-3.216 -0.5856,-4.566 -3.7749,-4.566 l -1.9789,0 0,9.013 1.0996,0"
     style="fill:#2c2c2b;stroke:none"
     sodipodi:nodetypes="ccscsccscsccccscccccccssccc" />
  <path
     inkscape:connector-curvature="0"
     id="path3429"
     d="m 107.08969,687.72203 4.4807,0 0,29.68 -4.4807,0 0,-29.68"
     style="fill:#2c2c2b;stroke:none"
     sodipodi:nodetypes="ccccc" />
  <path
     inkscape:connector-curvature="0"
     id="path3431"
     d="m 123.91269,714.12703 -0.0714,0 c -0.7217,2.612 -2.0908,3.819 -4.362,3.859 -3.7131,0 -4.5422,-2.066 -4.5422,-5.731 l 0,-16.842 4.6868,0 0,15.05 c 0,0.974 -0.0371,2.065 0.4683,2.922 0.3966,0.469 0.8294,0.702 1.4423,0.702 2.198,0 2.1619,-2.69 2.1619,-4.405 l 0,-14.269 4.6854,0 0,21.988 -4.4691,0 0,-3.274"
     style="fill:#2c2c2b;stroke:none"
     sodipodi:nodetypes="cccsccscssccccc" />
  <path
     inkscape:connector-curvature="0"
     id="path3433"
     d="m 131.55549,702.97703 c -0.2149,-5.185 2.2309,-8.148 6.8363,-8.148 6.5116,0 7.1946,3.665 7.1946,9.668 l 0,2.963 -9.354,0 0,3.198 c 0.0357,2.883 1.0437,3.429 2.4457,3.429 1.7272,0 2.2313,-1.364 2.1593,-4.131 l 4.676,0 c 0.18,4.911 -1.69,8.03 -6.4744,8.03 -5.3961,0 -7.5912,-2.768 -7.4835,-9.239 l 0,-5.77 9.3539,0.585 0,-1.911 c -0.036,-2.222 -0.5759,-2.924 -2.4462,-2.924 -2.3383,0 -2.2308,1.949 -2.2308,3.938 l 0,0.897 4.677,0"
     style="fill:#2c2c2b;stroke:none"
     sodipodi:nodetypes="csscccsccsccccsscc" />
  <path
     inkscape:connector-curvature="0"
     id="path3435"
     d="m 157.72039,717.47903 c -2.654,0.351 -7.709,0.623 -7.709,-3.469 l 0,-14.893 -2.716,0 0,-3.704 2.681,0 0,-6.041 4.515,0 0,6.041 3.229,0 0,3.704 -3.229,0 0,13.645 c 0.103,0.935 2.677,0.818 3.229,0.74 l 0,3.977"
     style="fill:#2c2c2b;stroke:none"
     sodipodi:nodetypes="csccccccccccccc" />
  <path
     inkscape:connector-curvature="0"
     id="path3437"
     d="m 159.55539,707.18803 c 0.036,-7.524 0.109,-12.359 7.263,-12.359 7.044,0 7.081,4.835 7.117,12.359 0.036,7.641 -0.987,10.914 -7.117,10.798 -6.241,0.116 -7.299,-3.157 -7.263,-10.798 l 4.744,3.04 c 0,2.69 0.219,3.859 2.519,3.859 2.189,0 2.373,-1.169 2.373,-3.859 l 0,-7.329 c 0,-2.067 0,-4.172 -2.373,-4.172 -2.519,0 -2.519,2.105 -2.519,4.172 l 0,7.329"
     style="fill:#2c2c2b;stroke:none"
     sodipodi:nodetypes="csccccsssssc" />
  <path
     inkscape:connector-curvature="0"
     id="path3439"
     d="m 176.31239,707.18803 c 0.037,-7.524 0.109,-12.359 7.19,-12.359 6.971,0 7.009,4.835 7.044,12.359 0.036,7.641 -0.975,10.914 -7.044,10.798 -6.177,0.116 -7.226,-3.157 -7.19,-10.798 l 4.695,3.04 c 0,2.69 0.218,3.859 2.495,3.859 2.167,0 2.347,-1.169 2.347,-3.859 l 0,-7.329 c 0,-2.067 0,-4.172 -2.347,-4.172 -2.495,0 -2.495,2.105 -2.495,4.172 l 0,7.329"
     style="fill:#2c2c2b;stroke:none"
     sodipodi:nodetypes="csccccsssssc" />
  <path
     inkscape:connector-curvature="0"
     id="path3441"
     d="m 202.21639,717.47903 c -2.654,0.351 -7.71,0.623 -7.71,-3.469 l 0,-14.893 -2.27,0 0,-3.704 2.235,0 0,-6.041 4.515,0 0,6.041 3.23,0 0,3.704 -3.23,0 0,13.645 c 0.105,0.935 2.678,0.818 3.23,0.74 l 0,3.977"
     style="fill:#2c2c2b;stroke:none"
     sodipodi:nodetypes="csccccccccccccc" />
  <path
     inkscape:connector-curvature="0"
     id="path3443"
     d="m 205.21439,717.40103 0,-29.631 4.783,0 0,9.905 0.075,0 c 1.36,-2.574 3.273,-2.846 4.304,-2.846 2.722,0 4.931,1.677 4.784,5.614 l 0,16.958 -4.784,0 0,-15.048 c 0,-2.144 -0.22,-3.547 -2.023,-3.626 -1.803,-0.077 -2.429,1.716 -2.356,4.056 l 0,14.618 -4.783,0"
     style="fill:#2c2c2b;stroke:none"
     sodipodi:nodetypes="cccccscccscccc" />
  <path
     inkscape:connector-curvature="0"
     id="path3445"
     d="m 218.81339,687.48003 2.713,0 0,0.62 -0.948,0 0,3.602 -0.813,0 0,-3.602 -0.952,0 0,-0.62"
     style="fill:#2c2c2b;stroke:none"
     sodipodi:nodetypes="ccccccccc" />
  <path
     inkscape:connector-curvature="0"
     id="path3447"
     d="m 222.82139,691.70203 -0.812,0 0,-4.222 1.294,0 0.437,1.959 c 0.069,0.321 0.116,0.648 0.15,0.974 l 0.012,0 c 0.04,-0.417 0.07,-0.698 0.129,-0.974 l 0.435,-1.959 1.29,0 0,4.222 -0.813,0 0,-1.327 c 0,-0.84 0.017,-1.679 0.068,-2.518 l -0.011,0 -0.872,3.845 -0.493,0 -0.854,-3.845 -0.029,0 c 0.051,0.839 0.069,1.678 0.069,2.518 l 0,1.327"
     style="fill:#2c2c2b;stroke:none"
     sodipodi:nodetypes="ccccccccccccsccccccsc" />
  <path
     inkscape:connector-curvature="0"
     id="path3449"
     d="m 65.119088,681.11903 c -8.2015,0.165 -13.8572,4.577 -14.59761,12.396 -0.24662,2.601 -0.43937,5.263 -0.51279,7.86 l 0,4.275 c 0.12756,3.884 0.6401,7.437 1.7958,10.175 2.1937,5.203 6.0142,8.316 12.8511,8.463 l 1.0823,0 c 7.5223,-0.17 12.3956,-2.308 14.8739,-10.941 2.4792,-8.634 0.6832,-21.03 -1.6237,-25.388 -2.3082,-4.361 -5.8983,-6.702 -12.9081,-6.84 l -0.9609,0"
     style="fill:#005da6;stroke:none"
     sodipodi:nodetypes="ccccccccccc" />
  <path
     inkscape:connector-curvature="0"
     id="path3451"
     d="m 75.611488,710.22603 -7.5654,-7.565 7.5223,-7.522 -11.1138,-10.942 0,14.874 -6.2821,-6.284 -2.2655,2.266 7.6927,7.694 -7.7355,7.735 2.2655,2.266 6.3249,-6.325 0,14.958 11.1569,-11.155 m 0,0 -8.2497,-18.934 3.8461,3.933 -3.8461,3.846 0,-7.779 m 0,0 0,14.873 3.8461,3.932 -3.8461,3.848 0,-7.78"
     style="fill:#ffffff;stroke:none"
     sodipodi:nodetypes="ccccccccccccccccccccccc" />
</svg>
