<?xml version="1.0" encoding="UTF-8" standalone="no"?>
<!-- Created with Inkscape (http://www.inkscape.org/) -->

<svg
   xmlns:dc="http://purl.org/dc/elements/1.1/"
   xmlns:cc="http://creativecommons.org/ns#"
   xmlns:rdf="http://www.w3.org/1999/02/22-rdf-syntax-ns#"
   xmlns:svg="http://www.w3.org/2000/svg"
   xmlns="http://www.w3.org/2000/svg"
   xmlns:xlink="http://www.w3.org/1999/xlink"
   xmlns:sodipodi="http://sodipodi.sourceforge.net/DTD/sodipodi-0.dtd"
   xmlns:inkscape="http://www.inkscape.org/namespaces/inkscape"
   width="744.09448819"
   height="1052.3622047"
   id="svg2"
   version="1.1"
   inkscape:version="0.48.5 r10040"
   sodipodi:docname="logo_blue_social_v4.svg">
  <defs
     id="defs4">
    <linearGradient
       id="linearGradient4625">
      <stop
         style="stop-color:#000000;stop-opacity:1;"
         offset="0"
         id="stop4627" />
      <stop
         style="stop-color:#ffffff;stop-opacity:0;"
         offset="1"
         id="stop4629" />
    </linearGradient>
    <inkscape:path-effect
       effect="skeletal"
       id="path-effect4268"
       is_visible="true"
       pattern="M 0,0 0,10 10,5 z"
       copytype="single_stretched"
       prop_scale="1"
       scale_y_rel="false"
       spacing="0"
       normal_offset="0"
       tang_offset="0"
       prop_units="false"
       vertical_pattern="false"
       fuse_tolerance="0" />
    <inkscape:path-effect
       effect="spiro"
       id="path-effect4266"
       is_visible="true" />
    <inkscape:path-effect
       effect="skeletal"
       id="path-effect3987"
       is_visible="true"
       pattern="m 21.213203,-720.23877 0,10 10,-5 z"
       copytype="single_stretched"
       prop_scale="1"
       scale_y_rel="false"
       spacing="0"
       normal_offset="0"
       tang_offset="0"
       prop_units="false"
       vertical_pattern="false"
       fuse_tolerance="0" />
    <inkscape:path-effect
       effect="spiro"
       id="path-effect3985"
       is_visible="true" />
    <linearGradient
       inkscape:collect="always"
       id="linearGradient3839">
      <stop
         style="stop-color:#000000;stop-opacity:1"
         offset="0"
         id="stop3841" />
      <stop
         style="stop-color:#ffffff;stop-opacity:1"
         offset="1"
         id="stop3843" />
    </linearGradient>
    <linearGradient
       id="linearGradient3829">
      <stop
         style="stop-color:#ffffff;stop-opacity:1;"
         offset="0"
         id="stop3831" />
      <stop
         style="stop-color:#ffffff;stop-opacity:0;"
         offset="1"
         id="stop3833" />
    </linearGradient>
    <linearGradient
       inkscape:collect="always"
       id="linearGradient3814">
      <stop
         style="stop-color:#000000;stop-opacity:1"
         offset="0"
         id="stop3816" />
      <stop
         style="stop-color:#ffffff;stop-opacity:1"
         offset="1"
         id="stop3818" />
    </linearGradient>
    <linearGradient
       id="linearGradient3784">
      <stop
         style="stop-color:#345291;stop-opacity:1;"
         offset="0"
         id="stop3786" />
      <stop
         style="stop-color:#ffffff;stop-opacity:1"
         offset="1"
         id="stop3788" />
    </linearGradient>
    <filter
       inkscape:collect="always"
       id="filter3798">
      <feGaussianBlur
         inkscape:collect="always"
         stdDeviation="1.1696428"
         id="feGaussianBlur3800" />
    </filter>
    <linearGradient
       inkscape:collect="always"
       xlink:href="#linearGradient3814"
       id="linearGradient3820"
       x1="59.191437"
       y1="491.04489"
       x2="57.184948"
       y2="180.80168"
       gradientUnits="userSpaceOnUse" />
    <linearGradient
       inkscape:collect="always"
       xlink:href="#linearGradient3829"
       id="linearGradient3835"
       x1="-0.53789708"
       y1="352.09496"
       x2="129.94102"
       y2="352.09496"
       gradientUnits="userSpaceOnUse" />
    <linearGradient
       inkscape:collect="always"
       xlink:href="#linearGradient3784"
       id="linearGradient3854"
       gradientUnits="userSpaceOnUse"
       x1="74.285713"
       y1="472.36218"
       x2="74.285713"
       y2="-12.668113"
       gradientTransform="translate(246.47722,75.761441)" />
    <linearGradient
       inkscape:collect="always"
       xlink:href="#linearGradient3784"
       id="linearGradient3856"
       gradientUnits="userSpaceOnUse"
       x1="74.285713"
       y1="472.36218"
       x2="73.275558"
       y2="88.347145"
       gradientTransform="translate(246.47722,75.761441)" />
    <linearGradient
       inkscape:collect="always"
       xlink:href="#linearGradient3839"
       id="linearGradient3858"
       gradientUnits="userSpaceOnUse"
       x1="62.681263"
       y1="889.13367"
       x2="62.681263"
       y2="377.43185"
       gradientTransform="translate(244.79171,76.283097)" />
    <linearGradient
       inkscape:collect="always"
       xlink:href="#linearGradient3829"
       id="linearGradient3860"
       gradientUnits="userSpaceOnUse"
       x1="-0.53789708"
       y1="352.09496"
       x2="129.94102"
       y2="352.09496"
       gradientTransform="translate(244.79171,76.283097)" />
    <linearGradient
       id="linearGradient3784-7">
      <stop
         style="stop-color:#345291;stop-opacity:1;"
         offset="0"
         id="stop3786-4" />
      <stop
         style="stop-color:#ffffff;stop-opacity:1"
         offset="1"
         id="stop3788-0" />
    </linearGradient>
    <filter
       color-interpolation-filters="sRGB"
       inkscape:collect="always"
       id="filter3798-9">
      <feGaussianBlur
         inkscape:collect="always"
         stdDeviation="1.1696428"
         id="feGaussianBlur3800-4" />
    </filter>
    <linearGradient
       id="linearGradient3879">
      <stop
         style="stop-color:#345291;stop-opacity:1;"
         offset="0"
         id="stop3881" />
      <stop
         style="stop-color:#ffffff;stop-opacity:1"
         offset="1"
         id="stop3883" />
    </linearGradient>
    <linearGradient
       inkscape:collect="always"
       xlink:href="#linearGradient3829-2"
       id="linearGradient3860-8"
       gradientUnits="userSpaceOnUse"
       x1="-0.53789705"
       y1="352.09497"
       x2="129.94102"
       y2="352.09497"
       gradientTransform="translate(244.79171,76.283097)" />
    <linearGradient
       id="linearGradient3829-2">
      <stop
         style="stop-color:#ffffff;stop-opacity:1;"
         offset="0"
         id="stop3831-4" />
      <stop
         style="stop-color:#ffffff;stop-opacity:0;"
         offset="1"
         id="stop3833-5" />
    </linearGradient>
    <linearGradient
       inkscape:collect="always"
       xlink:href="#linearGradient3839-1"
       id="linearGradient3858-5"
       gradientUnits="userSpaceOnUse"
       x1="62.681263"
       y1="889.13367"
       x2="62.681263"
       y2="377.43185"
       gradientTransform="translate(3.3575755,75.836059)" />
    <linearGradient
       inkscape:collect="always"
       id="linearGradient3839-1">
      <stop
         style="stop-color:#000000;stop-opacity:1"
         offset="0"
         id="stop3841-7" />
      <stop
         style="stop-color:#ffffff;stop-opacity:1"
         offset="1"
         id="stop3843-1" />
    </linearGradient>
    <linearGradient
       y2="352.09497"
       x2="129.94102"
       y1="352.09497"
       x1="-0.53789705"
       gradientTransform="translate(3.3575755,75.836059)"
       gradientUnits="userSpaceOnUse"
       id="linearGradient3899"
       xlink:href="#linearGradient3829-2"
       inkscape:collect="always" />
    <linearGradient
       inkscape:collect="always"
       xlink:href="#linearGradient3784-7"
       id="linearGradient3959"
       gradientUnits="userSpaceOnUse"
       x1="74.285713"
       y1="472.36218"
       x2="73.275558"
       y2="88.347145" />
    <linearGradient
       inkscape:collect="always"
       xlink:href="#linearGradient3784-7"
       id="linearGradient3963"
       gradientUnits="userSpaceOnUse"
       x1="74.285713"
       y1="472.36218"
       x2="74.285713"
       y2="-12.668113" />
    <linearGradient
       y2="352.09497"
       x2="129.94102"
       y1="352.09497"
       x1="-0.53789705"
       gradientTransform="translate(-218.20783,572.00687)"
       gradientUnits="userSpaceOnUse"
       id="linearGradient3899-4"
       xlink:href="#linearGradient3829-2-6"
       inkscape:collect="always" />
    <linearGradient
       id="linearGradient3829-2-6">
      <stop
         style="stop-color:#ffffff;stop-opacity:1;"
         offset="0"
         id="stop3831-4-8" />
      <stop
         style="stop-color:#ffffff;stop-opacity:0;"
         offset="1"
         id="stop3833-5-9" />
    </linearGradient>
    <linearGradient
       inkscape:collect="always"
       xlink:href="#linearGradient3839-1-3"
       id="linearGradient3858-5-8"
       gradientUnits="userSpaceOnUse"
       x1="62.681263"
       y1="889.13367"
       x2="62.681263"
       y2="377.43185"
       gradientTransform="translate(3.3575755,75.836059)" />
    <linearGradient
       inkscape:collect="always"
       id="linearGradient3839-1-3">
      <stop
         style="stop-color:#000000;stop-opacity:1"
         offset="0"
         id="stop3841-7-5" />
      <stop
         style="stop-color:#ffffff;stop-opacity:1"
         offset="1"
         id="stop3843-1-5" />
    </linearGradient>
    <linearGradient
       y2="377.43185"
       x2="62.681263"
       y1="889.13367"
       x1="62.681263"
       gradientTransform="translate(-218.20783,572.00687)"
       gradientUnits="userSpaceOnUse"
       id="linearGradient4374"
       xlink:href="#linearGradient3839-1-3"
       inkscape:collect="always" />
    <linearGradient
       y2="352.09497"
       x2="129.94102"
       y1="352.09497"
       x1="-0.53789705"
       gradientTransform="translate(-922.48562,547.59628)"
       gradientUnits="userSpaceOnUse"
       id="linearGradient3899-5"
       xlink:href="#linearGradient3829-2-8"
       inkscape:collect="always" />
    <linearGradient
       id="linearGradient3829-2-8">
      <stop
         style="stop-color:#ffffff;stop-opacity:1;"
         offset="0"
         id="stop3831-4-4" />
      <stop
         style="stop-color:#ffffff;stop-opacity:0;"
         offset="1"
         id="stop3833-5-0" />
    </linearGradient>
    <linearGradient
       inkscape:collect="always"
       xlink:href="#linearGradient3839-1-4"
       id="linearGradient3858-5-5"
       gradientUnits="userSpaceOnUse"
       x1="62.681263"
       y1="889.13367"
       x2="62.681263"
       y2="377.43185"
       gradientTransform="translate(3.3575755,75.836059)" />
    <linearGradient
       inkscape:collect="always"
       id="linearGradient3839-1-4">
      <stop
         style="stop-color:#000000;stop-opacity:1"
         offset="0"
         id="stop3841-7-7" />
      <stop
         style="stop-color:#ffffff;stop-opacity:1"
         offset="1"
         id="stop3843-1-2" />
    </linearGradient>
    <linearGradient
       inkscape:collect="always"
       xlink:href="#linearGradient3839-1-4"
       id="linearGradient4676"
       gradientUnits="userSpaceOnUse"
       gradientTransform="matrix(0.62671167,0,0,0.62671167,-603.5746,503.74503)"
       x1="62.681263"
       y1="889.13367"
       x2="62.681263"
       y2="377.43185" />
    <linearGradient
       inkscape:collect="always"
       xlink:href="#linearGradient3829-2-8"
       id="linearGradient4678"
       gradientUnits="userSpaceOnUse"
       gradientTransform="translate(-922.48562,547.59628)"
       x1="-0.53789705"
       y1="352.09497"
       x2="129.94102"
       y2="352.09497" />
    <linearGradient
       y2="352.09497"
       x2="129.94102"
       y1="352.09497"
       x1="-0.53789705"
       gradientTransform="translate(460.05352,659.90454)"
       gradientUnits="userSpaceOnUse"
       id="linearGradient3899-4-5"
       xlink:href="#linearGradient3829-2-6-2"
       inkscape:collect="always" />
    <linearGradient
       id="linearGradient3829-2-6-2">
      <stop
         style="stop-color:#ffffff;stop-opacity:1;"
         offset="0"
         id="stop3831-4-8-3" />
      <stop
         style="stop-color:#ffffff;stop-opacity:0;"
         offset="1"
         id="stop3833-5-9-2" />
    </linearGradient>
    <linearGradient
       y2="377.43185"
       x2="62.681263"
       y1="889.13367"
       x1="62.681263"
       gradientTransform="translate(-218.20783,572.00687)"
       gradientUnits="userSpaceOnUse"
       id="linearGradient4374-4"
       xlink:href="#linearGradient3839-1-3-6"
       inkscape:collect="always" />
    <linearGradient
       inkscape:collect="always"
       id="linearGradient3839-1-3-6">
      <stop
         style="stop-color:#000000;stop-opacity:1"
         offset="0"
         id="stop3841-7-5-6" />
      <stop
         style="stop-color:#ffffff;stop-opacity:1"
         offset="1"
         id="stop3843-1-5-6" />
    </linearGradient>
    <linearGradient
       y2="377.43185"
       x2="62.681263"
       y1="889.13367"
       x1="62.681263"
       gradientTransform="translate(460.05352,659.90454)"
       gradientUnits="userSpaceOnUse"
       id="linearGradient5089"
       xlink:href="#linearGradient3839-1-3-6"
       inkscape:collect="always" />
    <linearGradient
       inkscape:collect="always"
       xlink:href="#linearGradient3829-2-8"
       id="linearGradient5164"
       gradientUnits="userSpaceOnUse"
       gradientTransform="matrix(0.62671167,0,0,0.62671167,-603.5746,503.74503)"
       x1="-0.53789705"
       y1="352.09497"
       x2="129.94102"
       y2="352.09497" />
    <linearGradient
       y2="352.09497"
       x2="129.94102"
       y1="352.09497"
       x1="-0.53789705"
       gradientTransform="translate(-577.05319,641.11934)"
       gradientUnits="userSpaceOnUse"
       id="linearGradient3899-4-5-9"
       xlink:href="#linearGradient3829-2-6-2-1"
       inkscape:collect="always" />
    <linearGradient
       id="linearGradient3829-2-6-2-1">
      <stop
         style="stop-color:#ffffff;stop-opacity:1;"
         offset="0"
         id="stop3831-4-8-3-2" />
      <stop
         style="stop-color:#ffffff;stop-opacity:0;"
         offset="1"
         id="stop3833-5-9-2-8" />
    </linearGradient>
    <linearGradient
       y2="377.43185"
       x2="62.681263"
       y1="889.13367"
       x1="62.681263"
       gradientTransform="translate(460.05352,659.90454)"
       gradientUnits="userSpaceOnUse"
       id="linearGradient5089-8"
       xlink:href="#linearGradient3839-1-3-6-1"
       inkscape:collect="always" />
    <linearGradient
       inkscape:collect="always"
       id="linearGradient3839-1-3-6-1">
      <stop
         style="stop-color:#000000;stop-opacity:1"
         offset="0"
         id="stop3841-7-5-6-8" />
      <stop
         style="stop-color:#ffffff;stop-opacity:1"
         offset="1"
         id="stop3843-1-5-6-6" />
    </linearGradient>
    <linearGradient
       y2="377.43185"
       x2="62.681263"
       y1="889.13367"
       x1="62.681263"
       gradientTransform="translate(-577.05319,641.11934)"
       gradientUnits="userSpaceOnUse"
       id="linearGradient5205"
       xlink:href="#linearGradient3839-1-3-6-1"
       inkscape:collect="always" />
  </defs>
  <sodipodi:namedview
     id="base"
     pagecolor="#ffffff"
     bordercolor="#666666"
     borderopacity="1.0"
     inkscape:pageopacity="0.0"
     inkscape:pageshadow="2"
     inkscape:zoom="0.49497475"
     inkscape:cx="265.6243"
     inkscape:cy="1259.7982"
     inkscape:document-units="px"
     inkscape:current-layer="layer5"
     showgrid="true"
     inkscape:window-width="1366"
     inkscape:window-height="706"
     inkscape:window-x="-8"
     inkscape:window-y="-8"
     inkscape:window-maximized="1">
    <inkscape:grid
       type="xygrid"
       id="grid5044" />
  </sodipodi:namedview>
  <metadata
     id="metadata7">
    <rdf:RDF>
      <cc:Work
         rdf:about="">
        <dc:format>image/svg+xml</dc:format>
        <dc:type
           rdf:resource="http://purl.org/dc/dcmitype/StillImage" />
        <dc:title></dc:title>
      </cc:Work>
    </rdf:RDF>
  </metadata>
  <g
     inkscape:label="Layer 1"
     inkscape:groupmode="layer"
     id="layer1"
     style="display:inline">
    <image
       y="213.40205"
       x="753.98199"
       id="image2993"
       xlink:href="data:image/png;base64,iVBORw0KGgoAAAANSUhEUgAAASwAAAEsCAIAAAD2HxkiAAAAA3NCSVQICAjb4U/gAAAcR0lEQVR4 nO2da4xkR3XHz6nbr+l5z+6yu7ZnWdYYY6+xwY8E/MIPDAITMCgJJopkILGSGCmJ8kIknxIlQnnw JYpCFEVR8jGARCIhrBhwjGJBwJYtYG2v1/Z6X7OPmfU8emb6de+tkw+3n9M9vT27c/+3u+b8bO+2 u2/3qVtV59apqnNOESmKoiiKoiiKoiiKoiiKoiiKoiiKoiiKoiiKoiiKoiiKoiiKoiiKoiiKoiiK oiiKoiiKoiiKoiiKoiiKoiiKoiiKoiiKoiiKoiiKoiiKoiiKoiiKMuxw0gXozuTUzNTu2XRmJJXO kuclXRxlmAnDwK/41dLyxdMry4tJl6YLg6WEBw4dfv9Dn5t+28FUdjI/sSedGfHSOWaPSJIumjKk sEgY+mW/WioWFoLKytLCiR899a+nj7+SdMGaDIQSzuzae/fHn7julg/np2YLa6WqH4ahtdZaIRIR 1UDlCmBiYjZMxhjPM5m0NzE2sr745vGfP/2Db//j0lsXki5g0ko4Pjl9z0d/5/DdnwkkXyz7fhAm Wx5lh5BOpfK5VIqLL//oG89+559XluYTLEySSnj49ofu++Qf5WauLaxVQmsTLImyM/GMmRzLFpeP /+Bbf/PS899LrBhJCb7/E1988NG/LNrxtWJFRA1OJQFEpFjxvez0ez/wyYxn33z1J4kUIxkl/PRv /u1N93zh4nIpDMOBmJUqOxUmCkNbLAfXHr5n//7ZV174Lr4MCSjhI5//ysH3PrJUKOuapzI4lMrB 3tkb9+6/5tUX0XYpWgnve/i3D9/7+PJaWdc8lQFDKn549cFbMl5w8thzSMFQJbzh1gfv+8xfLRZK pJNAZQARKlWDd95099KFly+eexMmFqeEE9O7P/bYVysyZnUhVBlg/IAOHLrpjZ8+VSmvYyTilPDe T/z+3uvuK1cquhKjDDKhtfmJPbmsOf7SsxiJBiNmYmLyutsfKRZVA5VBh4mKxcr1t/3yrt37MBJB I+G9n/qT6atv8/0AI05RrgQRMalsPp9/48gzAHGgkfDgjfdXq6qBytBQ9cODhx/AyEoBZOw/8K6R qQOFwipAlqJsC9aGmfGrrj54w9yJ2OMtECPhzff8WqlUAQhSlG2kXK68567PAgQhRsLJXe8MglC3 BpXhIgjCiV3XAgTFroTjkzPpkQkrVp3UlOHCis2MjI9P7VpdfitWQbGbo6NTV2XHdquLjDJ8iOTG 9oxP7Y9bTuxKmE7nUqlc3FIUJQbEy+RTmbG4xcRujpp01qSy5JfjFqQo2w57aU6l45YSvxKyITI2 8UQairJ1RBjQb2M3R62QkKgGKsMJIusDYItCWv5UlKEj9q6L2CckzVqoDCmQVX2Q76jqoDJ0wDpt /CNhbRTUjUJl+BBC6CJmJFQFVIYURNfFzAlVDZXhBNJvIUpIorsUytAhjT9iBqGEukehDCmYTqvm qKJsjkPmqLJz6NptueV9nZdsROeEymVSmzLVlEvqq/ntq/rRK+7UPG53yuTWT2gwNFXnhMrgIULM JCJSm2DY0AZibSjRyXYi0lRGEiHyDIuQFYnUkKnlj5oack3pmJjYMDEbY4iZDXP9kto/JEwkhPCp rt8xRApsTgitO2V7aI5qQkQiIqENrA2C0A9CP7BX7c4d3Jc/8Lb83t0j0xO5yfHs9Hh2LJ8eyaU8 0725q76t+mG5GpYrYakSFMtBqewXS0GpEpTKwfKav7LmF4rB8pq/WPCX16tBSCnDxrBnjPGMZ7yU x8yM6E4od8vYlVAayzLqMzN8RDEE1loJw7BS9VMeH9ybu+7A9A3vmD587cz4aCaVMpvpW1cyaZNJ m7H8pkF6ImSthFZCa62V1XX/wmJpcaW8uFK9uFxZWfNfmysWK7DZDUIRdWFG2YjUZnoiYm0YVvyA SfbPpB+4/e3ve/eefXtG87kYuw0zeR57HkfuXKMj6X27860X/N2/H/nJsdVMyh3DCjQnjO9xsmHd TTb/dEs/tdVPOy/rvzCdt7ClYm+pDL2+JHXLU0TEBmFYLFdTRh7+wFV333rVDYdmrqBE20ttVhrd 3BXWVSetP+jKnFDiHdJlk9ebvdPnT231087L+i9M5y1cYW1dVh+Kxj4rYsMgKJar+2bSjz548GP3 HsplEjtTvStCwiSN2c2296y2H4RMC+NXQnesBoeJ1juttUG54ucz8rmPHfzQ+w9MTQxkhq7GQIgh /g4MmxPqqsyAEumfWOsHfmGtdNdNu574zM17ZvKX/mZyyIa/hxxIPKGI7lAMGo19dbHW2qBUqUzl +ctP3HbbYdB5YFdM7BooEu18xi0HuDqqOxQDhogIWRvaoFQuv+fQ+Jc+f8fkeDbpUvUFQ/IvwVBz dIciImLDMPTX1kufvm/2C5++2TM8+I0UmVNNtxwnAPmOQqQo/SGRDRqGob9YWP/Tx27+0AfeQcPU SMhR0BHf0ZpHoU4JBwGpqWAQ+NVKtfIXj996922zNESTBa4Pg/EXWFBDLs4cHZZWdhsRS9YGQbXq V37v0cN33zY7jA3DAtFCFJroaQchYsXaIPTfWl77rUeuf+jOQ8Ooge6Zo7Er4VC2sotEGmhDv7C6 /vmH3/nx+9+VdIkuF+wwCJAECmUS0aDexKhH34oNg3KlfMOB0cceuZmGfYYQf+lhS7Aa1LszqC/G jKTtl77wi0Rkh7M9uK4bmOJjpOic0HmExFprwyAorBef+NWbr9o7PqQaWAeZOMyRLQoiIt2jSIZG WKANSuXyQ3fsu+f2tw+3AlJjGITsUUBAhTKRDofJIDXnUL9cKT/2yC2e4SEfBuuA7FFHfEcFaT0o 7UTeaf56qfTrH7lu/54xa5Mu0RXC9dEdIg0zegCUkLFGvNKkti8Y+GM5/tSHb0y6ONsLTA1jn0dp Bm5nERIhKzYsliuf/fCh6Yns0A+DNYD+265sUaj+JUDkIyo2DAJ/LMcP3XWtU09C6BanC+Zo9Eh2 pwMMB/VQiXK58vBdV1+zdyK0GyyrRi6ozncaV3Z+hbu9bv06bW6/9WnadRasy+eYHoWRAtui0GQz QBo7E2FYqlQ/cvd1rR90Xtrtnc2SRfVOrNX7/d4f9XnltmdX23oRthvUnNApr/choOarHfjvPjDx jmum7XC7qG1EWrKtxS0JgHrMOIjUx8FypfrAHddk0sYlHcRG1btijjq1JDAU1HfowzC445ZZIgcb wKHFUeSBMAoKISsShmE4OZq6dnYmCN2q/Mj7Q83RLeJWJxh8rIi11ap/5837ky5KLAAf6U4E9aKc bZUaIhKtylR9/97bZpMuzhAjbX/FSPxHo7GIRvVCic4RDKdG03t2jQ/IPMAws9meXSpjGORYHXXc +BNBwrYodDQEEY2EoQ32zWT27UkydNAYbpxcuLhSnpsvnF9YWy4UiyXf98MgCEX63r5nJjLMJp1O vzG3ljLs0soMJJRJwVE7dSAIwn27JkZH0omsyngeM9HJsytHjl14/qXzzx9dWFippD2T8jyvcQr2 ls5FYGIybIwxqWwm7XmYtQwicsIcJaLIeFBrFIDUR8IgCA7NzhB8WTrSsJdfX/jmU68+//J82ZdU ykunsvtmcsSNg+ovry/UTslmZhHi+K1E2GoGZJ9Q1GEGRjQDt34QHrxmGizbGPaD8F++8eKTPzod Ws5msmMZQ2yYmBpj3+UrYQMm1MMFI0WPy3aL+lBYDcID+yeRsUvGcKkc/NnfP3PkzdWxkWzW84hN +7inxlB3YGdR6ECIQOrOMhP59PhoFlbpzFyuBH/+tWePnipOjOWZDdVNz7bSDR9u7BMS0XBW/3Ai kRZOj2c8z4NNCFMeffOpoz99fSWfyzKb2vxtyIF1WticcED2qxyncez11Ggm5XkYC8QYPnex+J/P nBjJZdiYZkGGH8xdAEZCtUWB1O3RyfFMKg0yc4yh//m/E8WKGONhJAJB9F5MoicFRi2MKZ9NecaQ WIRjieXvP3c2k0k52tLuJHrSwRBBdFaKtTKSTXmGAUYhM6+sVl6bW901kRcidqyhXdmiEFTYiVLb nxCRbMYzhsOY3WWEyDP8+umllFdzDHWsocUNc9SxVhl4mIiExJh6nty45TGdnV/zjHE1jRCgDmG+ o6qMCKLEdiKS9oyBqAQzFdYqdWEutrIDvqNcM5HilqMQUTPEhzEqSEREpZLfOLHMMTAReLCTep1r n0GkHjOGnYaHoSOZvTsAPViQeUdVDwG09xtolTvXvm7lHdUUFyCaceDQKgceDgEGYlDAfEedbKLB oraeHkWOIe0OR1UQ1mlBZ1GQ6iGI+ggIrmxxs32dOYsCs+Gp1KnXNywJi8ubUJBBHhbU62QTDRxR XH1jEo6Y0UhdrDbx5QJK/qvtAyDJ5S8XG9itHDNEpJmecCSjEA6qIWqaC3Fb00xPMKS+BobMFF+T 6WIDQ5IMa6Inp2h94iGtUycVEEb8Ssg6Z4chLX+2v4pZpKtqKIQIDUGZo2620QAizS07zMOvsYjv ZBNDzFGYA7cCYeNYiJLpbjMD7gyY01+JnYRWwBx1l4EBclvTRkLRGAoFZ43WXjjYxM64rSXhyrhj aSyN4ivcySaG3BTEd7T5Z1e470+j143lKtnkskvSefFmX2+83/WCriXpR1w/JaQW0T1EdP444FjL dnlSD93o0li0+ZvUdwv2/qkeX+H2UnFHITeT3lo8R3xHe99G/5/2qJQt1VTnxZt9XXpe0KfQy2jF zrvu68eldVoItEel9X82vr7km5u90+dP9fjKhg7Tf//p3e7bDMhtzcnla6VGlOzQxSbG3BMsst7F JhpAhOrHQOAWZliExLrZxC5F1isoagqIHJeEyM2Uoyj0aDSnSKqeHd2fAIFwW4tWzxxspQGktaah G4Vu5pYVjaJQtkxtJljzJAP0IImEOqiAOFQJwdRW9KOQv+0ePERsaK211mLjCSW0oQ3jn9owM1P0 j0uzUEyiJ42iaBKpnxXr+0HFD2VbVzHFWhv6hWLFDwJYjVf9amGt5GersUlgJiI2zJzyUtlsyrsc /4fLArLGjDiVSTco2hARG66Xyl/8lfd89pfeF5OQ0FKxHMT0461UqsEf/MYH//jxDwJkEdFqMfjD v/7eiQvrnkGsKWK6rmZbQyNirYRh4JfL1bJPVR+hKrGyDtF2IjKG5y4Uzl4smugAOFdAnMqkE/cN iLViQ7GhGglbgokLa+XltcpYPguqN2dOZepqkfbjKdj7Z/v8dDMvwK024la9CaXbV+oOLSISqv5t FWP4+Oml1hWZS7r8Nl736IG9e4gz5mhz0XzDuz2+0M+P9vlpUnrY/StS23zStaqtYgy/emIx7XFr 5fWvh50X99ZDzB4P6RZFQkDjHJyBmY6fWcIsyRBwD0SDeuHU2lZrZGsw0+p69a3lsjGMqzyIIJA5 qgm4I6ThCdXFPFd6YZjnzq9UfMvGw1SdNP6IGYDvqMAmuMNBtFvfCN3WeukPJp5/a60a2FzGgw6E 8c/dAcl/WVchulDPfqX10i/MCxdXQ1uL1QIJlZq7TqyATmWCSBkCWiwcxxTwMhaMt4a19tipJc8D T2tcMUcpeqDELmk4kDa7wCVVjFcPRei1U8sp1NIoNUrpgjlaf/w709euHJc0DwMzWZHX51bGR7JI 9yuMJFSOGe10TZoPJQ0v6RPDfHahUPVDzmMfYJpjxknaFtzURu8PNub4qcVMyku6ILGg+4RQmruD sr2BhI5jDJ85t+QZFiFG5TZ2Z5+wtgyhBmkT1b4tE4b23MKq5xnCri5gJlJqjiaC+i9sAWZeXa+c ubDmGTfNKWgUhUI1h5nGa12YuTTMVCpXz15cN4zKatHECXOUVAU30JgTJlyOIYKLxcr8SnlqdMRB FUQletIH/ga0OraAMfzmmSUTJXdKQAtjF6lua3jk0hGpSgvG8GsnF9OpRCaErpijSiv1oJLa3FDV 8JIw08m5RVgsLx5QGnydAbUjXV8qnTDzeslfWCoZw/hepGnwXaUlikK3DC8FM11YKKysV+OPKEoM Z4f4QaYeScjqtnZJmHl5pbhaChyuLN0nRFML7aq7kGq9XALmhbdWK36YTaWSqC1nFmaERNx9jm0F d4N648IzfPTNi2nPCBHKabQGLA2QbtYnh9ZLHxhjXnrjYiqJxPew9kE4cBMJMEndwNN6Jprq4aWR o6eWJvJZfE0xEcatQvOOQmmao1Ekkz6cemKYL1xcq1QCgh0+sQGIUD2zHo1WRf8Yw8dPX8ykk4nl hbUU4FQmEc1v0QkzA5LpDTnGmHMXVmphhPAuFO3kAowVzJxQl0bbYTbssfHYmG32xqrnFBYRi/Iv Mcwcx/OESUjOXVhJGZNIur5Gfua4Qbit1aMoVBMpSv7IbEZHc1/7xgtf+bcfbqsrlpCIteFCsfTl R3/hdx//RLXqb9+PdyebSX31n779D//1s4lseht/1hhjjOd56enxkVwmQ5SIHQ/y7oXlmCFdg6Co QZmZDJvU+Gh+LD+yvY0sEtownC5m8rkM7Jk3ms8fetv0yLYqITMTG2bDbCihc3ndyTFDujjaBTZs ZPuPFxKxkeVmoPNNY4yXNt52KiFRTRGjl0mtjDqyTxhVI2sUxUaiadR2qwoTsWGCHjfDxMwec2wr 7Ql1Hm77K0Ywc0LVQChIv7jaoiXYowyGS6FMuiyDob6SIE1FRAh18zHrzj4htXUKJX5q6wmoKpfG 3641sUNzQhIScdVaUYjq4QbONTETKNpMI+vdQpoBOKg5oXKlwJSwGZy12eRQWnwUuP3NDVPKrjPM 1h/v/Fajr3D7a+p2wWb/27VUrb2wx7z3krfQ2Zu5m6DO8rTWWz29JHhckvoZU72qi7p9RO3XdK2W zTpA50917TnUrfa6vugsNgbMnFCsNDeuetybdLxovJZNruz9C52Xdf5yjwt6XL+lUl3yl3tcv0FQ 1/JIlzLBtpprkjorpEdV96j5zZpss1/op70u7wVsYg0KZUrI52HHUj8eGSGq44VLQG4K5MDtaBMN Hi0nYAHnhC0zUWXraAZupxCU7nXIdbWJXYmsFyGriZ5gRIMSUilaJ4UOIaibAkVRaAgFiCSzKLrW xFGOGYAgiO+oAiYKCBfEg1yaKVQdJf47gx2Nps6j8dOyK8ECmx4mOPbGjBBmwQmghCwJbB/vUIQE dIhJE667CDjYwAIZPfQsChdBamGSYbeOAFBCbR4gSexOEBFZuFwcLpijVFsi0Dlh3NRWSKRulsIW Zhx1iULtUQBzzDjXRgNIMvVcn4m6B+aedE7oFji37S5ylctDzyd0jMgWhVe4s6aOK+ao6iCUFu9t RK1HfiXs6BaUM25rqoMw8FUt4vKUH3NToPMJHW2jwUMaK3qgFO7UVEEnmxix3hT/woyTTTPgIH1m BBhukAhO+I7qQOg+wo42sStzwqQCTXcm6KO4pblN72QTI2oRtDBjNYgCQosCUr0DdU161vYlItr8 o6450Dp+EHYYIhDY0AE0R1ULUbRPCVs7Uo9OtdlHvUc5p8NjUFoI3Kx3tq0GjU0UMHaxTjawM5v1 OgriaCQ+A3nNRNKcPOcA1ml1s94tGgYHrNLroUxONrFDc0JVQxTNbXoY7q+Oxo7uEzpG3RjFy3Wy iSE3paFMzgFesMS5xzkL7KRe0bWZuGn4bzYPaYpfOaRpkLqmibD7QXjMQNIsKES1UEJ0ZUcTUfea WFDDPOpUJveaaIBBp5pwdF0GljcHMCdUOxRI48ENHRGd0782Yu/AIAdunRMCaIRutnqOgkQneQZG XMBCYRFnUeikEAG3zWDaHLnjpNGy7i3NwNyOYjdH6y76brXPANJSwYwdl2AKD4ZRDxaYxww52EoD iOAzgDaSuznZvs54zCjJgFMMnW5cCSCPGW0kAPjpmdutCuu0mOOy9Wg0EPWxLwEPUvfy4AvqpkAj oe5PoEAfBlnvqa5pIAE7rTpwu4VQs/MAVKPVN0C5XFALMyLEOhzGTNd4XoR2sJsH36GeLLA5oT4s MTQ8ZqDzwUYjOwbmpjBua/WAFyVmpGVNBuq2hhKERDb8HRuwhRknm2nwSGqJxMXmhXValMeMkIYz QUA7r7R4OTvXvqj9VlSOGXKwjQaZBCrbyfaF3BQkikLT4GNpi2WKtd6bQ6CDyzKCGgs15aFTNKPG BNeHWt10nMMhjxkFRULTMycVEEX8J/UykS7KANh4QmASNe5WK9eS1sU/j4Kc1Ote0PUAAnaS6RTv YAuDNlsxZ1HgfTh2NsBVksYD1l0tjB1Y8l9dHUUgG/P5bOhD3PJmjxOu+zz8mmt2DjvpsoZ7qIDc 1lQLEbTbGxK5c3LHFV1ed/uhfuRJY7BwWAtjvzWAEjKJsJvWyiAD83xsCHStgZmim4p99EClt8CI URLZonBO/SKcMkd1qx5MIole3WtiWL8FbFGIiNX5IIakHnhOrswwyqyIfSS0oS+h76rFMoAkVtEu NrGEodgwbikIJbRBhSjtosEygLQ9vAE17vRcgwO/FPrluMXEbo5Wi4t+dTVuKUob2E0DdjehZVBd rZaW4pYS+0hYKhasX+T0LifNlYFDiITxJ1izk1rILP56aX0lbjkIj5lS4cLo6AEn5+6DRsMxouZN hrFHHQ1lYubS6jxAEEIJ59989l2zd1YrAUDWjidK/QvVB1d9ZtKp1PzxZwGCEJv1Kwun/dKC5h2F oVFM2wBzUFpaXjgFEAVy4F4599LU7J1WdDDEgFYJ94ZCw2bl3M8xskBKePbof09efStR2skJ/AAh RETcHi4Rv0DXApmYWGz1/Gvfx4gD+Y5WSmtLp59jz8OI26FEqzHR+SxIrXBJ/4iIiD1v6cxzxbXY NycicIeEnjv29Nie673cbhILE7rTSE4dHBoK2fjr8+dfBQ2DhEz0VC0Vzr3yHa82GIr+G8+/jf9w SPNvB/4lz/POvfJkpVSAVSA029ri3M/Pv/qk8fSM7njBb9Y7g/FS868+uTj3M6hQpDAiOnf0u0tn fsxGJ4fxkEwYhSOOGGy8pTM/njv6XbDcBAalky98nYSnrrnDhrpjEQPS8gKgGzURQ6+HxkutnPnJ yRe/jhedjGV48sX/qKwv7L3+o2Kt6DrN9pGoIgyrFjIbNubCsSeRizGtJDY9O3/s6XLh/N53fzQ7 tlesHd4mHDxYfeX7ho3xKmvz5489uXz2SFKFSHKNZPn8y2tLJ/dee//U7B1eekTEau+5YmobhFE9 Aq3R+CVtL8zMJvRLi6demH/9Gb8ce6hEDxJeqAwq63Mvf3vhxP/uOfTA5P4b07kZkZCax2sPXdsm TVRhzNzr5AFpySDWuIrb39/s+m7yhmM+yMTMRMTMJlVdu1iYf2Xh+NPVYpLqFzEQuwXV4srckW/N HfnW6OTVMwfvzOR3e5mRTG7CpHLMuo7aL0JExjOhMV6QzuRyuQyg9nJZL53JGS9tzED0pa6IhDYo V8uF0C9W199aPPHD9ZW5pAvVZEAjG9LZsXRuilNZ5pSOh1tE/DCc3Ts1O7s3DGPMj8LCQuKlzOlT 82curqUGtCsREYsEElT88rJfWUu6MIqiKIqiKIqiKIqiKIqiKIqiKIqiKIqiKIqiKIqiKIqiKIqi KIqiKIqiKIqiKIqiKIqiKIqiKIqiKIqiKIqiKIqiKIqiKIqiKIqiKIqiKIqiKIqiOMn/AxbGRv45 Lnp1AAAAAElFTkSuQmCC "
       height="300"
       width="300"
       style="fill:#00ff00;fill-opacity:1" />
    <text
       xml:space="preserve"
       style="font-size:40px;font-style:normal;font-variant:normal;font-weight:normal;font-stretch:normal;line-height:125%;letter-spacing:0px;word-spacing:0px;fill:#000000;fill-opacity:1;stroke:none;font-family:Lucida Console;-inkscape-font-specification:Lucida Console"
       x="6.0609155"
       y="363.43814"
       id="text3802"
       sodipodi:linespacing="125%"><tspan
         sodipodi:role="line"
         id="tspan3804"
         x="6.0609155"
         y="363.43814"
         style="fill:#ffffff" /></text>
    <g
       id="g3847"
       transform="translate(-246.47722,-75.761441)">
      <rect
         ry="20"
         rx="20"
         y="232.36218"
         x="-51.42857"
         height="235"
         width="232.85713"
         id="rect2998"
         style="fill:url(#linearGradient3854);fill-opacity:1;stroke:none" />
      <rect
         style="fill:#333333;fill-opacity:1;stroke:none;filter:url(#filter3798)"
         id="rect3792"
         width="232.85713"
         height="235"
         x="-51.42857"
         y="232.36218"
         rx="20"
         ry="20" />
      <rect
         ry="20"
         rx="20"
         y="232.54076"
         x="-51.251629"
         height="234.64287"
         width="232.50323"
         id="rect3794"
         style="fill:url(#linearGradient3856);fill-opacity:1;stroke:none" />
      <g
         id="text3026"
         style="font-size:74.71950531px;font-style:normal;font-weight:normal;line-height:125%;letter-spacing:0px;word-spacing:0px;fill:#ffffff;fill-opacity:1;stroke:url(#linearGradient3860);stroke-width:24.20000076;stroke-miterlimit:4;stroke-opacity:1;font-family:Sans"
         transform="scale(1.0068855,0.99316158)">
        <path
           inkscape:connector-curvature="0"
           id="path3823"
           d="m -0.5,250.8125 0,12.09375 0,138.90625 0,0.71875 c -0.22761032,6.12173 1.24152607,11.89094 3.59375,18.5 3.2064847,9.00953 9.804325,16.39094 18.3125,22.3125 10.148073,7.06299 23.171065,9.66504 39,10 0.05435,10e-4 0.101838,-10e-4 0.15625,0 9.459574,0.28813 19.183245,-1.48034 29.03125,-5 11.55679,-4.13045 21.18925,-12.57849 28.53125,-23.78125 8.23006,-12.5582 11.502,-28.9937 11.8125,-49.3125 l 0,-0.25 0,-0.25 c -0.73126,-27.68093 -7.3172,-49.29157 -23.46875,-61.59375 -13.685327,-10.42328 -29.938089,-15.60536 -47.03125,-15 -0.15701,0.006 -0.311601,-0.007 -0.46875,0 l 0,0.0312 c -7.868048,0.0581 -15.603934,0.79108 -23.125,2.25 -1.672152,0.32441 -3.243514,0.77721 -4.875,1.15625 l 0,-38.6875 0,-12.09375 -12.125,0 -7.25,0 -12.09375,0 z m 60.03125,78.53125 0.15625,0 0.125,0 c 11.924126,-0.34432 20.338212,2.61288 27.59375,8.96875 5.641627,4.94231 10.400992,16.42981 10.78125,36.71875 -0.777036,23.43859 -6.478086,35.58802 -11.96875,39.5 -8.830004,6.2911 -16.547508,8.50661 -24.53125,7.9375 l -0.21875,-0.0312 -0.1875,0 C 46.24935,421.8774 38.728769,418.11932 36.375,415.25 c -4.668153,-5.69052 -5.56554,-9.40572 -5.4375,-11.4375 l 0.03125,-0.375 0,-0.375 0,-69.25 c 3.00446,-0.93911 6.169723,-1.80012 9.53125,-2.5 0.01,-0.002 0.02124,0.002 0.03125,0 6.13457,-1.27313 12.464762,-1.93865 19,-1.96875 z"
           style="font-size:268.99020386px;font-style:normal;font-variant:normal;font-weight:normal;font-stretch:normal;text-indent:0;text-align:start;text-decoration:none;line-height:125%;letter-spacing:0;word-spacing:0;text-transform:none;direction:ltr;block-progression:tb;writing-mode:lr-tb;text-anchor:start;baseline-shift:baseline;color:#000000;fill:url(#linearGradient3858);fill-opacity:1;fill-rule:nonzero;stroke:none;stroke-width:24.20000076;marker:none;visibility:visible;display:inline;overflow:visible;enable-background:accumulate;font-family:Maven Pro Light 200;-inkscape-font-specification:Maven Pro Light 200" />
      </g>
    </g>
    <rect
       style="fill:url(#linearGradient3963);fill-opacity:1;stroke:none"
       id="rect2998-5"
       width="232.85713"
       height="235"
       x="-54.809258"
       y="157.04472"
       rx="20"
       ry="20" />
    <rect
       ry="20"
       rx="20"
       y="157.04472"
       x="-54.809258"
       height="235"
       width="232.85713"
       id="rect3792-2"
       style="fill:#333333;fill-opacity:1;stroke:none;filter:url(#filter3798-9)" />
    <rect
       style="fill:url(#linearGradient3959);fill-opacity:1;stroke:none"
       id="rect3794-7"
       width="232.50323"
       height="234.64287"
       x="-54.632317"
       y="157.2233"
       rx="20"
       ry="20" />
    <g
       transform="matrix(1.0068855,0,0,0.99316158,-3.3806874,-75.317463)"
       style="font-size:74.71950531px;font-style:normal;font-weight:normal;line-height:125%;letter-spacing:0px;word-spacing:0px;fill:#ffffff;fill-opacity:1;stroke:url(#linearGradient3899);stroke-width:24.20000076;stroke-miterlimit:4;stroke-opacity:1;font-family:Sans"
       id="text3026-6">
      <path
         style="font-size:268.99020386px;font-style:normal;font-variant:normal;font-weight:normal;font-stretch:normal;text-indent:0;text-align:start;text-decoration:none;line-height:125%;letter-spacing:0;word-spacing:0;text-transform:none;direction:ltr;block-progression:tb;writing-mode:lr-tb;text-anchor:start;baseline-shift:baseline;color:#000000;fill:url(#linearGradient3858-5);fill-opacity:1;fill-rule:nonzero;stroke:none;stroke-width:24.20000076;marker:none;visibility:visible;display:inline;overflow:visible;enable-background:accumulate;font-family:Maven Pro Light 200;-inkscape-font-specification:Maven Pro Light 200"
         d="m -0.5,250.8125 0,12.09375 0,138.90625 0,0.71875 c -0.22761032,6.12173 1.24152607,11.89094 3.59375,18.5 3.2064847,9.00953 9.804325,16.39094 18.3125,22.3125 10.148073,7.06299 23.171065,9.66504 39,10 0.05435,10e-4 0.101838,-10e-4 0.15625,0 9.459574,0.28813 19.183245,-1.48034 29.03125,-5 11.55679,-4.13045 21.18925,-12.57849 28.53125,-23.78125 8.23006,-12.5582 11.502,-28.9937 11.8125,-49.3125 l 0,-0.25 0,-0.25 c -0.73126,-27.68093 -7.3172,-49.29157 -23.46875,-61.59375 -13.685327,-10.42328 -29.938089,-15.60536 -47.03125,-15 -0.15701,0.006 -0.311601,-0.007 -0.46875,0 l 0,0.0312 c -7.868048,0.0581 -15.603934,0.79108 -23.125,2.25 -1.672152,0.32441 -3.243514,0.77721 -4.875,1.15625 l 0,-38.6875 0,-12.09375 -12.125,0 -7.25,0 -12.09375,0 z m 60.03125,78.53125 0.15625,0 0.125,0 c 11.924126,-0.34432 20.338212,2.61288 27.59375,8.96875 5.641627,4.94231 10.400992,16.42981 10.78125,36.71875 -0.777036,23.43859 -6.478086,35.58802 -11.96875,39.5 -8.830004,6.2911 -16.547508,8.50661 -24.53125,7.9375 l -0.21875,-0.0312 -0.1875,0 C 46.24935,421.8774 38.728769,418.11932 36.375,415.25 c -4.668153,-5.69052 -5.56554,-9.40572 -5.4375,-11.4375 l 0.03125,-0.375 0,-0.375 0,-69.25 c 3.00446,-0.93911 6.169723,-1.80012 9.53125,-2.5 0.01,-0.002 0.02124,0.002 0.03125,0 6.13457,-1.27313 12.464762,-1.93865 19,-1.96875 z"
         id="path3823-1"
         inkscape:connector-curvature="0" />
    </g>
    <text
       xml:space="preserve"
       style="font-size:40px;font-style:normal;font-weight:normal;line-height:125%;letter-spacing:0px;word-spacing:0px;fill:#000000;fill-opacity:1;stroke:none;font-family:Sans"
       x="-149.13556"
       y="354.3497"
       id="text3971"
       sodipodi:linespacing="125%"><tspan
         sodipodi:role="line"
         id="tspan3973"
         x="-149.13556"
         y="354.3497"
         style="font-size:144px;fill:#ffffff;font-family:Maven Pro Light 200;-inkscape-font-specification:Maven Pro Light 200">social</tspan></text>
    <path
       style="fill:#ffffff;fill-opacity:1;fill-rule:evenodd;stroke:none"
       d="m 239.56665,-234.16264 3.71962,9.28248 c 23.23638,-9.52921 49.69659,-11.4922 74.20024,-5.43199 24.50653,6.04888 47.13078,20.14153 63.42056,39.59032 10.51658,12.50116 18.48083,27.27082 26.86837,41.94544 8.3049,14.62322 17.23578,29.4229 29.45968,41.62584 1e-5,0 1e-5,10e-6 1e-5,10e-6 14.92138,14.829266 34.34791,24.952696 54.97197,28.626463 20.62594,3.667971 42.28712,0.839737 61.17818,-8.004455 18.88944,-8.84922 34.8589,-23.662528 45.01465,-41.776188 10.15221,-18.11622 14.40536,-39.4128 11.95653,-59.93861 -2.80414,-23.45962 -14.42531,-45.6806 -31.9674,-61.31047 -17.61001,-15.60867 -40.93954,-24.50413 -64.27318,-24.59578 -7.40851,4.77966 -14.79904,9.55419 -22.17159,14.3236 7.44301,-4.65869 14.86805,-9.31225 22.27511,-13.96068 23.29025,0.42111 46.2304,9.63606 63.20448,25.30023 17.04199,15.64298 28.08098,37.64176 30.46362,60.51946 2.08982,20.02125 -2.38338,40.65116 -12.44039,57.97859 0,0 -10e-6,1e-5 -10e-6,1e-5 -10.05368,17.33035 -25.67806,31.354141 -43.86293,39.540005 -18.18362,8.191062 -38.93252,10.555266 -58.42367,6.783389 -19.49341,-3.766151 -37.75644,-13.666584 -51.56293,-27.810984 -1e-5,-1e-5 -2e-5,-2e-5 -3e-5,-3e-5 -11.38243,-11.60538 -19.72194,-26.04602 -27.80717,-40.67104 -8.08672,-14.72376 -16.05437,-29.94734 -26.98152,-43.44296 -17.0529,-20.97341 -40.87504,-36.35927 -67.13912,-43.2731 -26.26699,-6.9025 -54.6999,-5.2609 -80.10308,4.70045 z"
       id="path3983"
       inkscape:path-effect="#path-effect3985;#path-effect3987"
       inkscape:original-d="m 241.42646,-229.5214 c 71.72083,-39.39595 139.40105,0 142.4315,36.36549 3.03046,36.36549 -26.26396,98.994952 55.55839,83.84266 81.82236,-15.15229 180.81731,-13.13198 169.70563,-78.7919 -11.11167,-65.65992 -94.95434,-85.86297 -94.95434,-85.86297 l -22.22335,14.14214"
       inkscape:connector-curvature="0" />
    <g
       id="g4146"
       transform="matrix(1.1681757,0,0,1.1681757,-146.89693,-51.304189)">
      <rect
         y="188.26332"
         x="213.97906"
         height="10"
         width="10"
         id="rect3991"
         style="fill:#ffffff;fill-opacity:1;stroke:none" />
      <rect
         y="188.26332"
         x="228.41389"
         height="10"
         width="10"
         id="rect3991-49"
         style="fill:#ffffff;fill-opacity:1;stroke:none" />
      <rect
         y="188.26332"
         x="242.84874"
         height="10"
         width="10"
         id="rect3991-82"
         style="fill:#ffffff;fill-opacity:1;stroke:none" />
      <rect
         y="188.26332"
         x="257.28357"
         height="10"
         width="10"
         id="rect3991-45"
         style="fill:#ffffff;fill-opacity:1;stroke:none" />
      <rect
         y="204.7505"
         x="213.97906"
         height="10"
         width="10"
         id="rect3991-3"
         style="fill:#ffffff;fill-opacity:1;stroke:none" />
      <rect
         y="204.7505"
         x="228.41389"
         height="10"
         width="10"
         id="rect3991-49-8"
         style="fill:#ffffff;fill-opacity:1;stroke:none" />
      <rect
         y="204.7505"
         x="242.84874"
         height="10"
         width="10"
         id="rect3991-82-6"
         style="fill:#ffffff;fill-opacity:1;stroke:none" />
      <rect
         y="204.7505"
         x="257.28357"
         height="10"
         width="10"
         id="rect3991-45-9"
         style="fill:#ffffff;fill-opacity:1;stroke:none" />
      <rect
         y="221.23775"
         x="213.97906"
         height="10"
         width="10"
         id="rect3991-8"
         style="fill:#ffffff;fill-opacity:1;stroke:none" />
      <rect
         y="221.23775"
         x="228.91898"
         height="10"
         width="8.9898472"
         id="rect3991-49-2"
         style="fill:#ffffff;fill-opacity:1;stroke:none" />
      <rect
         y="221.23775"
         x="242.84874"
         height="10"
         width="10"
         id="rect3991-82-62"
         style="fill:#ffffff;fill-opacity:1;stroke:none" />
      <rect
         y="221.23775"
         x="257.28357"
         height="10"
         width="10"
         id="rect3991-45-7"
         style="fill:#ffffff;fill-opacity:1;stroke:none" />
      <rect
         y="237.72491"
         x="213.97906"
         height="10"
         width="10"
         id="rect3991-5"
         style="fill:#ffffff;fill-opacity:1;stroke:none" />
      <rect
         y="237.72491"
         x="228.41389"
         height="10"
         width="10"
         id="rect3991-49-7"
         style="fill:#ffffff;fill-opacity:1;stroke:none" />
      <rect
         y="237.72491"
         x="242.84874"
         height="10"
         width="10"
         id="rect3991-82-8"
         style="fill:#ffffff;fill-opacity:1;stroke:none" />
      <rect
         y="237.72491"
         x="257.28357"
         height="10"
         width="10"
         id="rect3991-45-2"
         style="fill:#ffffff;fill-opacity:1;stroke:none" />
    </g>
    <g
       transform="matrix(1.0068855,0,0,0.99316158,219.7103,-568.09525)"
       style="font-size:74.71950531px;font-style:normal;font-weight:normal;line-height:125%;letter-spacing:0px;word-spacing:0px;fill:#ffffff;fill-opacity:1;stroke:url(#linearGradient3899-4);stroke-width:24.20000076;stroke-miterlimit:4;stroke-opacity:1;font-family:Sans"
       id="text3026-6-1"
       inkscape:export-filename="C:\Users\snow\Downloads\social_blue_logo_v5.png"
       inkscape:export-xdpi="90"
       inkscape:export-ydpi="90">
      <path
         style="font-size:268.99020386px;font-style:normal;font-variant:normal;font-weight:normal;font-stretch:normal;text-indent:0;text-align:start;text-decoration:none;line-height:125%;letter-spacing:0;word-spacing:0;text-transform:none;direction:ltr;block-progression:tb;writing-mode:lr-tb;text-anchor:start;baseline-shift:baseline;color:#000000;fill:url(#linearGradient4374);fill-opacity:1;fill-rule:nonzero;stroke:none;stroke-width:24.20000076;marker:none;visibility:visible;display:inline;overflow:visible;enable-background:accumulate;font-family:Maven Pro Light 200;-inkscape-font-specification:Maven Pro Light 200"
         d="m -0.5,250.8125 0,12.09375 0,138.90625 0,0.71875 c -0.22761032,6.12173 1.24152607,11.89094 3.59375,18.5 3.2064847,9.00953 9.804325,16.39094 18.3125,22.3125 10.148073,7.06299 23.171065,9.66504 39,10 0.05435,10e-4 0.101838,-10e-4 0.15625,0 9.459574,0.28813 19.183245,-1.48034 29.03125,-5 11.55679,-4.13045 21.18925,-12.57849 28.53125,-23.78125 8.23006,-12.5582 11.502,-28.9937 11.8125,-49.3125 l 0,-0.25 0,-0.25 c -0.73126,-27.68093 -7.3172,-49.29157 -23.46875,-61.59375 -13.685327,-10.42328 -29.938089,-15.60536 -47.03125,-15 -0.15701,0.006 -0.311601,-0.007 -0.46875,0 l 0,0.0312 c -7.868048,0.0581 -15.603934,0.79108 -23.125,2.25 -1.672152,0.32441 -3.243514,0.77721 -4.875,1.15625 l 0,-38.6875 0,-12.09375 -12.125,0 -7.25,0 -12.09375,0 z m 60.03125,78.53125 0.15625,0 0.125,0 c 11.924126,-0.34432 20.338212,2.61288 27.59375,8.96875 5.641627,4.94231 10.400992,16.42981 10.78125,36.71875 -0.777036,23.43859 -6.478086,35.58802 -11.96875,39.5 -8.830004,6.2911 -16.547508,8.50661 -24.53125,7.9375 l -0.21875,-0.0312 -0.1875,0 C 46.24935,421.8774 38.728769,418.11932 36.375,415.25 c -4.668153,-5.69052 -5.56554,-9.40572 -5.4375,-11.4375 l 0.03125,-0.375 0,-0.375 0,-69.25 c 3.00446,-0.93911 6.169723,-1.80012 9.53125,-2.5 0.01,-0.002 0.02124,0.002 0.03125,0 6.13457,-1.27313 12.464762,-1.93865 19,-1.96875 z"
         id="path3823-1-5"
         inkscape:connector-curvature="0" />
    </g>
    <g
       id="g4858">
      <rect
         inkscape:export-ydpi="90"
         inkscape:export-xdpi="90"
         inkscape:export-filename="C:\Users\snow\Downloads\social_blue_big_v3.png"
         ry="20"
         rx="20"
         y="254.01631"
         x="416.52332"
         height="64.285713"
         width="52.857143"
         id="rect2996"
         style="opacity:0.49557519;fill:#ffffff;fill-opacity:0.00537636;stroke:none" />
      <rect
         inkscape:export-ydpi="90"
         inkscape:export-xdpi="90"
         inkscape:export-filename="C:\Users\snow\Downloads\social_blue_big_v3.png"
         ry="20"
         rx="20"
         y="157.8698"
         x="201.02036"
         height="256.57874"
         width="483.86307"
         id="rect3965"
         style="fill:#637aaa;fill-opacity:1;stroke:none" />
      <g
         inkscape:export-ydpi="90"
         inkscape:export-xdpi="90"
         inkscape:export-filename="C:\Users\snow\Downloads\social_blue_big_v3.png"
         transform="translate(0,-5.1008034)"
         id="g4816">
        <text
           xml:space="preserve"
           style="font-size:40px;font-style:normal;font-weight:normal;line-height:125%;letter-spacing:59.49007797px;word-spacing:0px;fill:#ffffff;fill-opacity:1;stroke:#ffffff;stroke-width:11.19999981;stroke-miterlimit:4;stroke-opacity:1;stroke-dasharray:none;font-family:Sans"
           x="225.72568"
           y="391.80338"
           id="text3967"
           sodipodi:linespacing="125%"
           inkscape:export-filename="C:\Users\snow\Downloads\social_blue_big_v2.png"
           inkscape:export-xdpi="90"
           inkscape:export-ydpi="90"><tspan
             sodipodi:role="line"
             id="tspan3969"
             x="225.72568"
             y="391.80338"
             style="font-size:144px;letter-spacing:59.49007797px;fill:#ffffff;stroke:#ffffff;stroke-width:11.19999981;stroke-miterlimit:4;stroke-opacity:1;stroke-dasharray:none;font-family:Maven Pro Light 200;-inkscape-font-specification:Maven Pro Light 200">blue</tspan></text>
        <g
           id="g4795"
           transform="translate(11.158476,0)">
          <g
             inkscape:export-ydpi="90"
             inkscape:export-xdpi="90"
             inkscape:export-filename="C:\Users\snow\Downloads\social_blue_big_v2.png"
             transform="matrix(1.2952694,0,0,1.2952694,285.80509,-175.43716)"
             id="g4246-6">
            <rect
               style="fill:#ffffff;fill-opacity:1;stroke:none"
               id="rect3991-80-0"
               width="11.681757"
               height="11.681757"
               x="214.57977"
               y="283.34567" />
            <rect
               style="fill:#b3b3b3;fill-opacity:1;stroke:none"
               id="rect3991-49-20-9"
               width="11.681757"
               height="11.681757"
               x="231.4422"
               y="283.34567" />
            <rect
               style="fill:#b3b3b3;fill-opacity:1;stroke:none"
               id="rect3991-82-89-5"
               width="11.681757"
               height="11.681757"
               x="248.30463"
               y="283.34567" />
            <rect
               style="fill:#b3b3b3;fill-opacity:1;stroke:none"
               id="rect3991-45-28-8"
               width="11.681757"
               height="11.681757"
               x="265.16705"
               y="283.34567" />
            <rect
               style="fill:#ffffff;fill-opacity:1;stroke:none"
               id="rect3991-3-2-9"
               width="11.681757"
               height="11.681757"
               x="214.57977"
               y="302.60559" />
            <rect
               style="fill:#ffffff;fill-opacity:1;stroke:none"
               id="rect3991-49-8-0-0"
               width="11.681757"
               height="11.681757"
               x="231.4422"
               y="302.60559" />
            <rect
               style="fill:#ffffff;fill-opacity:1;stroke:none"
               id="rect3991-82-6-5-0"
               width="11.681757"
               height="11.681757"
               x="248.30463"
               y="302.60559" />
            <rect
               style="fill:#b3b3b3;fill-opacity:1;stroke:none"
               id="rect3991-45-9-5-0"
               width="11.681757"
               height="11.681757"
               x="265.16705"
               y="302.60559" />
            <rect
               style="fill:#ffffff;fill-opacity:1;stroke:none"
               id="rect3991-8-2-7"
               width="11.681757"
               height="11.681757"
               x="214.57977"
               y="321.8656" />
            <rect
               style="fill:#637aaa;fill-opacity:1;stroke:none"
               id="rect3991-49-2-7-2"
               width="10.501721"
               height="11.681757"
               x="232.03221"
               y="321.8656" />
            <rect
               style="fill:#ffffff;fill-opacity:1;stroke:none"
               id="rect3991-82-62-6-5"
               width="11.681757"
               height="11.681757"
               x="248.30463"
               y="321.8656" />
            <rect
               style="fill:#b3b3b3;fill-opacity:1;stroke:none"
               id="rect3991-45-7-7-5"
               width="11.681757"
               height="11.681757"
               x="265.16705"
               y="321.8656" />
            <rect
               style="fill:#ffffff;fill-opacity:1;stroke:none"
               id="rect3991-5-8-2"
               width="11.681757"
               height="11.681757"
               x="214.57977"
               y="341.12552" />
            <rect
               style="fill:#ffffff;fill-opacity:1;stroke:none"
               id="rect3991-49-7-7-1"
               width="11.681757"
               height="11.681757"
               x="231.4422"
               y="341.12552" />
            <rect
               style="fill:#ffffff;fill-opacity:1;stroke:none"
               id="rect3991-82-8-8-4"
               width="11.681757"
               height="11.681757"
               x="248.30463"
               y="341.12552" />
            <rect
               style="fill:#b3b3b3;fill-opacity:1;stroke:none"
               id="rect3991-45-2-1-8"
               width="11.681757"
               height="11.681757"
               x="265.16705"
               y="341.12552" />
          </g>
          <text
             inkscape:export-ydpi="90"
             inkscape:export-xdpi="90"
             inkscape:export-filename="C:\Users\snow\Downloads\social_blue_big_v2.png"
             sodipodi:linespacing="125%"
             id="text4705"
             y="278.06287"
             x="212.13203"
             style="font-size:144px;font-style:normal;font-weight:normal;line-height:125%;letter-spacing:0px;word-spacing:0px;fill:#ffffff;fill-opacity:1;stroke:none;font-family:Maven Pro Light 200;-inkscape-font-specification:Maven Pro Light 200"
             xml:space="preserve"><tspan
               y="278.06287"
               x="212.13203"
               id="tspan4707"
               sodipodi:role="line">social</tspan></text>
        </g>
      </g>
    </g>
    <rect
       style="opacity:0.49557519;fill:#ffffff;fill-opacity:0.00537636;stroke:none"
       id="rect2996-0"
       width="52.857143"
       height="64.285713"
       x="112.97247"
       y="-210.14647"
       rx="20"
       ry="20"
       inkscape:export-filename="C:\Users\snow\Downloads\social_blue_logo_v5.png"
       inkscape:export-xdpi="90"
       inkscape:export-ydpi="90" />
    <rect
       style="fill:#637aaa;fill-opacity:1;stroke:none"
       id="rect3965-3"
       width="483.86301"
       height="483.86301"
       x="-102.53049"
       y="-533.57721"
       rx="20"
       ry="20"
       inkscape:export-filename="C:\Users\snow\Downloads\social_blue_logo_v5.png"
       inkscape:export-xdpi="90"
       inkscape:export-ydpi="90" />
    <text
       xml:space="preserve"
       style="font-size:40px;font-style:normal;font-weight:normal;line-height:125%;letter-spacing:59.49007797px;word-spacing:0px;fill:#ffffff;fill-opacity:1;stroke:#ffffff;stroke-width:11.19999981;stroke-miterlimit:4;stroke-opacity:1;stroke-dasharray:none;font-family:Sans"
       x="-77.825165"
       y="-77.460205"
       id="text3967-0"
       sodipodi:linespacing="125%"
       inkscape:export-filename="C:\Users\snow\Downloads\social_blue_logo_v5.png"
       inkscape:export-xdpi="90"
       inkscape:export-ydpi="90"><tspan
         sodipodi:role="line"
         id="tspan3969-7"
         x="-77.825165"
         y="-77.460205"
         style="font-size:144px;letter-spacing:59.49007797px;fill:#ffffff;stroke:#ffffff;stroke-width:11.19999981;stroke-miterlimit:4;stroke-opacity:1;stroke-dasharray:none;font-family:Maven Pro Light 200;-inkscape-font-specification:Maven Pro Light 200">blue</tspan></text>
    <g
       id="g4246-6-7"
       transform="matrix(1.2952694,0,0,1.2952694,-6.58727,-650.41502)"
       inkscape:export-filename="C:\Users\snow\Downloads\social_blue_logo_v5.png"
       inkscape:export-xdpi="90"
       inkscape:export-ydpi="90">
      <rect
         y="283.34567"
         x="214.57977"
         height="11.681757"
         width="11.681757"
         id="rect3991-80-0-8"
         style="fill:#ffffff;fill-opacity:1;stroke:none" />
      <rect
         y="283.34567"
         x="231.4422"
         height="11.681757"
         width="11.681757"
         id="rect3991-49-20-9-3"
         style="fill:#b3b3b3;fill-opacity:1;stroke:none" />
      <rect
         y="283.34567"
         x="248.30463"
         height="11.681757"
         width="11.681757"
         id="rect3991-82-89-5-6"
         style="fill:#b3b3b3;fill-opacity:1;stroke:none" />
      <rect
         y="283.34567"
         x="265.16705"
         height="11.681757"
         width="11.681757"
         id="rect3991-45-28-8-4"
         style="fill:#b3b3b3;fill-opacity:1;stroke:none" />
      <rect
         y="302.60559"
         x="214.57977"
         height="11.681757"
         width="11.681757"
         id="rect3991-3-2-9-4"
         style="fill:#ffffff;fill-opacity:1;stroke:none" />
      <rect
         y="302.60559"
         x="231.4422"
         height="11.681757"
         width="11.681757"
         id="rect3991-49-8-0-0-1"
         style="fill:#ffffff;fill-opacity:1;stroke:none" />
      <rect
         y="302.60559"
         x="248.30463"
         height="11.681757"
         width="11.681757"
         id="rect3991-82-6-5-0-9"
         style="fill:#ffffff;fill-opacity:1;stroke:none" />
      <rect
         y="302.60559"
         x="265.16705"
         height="11.681757"
         width="11.681757"
         id="rect3991-45-9-5-0-5"
         style="fill:#b3b3b3;fill-opacity:1;stroke:none" />
      <rect
         y="321.8656"
         x="214.57977"
         height="11.681757"
         width="11.681757"
         id="rect3991-8-2-7-5"
         style="fill:#ffffff;fill-opacity:1;stroke:none" />
      <rect
         y="321.8656"
         x="232.03221"
         height="11.681757"
         width="10.501721"
         id="rect3991-49-2-7-2-7"
         style="fill:#637aaa;fill-opacity:1;stroke:none" />
      <rect
         y="321.8656"
         x="248.30463"
         height="11.681757"
         width="11.681757"
         id="rect3991-82-62-6-5-4"
         style="fill:#ffffff;fill-opacity:1;stroke:none" />
      <rect
         y="321.8656"
         x="265.16705"
         height="11.681757"
         width="11.681757"
         id="rect3991-45-7-7-5-7"
         style="fill:#b3b3b3;fill-opacity:1;stroke:none" />
      <rect
         y="341.12552"
         x="214.57977"
         height="11.681757"
         width="11.681757"
         id="rect3991-5-8-2-3"
         style="fill:#ffffff;fill-opacity:1;stroke:none" />
      <rect
         y="341.12552"
         x="231.4422"
         height="11.681757"
         width="11.681757"
         id="rect3991-49-7-7-1-4"
         style="fill:#ffffff;fill-opacity:1;stroke:none" />
      <rect
         y="341.12552"
         x="248.30463"
         height="11.681757"
         width="11.681757"
         id="rect3991-82-8-8-4-0"
         style="fill:#ffffff;fill-opacity:1;stroke:none" />
      <rect
         y="341.12552"
         x="265.16705"
         height="11.681757"
         width="11.681757"
         id="rect3991-45-2-1-8-8"
         style="fill:#b3b3b3;fill-opacity:1;stroke:none" />
    </g>
    <text
       xml:space="preserve"
       style="font-size:144px;font-style:normal;font-weight:normal;line-height:125%;letter-spacing:0px;word-spacing:0px;fill:#ffffff;fill-opacity:1;stroke:none;font-family:Maven Pro Light 200;-inkscape-font-specification:Maven Pro Light 200"
       x="-80.260323"
       y="-191.20071"
       id="text4705-8"
       sodipodi:linespacing="125%"
       inkscape:export-filename="C:\Users\snow\Downloads\social_blue_logo_v5.png"
       inkscape:export-xdpi="90"
       inkscape:export-ydpi="90"><tspan
         sodipodi:role="line"
         id="tspan4707-1"
         x="-80.260323"
         y="-191.20071">social</tspan></text>
    <g
       transform="matrix(1.0068855,0,0,0.99316158,-463.22121,-655.39185)"
       style="font-size:74.71950531px;font-style:normal;font-weight:normal;line-height:125%;letter-spacing:0px;word-spacing:0px;fill:#ffffff;fill-opacity:1;stroke:url(#linearGradient3899-4-5);stroke-width:24.20000076;stroke-miterlimit:4;stroke-opacity:1;display:inline;font-family:Sans"
       id="text3026-6-1-2"
       inkscape:export-filename="C:\Users\snow\Downloads\social_blue_logo_v6.png"
       inkscape:export-xdpi="90"
       inkscape:export-ydpi="90">
      <path
         style="font-size:268.99020386px;font-style:normal;font-variant:normal;font-weight:normal;font-stretch:normal;text-indent:0;text-align:start;text-decoration:none;line-height:125%;letter-spacing:0;word-spacing:0;text-transform:none;direction:ltr;block-progression:tb;writing-mode:lr-tb;text-anchor:start;baseline-shift:baseline;color:#000000;fill:url(#linearGradient5089);fill-opacity:1;fill-rule:nonzero;stroke:none;stroke-width:24.20000076;marker:none;visibility:visible;display:inline;overflow:visible;enable-background:accumulate;font-family:Maven Pro Light 200;-inkscape-font-specification:Maven Pro Light 200"
         d="m -0.5,250.8125 0,12.09375 0,138.90625 0,0.71875 c -0.22761032,6.12173 1.24152607,11.89094 3.59375,18.5 3.2064847,9.00953 9.804325,16.39094 18.3125,22.3125 10.148073,7.06299 23.171065,9.66504 39,10 0.05435,10e-4 0.101838,-10e-4 0.15625,0 9.459574,0.28813 19.183245,-1.48034 29.03125,-5 11.55679,-4.13045 21.18925,-12.57849 28.53125,-23.78125 8.23006,-12.5582 11.502,-28.9937 11.8125,-49.3125 l 0,-0.25 0,-0.25 c -0.73126,-27.68093 -7.3172,-49.29157 -23.46875,-61.59375 -13.685327,-10.42328 -29.938089,-15.60536 -47.03125,-15 -0.15701,0.006 -0.311601,-0.007 -0.46875,0 l 0,0.0312 c -7.868048,0.0581 -15.603934,0.79108 -23.125,2.25 -1.672152,0.32441 -3.243514,0.77721 -4.875,1.15625 l 0,-38.6875 0,-12.09375 -12.125,0 -7.25,0 -12.09375,0 z m 60.03125,78.53125 0.15625,0 0.125,0 c 11.924126,-0.34432 20.338212,2.61288 27.59375,8.96875 5.641627,4.94231 10.400992,16.42981 10.78125,36.71875 -0.777036,23.43859 -6.478086,35.58802 -11.96875,39.5 -8.830004,6.2911 -16.547508,8.50661 -24.53125,7.9375 l -0.21875,-0.0312 -0.1875,0 C 46.24935,421.8774 38.728769,418.11932 36.375,415.25 c -4.668153,-5.69052 -5.56554,-9.40572 -5.4375,-11.4375 l 0.03125,-0.375 0,-0.375 0,-69.25 c 3.00446,-0.93911 6.169723,-1.80012 9.53125,-2.5 0.01,-0.002 0.02124,0.002 0.03125,0 6.13457,-1.27313 12.464762,-1.93865 19,-1.96875 z"
         id="path3823-1-5-9"
         inkscape:connector-curvature="0" />
    </g>
    <rect
       style="opacity:0.49557519;fill:#ffffff;fill-opacity:0.00537636;stroke:none;display:inline"
       id="rect2996-0-0"
       width="52.857143"
       height="64.285713"
       x="-424.49704"
       y="-337.84918"
       rx="20"
       ry="20"
       inkscape:export-filename="C:\Users\snow\Downloads\social_blue_logo_v6.png"
       inkscape:export-xdpi="90"
       inkscape:export-ydpi="90" />
    <rect
       style="fill:#637aaa;fill-opacity:1;stroke:none;display:inline"
       id="rect3965-3-4"
       width="483.86301"
       height="483.86301"
       x="-640"
       y="-547.63782"
       rx="20"
       ry="20"
       inkscape:export-filename="C:\Users\snow\Downloads\social_blue_logo_v6.png"
       inkscape:export-xdpi="90"
       inkscape:export-ydpi="90" />
    <g
       style="display:inline"
       id="g4246-6-7-1"
       transform="matrix(5.8804281,0,0,5.8804281,-1842.9737,-2176.1321)"
       inkscape:export-filename="C:\Users\snow\Downloads\social_blue_logo_v6.png"
       inkscape:export-xdpi="90"
       inkscape:export-ydpi="90">
      <rect
         y="283.34567"
         x="214.57977"
         height="11.681757"
         width="11.681757"
         id="rect3991-80-0-8-1"
         style="fill:#ffffff;fill-opacity:1;stroke:none" />
      <rect
         y="283.34567"
         x="231.4422"
         height="11.681757"
         width="11.681757"
         id="rect3991-49-20-9-3-9"
         style="fill:#b3b3b3;fill-opacity:1;stroke:none" />
      <rect
         y="283.34567"
         x="248.30463"
         height="11.681757"
         width="11.681757"
         id="rect3991-82-89-5-6-9"
         style="fill:#b3b3b3;fill-opacity:1;stroke:none" />
      <rect
         y="283.34567"
         x="265.16705"
         height="11.681757"
         width="11.681757"
         id="rect3991-45-28-8-4-5"
         style="fill:#b3b3b3;fill-opacity:1;stroke:none" />
      <rect
         y="302.60559"
         x="214.57977"
         height="11.681757"
         width="11.681757"
         id="rect3991-3-2-9-4-5"
         style="fill:#ffffff;fill-opacity:1;stroke:none" />
      <rect
         y="302.60559"
         x="231.4422"
         height="11.681757"
         width="11.681757"
         id="rect3991-49-8-0-0-1-5"
         style="fill:#ffffff;fill-opacity:1;stroke:none" />
      <rect
         y="302.60559"
         x="248.30463"
         height="11.681757"
         width="11.681757"
         id="rect3991-82-6-5-0-9-6"
         style="fill:#ffffff;fill-opacity:1;stroke:none" />
      <rect
         y="302.60559"
         x="265.16705"
         height="11.681757"
         width="11.681757"
         id="rect3991-45-9-5-0-5-0"
         style="fill:#b3b3b3;fill-opacity:1;stroke:none" />
      <rect
         y="321.8656"
         x="214.57977"
         height="11.681757"
         width="11.681757"
         id="rect3991-8-2-7-5-5"
         style="fill:#ffffff;fill-opacity:1;stroke:none" />
      <rect
         y="321.8656"
         x="232.03221"
         height="11.681757"
         width="10.501721"
         id="rect3991-49-2-7-2-7-9"
         style="fill:#637aaa;fill-opacity:1;stroke:none" />
      <rect
         y="321.8656"
         x="248.30463"
         height="11.681757"
         width="11.681757"
         id="rect3991-82-62-6-5-4-4"
         style="fill:#ffffff;fill-opacity:1;stroke:none" />
      <rect
         y="321.8656"
         x="265.16705"
         height="11.681757"
         width="11.681757"
         id="rect3991-45-7-7-5-7-6"
         style="fill:#b3b3b3;fill-opacity:1;stroke:none" />
      <rect
         y="341.12552"
         x="214.57977"
         height="11.681757"
         width="11.681757"
         id="rect3991-5-8-2-3-3"
         style="fill:#ffffff;fill-opacity:1;stroke:none" />
      <rect
         y="341.12552"
         x="231.4422"
         height="11.681757"
         width="11.681757"
         id="rect3991-49-7-7-1-4-4"
         style="fill:#ffffff;fill-opacity:1;stroke:none" />
      <rect
         y="341.12552"
         x="248.30463"
         height="11.681757"
         width="11.681757"
         id="rect3991-82-8-8-4-0-9"
         style="fill:#ffffff;fill-opacity:1;stroke:none" />
      <rect
         y="341.12552"
         x="265.16705"
         height="11.681757"
         width="11.681757"
         id="rect3991-45-2-1-8-8-0"
         style="fill:#b3b3b3;fill-opacity:1;stroke:none" />
    </g>
    <g
       transform="matrix(1.0068855,0,0,0.99316158,581.0265,-636.73511)"
       style="font-size:74.71950531px;font-style:normal;font-weight:normal;line-height:125%;letter-spacing:0px;word-spacing:0px;fill:#ffffff;fill-opacity:1;stroke:url(#linearGradient3899-4-5-9);stroke-width:24.20000076;stroke-miterlimit:4;stroke-opacity:1;display:inline;font-family:Sans"
       id="text3026-6-1-2-0"
       inkscape:export-filename="C:\Users\snow\Downloads\social_blue_logo_v7.png"
       inkscape:export-xdpi="90"
       inkscape:export-ydpi="90">
      <path
         style="font-size:268.99020386px;font-style:normal;font-variant:normal;font-weight:normal;font-stretch:normal;text-indent:0;text-align:start;text-decoration:none;line-height:125%;letter-spacing:0;word-spacing:0;text-transform:none;direction:ltr;block-progression:tb;writing-mode:lr-tb;text-anchor:start;baseline-shift:baseline;color:#000000;fill:url(#linearGradient5205);fill-opacity:1;fill-rule:nonzero;stroke:none;stroke-width:24.20000076;marker:none;visibility:visible;display:inline;overflow:visible;enable-background:accumulate;font-family:Maven Pro Light 200;-inkscape-font-specification:Maven Pro Light 200"
         d="m -0.5,250.8125 0,12.09375 0,138.90625 0,0.71875 c -0.22761032,6.12173 1.24152607,11.89094 3.59375,18.5 3.2064847,9.00953 9.804325,16.39094 18.3125,22.3125 10.148073,7.06299 23.171065,9.66504 39,10 0.05435,10e-4 0.101838,-10e-4 0.15625,0 9.459574,0.28813 19.183245,-1.48034 29.03125,-5 11.55679,-4.13045 21.18925,-12.57849 28.53125,-23.78125 8.23006,-12.5582 11.502,-28.9937 11.8125,-49.3125 l 0,-0.25 0,-0.25 c -0.73126,-27.68093 -7.3172,-49.29157 -23.46875,-61.59375 -13.685327,-10.42328 -29.938089,-15.60536 -47.03125,-15 -0.15701,0.006 -0.311601,-0.007 -0.46875,0 l 0,0.0312 c -7.868048,0.0581 -15.603934,0.79108 -23.125,2.25 -1.672152,0.32441 -3.243514,0.77721 -4.875,1.15625 l 0,-38.6875 0,-12.09375 -12.125,0 -7.25,0 -12.09375,0 z m 60.03125,78.53125 0.15625,0 0.125,0 c 11.924126,-0.34432 20.338212,2.61288 27.59375,8.96875 5.641627,4.94231 10.400992,16.42981 10.78125,36.71875 -0.777036,23.43859 -6.478086,35.58802 -11.96875,39.5 -8.830004,6.2911 -16.547508,8.50661 -24.53125,7.9375 l -0.21875,-0.0312 -0.1875,0 C 46.24935,421.8774 38.728769,418.11932 36.375,415.25 c -4.668153,-5.69052 -5.56554,-9.40572 -5.4375,-11.4375 l 0.03125,-0.375 0,-0.375 0,-69.25 c 3.00446,-0.93911 6.169723,-1.80012 9.53125,-2.5 0.01,-0.002 0.02124,0.002 0.03125,0 6.13457,-1.27313 12.464762,-1.93865 19,-1.96875 z"
         id="path3823-1-5-9-2"
         inkscape:connector-curvature="0" />
    </g>
    <rect
       style="opacity:0.49557519;fill:#ffffff;fill-opacity:0.00537636;stroke:none;display:inline"
       id="rect2996-0-0-4"
       width="52.857143"
       height="64.285713"
       x="619.75067"
       y="-319.19244"
       rx="20"
       ry="20"
       inkscape:export-filename="C:\Users\snow\Downloads\social_blue_logo_v7.png"
       inkscape:export-xdpi="90"
       inkscape:export-ydpi="90" />
    <rect
       style="fill:#637aaa;fill-opacity:1;stroke:none;display:inline"
       id="rect3965-3-4-9"
       width="483.86301"
       height="483.86301"
       x="404.24771"
       y="-528.98108"
       rx="20"
       ry="20"
       inkscape:export-filename="C:\Users\snow\Downloads\social_blue_logo_v7.png"
       inkscape:export-xdpi="90"
       inkscape:export-ydpi="90" />
    <g
       style="display:inline"
       id="g4246-6-7-1-0"
       transform="matrix(4.9405213,0,0,4.9405213,-567.77745,-1858.5132)"
       inkscape:export-filename="C:\Users\snow\Downloads\social_blue_logo_v7.png"
       inkscape:export-xdpi="90"
       inkscape:export-ydpi="90">
      <rect
         y="283.34567"
         x="214.57977"
         height="11.681757"
         width="11.681757"
         id="rect3991-80-0-8-1-2"
         style="fill:#ffffff;fill-opacity:1;stroke:none" />
      <rect
         y="283.34567"
         x="231.4422"
         height="11.681757"
         width="11.681757"
         id="rect3991-49-20-9-3-9-2"
         style="fill:#b3b3b3;fill-opacity:1;stroke:none" />
      <rect
         y="283.34567"
         x="248.30463"
         height="11.681757"
         width="11.681757"
         id="rect3991-82-89-5-6-9-1"
         style="fill:#b3b3b3;fill-opacity:1;stroke:none" />
      <rect
         y="283.34567"
         x="265.16705"
         height="11.681757"
         width="11.681757"
         id="rect3991-45-28-8-4-5-5"
         style="fill:#b3b3b3;fill-opacity:1;stroke:none" />
      <rect
         y="302.60559"
         x="214.57977"
         height="11.681757"
         width="11.681757"
         id="rect3991-3-2-9-4-5-4"
         style="fill:#ffffff;fill-opacity:1;stroke:none" />
      <rect
         y="302.60559"
         x="231.4422"
         height="11.681757"
         width="11.681757"
         id="rect3991-49-8-0-0-1-5-4"
         style="fill:#ffffff;fill-opacity:1;stroke:none" />
      <rect
         y="302.60559"
         x="248.30463"
         height="11.681757"
         width="11.681757"
         id="rect3991-82-6-5-0-9-6-4"
         style="fill:#ffffff;fill-opacity:1;stroke:none" />
      <rect
         y="302.60559"
         x="265.16705"
         height="11.681757"
         width="11.681757"
         id="rect3991-45-9-5-0-5-0-2"
         style="fill:#b3b3b3;fill-opacity:1;stroke:none" />
      <rect
         y="321.8656"
         x="214.57977"
         height="11.681757"
         width="11.681757"
         id="rect3991-8-2-7-5-5-5"
         style="fill:#ffffff;fill-opacity:1;stroke:none" />
      <rect
         y="321.8656"
         x="232.03221"
         height="11.681757"
         width="10.501721"
         id="rect3991-49-2-7-2-7-9-0"
         style="fill:#637aaa;fill-opacity:1;stroke:none" />
      <rect
         y="321.8656"
         x="248.30463"
         height="11.681757"
         width="11.681757"
         id="rect3991-82-62-6-5-4-4-4"
         style="fill:#ffffff;fill-opacity:1;stroke:none" />
      <rect
         y="321.8656"
         x="265.16705"
         height="11.681757"
         width="11.681757"
         id="rect3991-45-7-7-5-7-6-2"
         style="fill:#b3b3b3;fill-opacity:1;stroke:none" />
      <rect
         y="341.12552"
         x="214.57977"
         height="11.681757"
         width="11.681757"
         id="rect3991-5-8-2-3-3-1"
         style="fill:#ffffff;fill-opacity:1;stroke:none" />
      <rect
         y="341.12552"
         x="231.4422"
         height="11.681757"
         width="11.681757"
         id="rect3991-49-7-7-1-4-4-2"
         style="fill:#ffffff;fill-opacity:1;stroke:none" />
      <rect
         y="341.12552"
         x="248.30463"
         height="11.681757"
         width="11.681757"
         id="rect3991-82-8-8-4-0-9-7"
         style="fill:#ffffff;fill-opacity:1;stroke:none" />
      <rect
         y="341.12552"
         x="265.16705"
         height="11.681757"
         width="11.681757"
         id="rect3991-45-2-1-8-8-0-7"
         style="fill:#b3b3b3;fill-opacity:1;stroke:none" />
    </g>
  </g>
  <g
     inkscape:groupmode="layer"
     id="layer2"
     inkscape:label="base"
     style="display:inline" />
  <g
     inkscape:groupmode="layer"
     id="layer3"
     inkscape:label="cuadros"
     style="display:inline" />
  <g
     inkscape:groupmode="layer"
     id="layer4"
     inkscape:label="b"
     style="display:inline" />
  <g
     inkscape:groupmode="layer"
     id="layer5"
     inkscape:label="sombra"
     style="display:inline">
    <rect
       style="fill:#637aaa;fill-opacity:1;stroke:none"
       id="rect3965-6"
       width="478.68903"
       height="478.68903"
       x="931.03796"
       y="-528.02466"
       rx="20"
       ry="20"
       inkscape:export-filename="C:\Users\snow\Downloads\social_blue_logo_v3.png"
       inkscape:export-xdpi="90"
       inkscape:export-ydpi="90" />
    <g
       id="g4246"
       transform="matrix(2.8950885,0,0,2.8950885,569.31722,-1307.8623)">
      <rect
         y="283.34567"
         x="214.57977"
         height="11.681757"
         width="11.681757"
         id="rect3991-80"
         style="fill:#ffffff;fill-opacity:1;stroke:none" />
      <rect
         y="283.34567"
         x="231.4422"
         height="11.681757"
         width="11.681757"
         id="rect3991-49-20"
         style="fill:#b3b3b3;fill-opacity:1;stroke:none" />
      <rect
         y="283.34567"
         x="248.30463"
         height="11.681757"
         width="11.681757"
         id="rect3991-82-89"
         style="fill:#b3b3b3;fill-opacity:1;stroke:none" />
      <rect
         y="283.34567"
         x="265.16705"
         height="11.681757"
         width="11.681757"
         id="rect3991-45-28"
         style="fill:#b3b3b3;fill-opacity:1;stroke:none" />
      <rect
         y="302.60559"
         x="214.57977"
         height="11.681757"
         width="11.681757"
         id="rect3991-3-2"
         style="fill:#ffffff;fill-opacity:1;stroke:none" />
      <rect
         y="302.60559"
         x="231.4422"
         height="11.681757"
         width="11.681757"
         id="rect3991-49-8-0"
         style="fill:#ffffff;fill-opacity:1;stroke:none" />
      <rect
         y="302.60559"
         x="248.30463"
         height="11.681757"
         width="11.681757"
         id="rect3991-82-6-5"
         style="fill:#ffffff;fill-opacity:1;stroke:none" />
      <rect
         y="302.60559"
         x="265.16705"
         height="11.681757"
         width="11.681757"
         id="rect3991-45-9-5"
         style="fill:#b3b3b3;fill-opacity:1;stroke:none" />
      <rect
         y="321.8656"
         x="214.57977"
         height="11.681757"
         width="11.681757"
         id="rect3991-8-2"
         style="fill:#ffffff;fill-opacity:1;stroke:none" />
      <rect
         y="321.8656"
         x="232.03221"
         height="11.681757"
         width="10.501721"
         id="rect3991-49-2-7"
         style="fill:#637aaa;fill-opacity:1;stroke:none" />
      <rect
         y="321.8656"
         x="248.30463"
         height="11.681757"
         width="11.681757"
         id="rect3991-82-62-6"
         style="fill:#ffffff;fill-opacity:1;stroke:none" />
      <rect
         y="321.8656"
         x="265.16705"
         height="11.681757"
         width="11.681757"
         id="rect3991-45-7-7"
         style="fill:#b3b3b3;fill-opacity:1;stroke:none" />
      <rect
         y="341.12552"
         x="214.57977"
         height="11.681757"
         width="11.681757"
         id="rect3991-5-8"
         style="fill:#ffffff;fill-opacity:1;stroke:none" />
      <rect
         y="341.12552"
         x="231.4422"
         height="11.681757"
         width="11.681757"
         id="rect3991-49-7-7"
         style="fill:#ffffff;fill-opacity:1;stroke:none" />
      <rect
         y="341.12552"
         x="248.30463"
         height="11.681757"
         width="11.681757"
         id="rect3991-82-8-8"
         style="fill:#ffffff;fill-opacity:1;stroke:none" />
      <rect
         y="341.12552"
         x="265.16705"
         height="11.681757"
         width="11.681757"
         id="rect3991-45-2-1"
         style="fill:#b3b3b3;fill-opacity:1;stroke:none" />
    </g>
    <g
       transform="matrix(1.6066168,0,0,1.5847184,969.71308,-798.29409)"
       style="font-size:74.71950531px;font-style:normal;font-weight:normal;line-height:125%;letter-spacing:0px;word-spacing:0px;fill:#ffffff;fill-opacity:1;stroke:url(#linearGradient5164);stroke-width:15.16642189;stroke-miterlimit:4;stroke-opacity:1;font-family:Sans"
       id="text3026-6-14">
      <path
         style="font-size:268.99020386px;font-style:normal;font-variant:normal;font-weight:normal;font-stretch:normal;text-indent:0;text-align:start;text-decoration:none;line-height:125%;letter-spacing:0;word-spacing:0;text-transform:none;direction:ltr;block-progression:tb;writing-mode:lr-tb;text-anchor:start;baseline-shift:baseline;color:#000000;fill:url(#linearGradient4676);fill-opacity:1;fill-rule:nonzero;stroke:none;stroke-width:24.20000076;marker:none;visibility:visible;display:inline;overflow:visible;enable-background:accumulate;font-family:Maven Pro Light 200;-inkscape-font-specification:Maven Pro Light 200"
         d="m -0.5,250.8125 0,12.09375 0,138.90625 0,0.71875 c -0.22761032,6.12173 1.24152607,11.89094 3.59375,18.5 3.2064847,9.00953 9.804325,16.39094 18.3125,22.3125 10.148073,7.06299 23.171065,9.66504 39,10 0.05435,10e-4 0.101838,-10e-4 0.15625,0 9.459574,0.28813 19.183245,-1.48034 29.03125,-5 11.55679,-4.13045 21.18925,-12.57849 28.53125,-23.78125 8.23006,-12.5582 11.502,-28.9937 11.8125,-49.3125 l 0,-0.25 0,-0.25 c -0.73126,-27.68093 -7.3172,-49.29157 -23.46875,-61.59375 -13.685327,-10.42328 -29.938089,-15.60536 -47.03125,-15 -0.15701,0.006 -0.311601,-0.007 -0.46875,0 l 0,0.0312 c -7.868048,0.0581 -15.603934,0.79108 -23.125,2.25 -1.672152,0.32441 -3.243514,0.77721 -4.875,1.15625 l 0,-38.6875 0,-66.87372 -12.125,0 -7.25,0 -12.09375,0 z m 60.03125,78.53125 0.15625,0 0.125,0 c 11.924126,-0.34432 20.338212,2.61288 27.59375,8.96875 5.641627,4.94231 10.400992,16.42981 10.78125,36.71875 -0.777036,23.43859 -6.478086,35.58802 -11.96875,39.5 -8.830004,6.2911 -16.547508,8.50661 -24.53125,7.9375 l -0.21875,-0.0312 -0.1875,0 C 46.24935,421.8774 38.728769,418.11932 36.375,415.25 c -4.668153,-5.69052 -5.56554,-9.40572 -5.4375,-11.4375 l 0.03125,-0.375 0,-0.375 0,-69.25 c 3.00446,-0.93911 6.169723,-1.80012 9.53125,-2.5 0.01,-0.002 0.02124,0.002 0.03125,0 6.13457,-1.27313 12.464762,-1.93865 19,-1.96875 z"
         id="path3823-1-9"
         inkscape:connector-curvature="0"
         sodipodi:nodetypes="ccccssccscccccccccccccccccccccscccsccccccc" />
    </g>
    <text
       xml:space="preserve"
       style="font-size:144px;font-style:normal;font-weight:normal;line-height:125%;letter-spacing:0px;word-spacing:0px;fill:#637aaa;fill-opacity:1;stroke:#637aaa;stroke-width:11.5;stroke-miterlimit:4;stroke-opacity:1;stroke-dasharray:none;display:inline;font-family:Maven Pro Light 200;-inkscape-font-specification:Maven Pro Light 200"
       x="964.28577"
       y="-393.14899"
       id="text4705-8-9"
       sodipodi:linespacing="125%"
       inkscape:export-filename="C:\Users\snow\Downloads\social_blue_logo_v5.png"
       inkscape:export-xdpi="90"
       inkscape:export-ydpi="90"><tspan
         sodipodi:role="line"
         id="tspan4707-1-5"
         x="964.28577"
         y="-393.14899">s</tspan></text>
  </g>
</svg>
