<?xml version="1.0" encoding="UTF-8" standalone="no"?>
<!-- Created with Inkscape (http://www.inkscape.org/) -->

<svg
   xmlns:dc="http://purl.org/dc/elements/1.1/"
   xmlns:cc="http://creativecommons.org/ns#"
   xmlns:rdf="http://www.w3.org/1999/02/22-rdf-syntax-ns#"
   xmlns:svg="http://www.w3.org/2000/svg"
   xmlns="http://www.w3.org/2000/svg"
   xmlns:xlink="http://www.w3.org/1999/xlink"
   xmlns:sodipodi="http://sodipodi.sourceforge.net/DTD/sodipodi-0.dtd"
   xmlns:inkscape="http://www.inkscape.org/namespaces/inkscape"
   width="744.09448819"
   height="1052.3622047"
   id="svg6722"
   version="1.1"
   inkscape:version="0.48.5 r10040"
   sodipodi:docname="logo_like_version2_5_icon.svg"
   inkscape:export-filename="C:\Users\snow\Downloads\logo_like_version2_5.png"
   inkscape:export-xdpi="90"
   inkscape:export-ydpi="90">
  <defs
     id="defs6724">
    <linearGradient
       id="linearGradient4311"
       inkscape:collect="always">
      <stop
         id="stop4313"
         offset="0"
         style="stop-color:#e6e6e6;stop-opacity:1" />
      <stop
         id="stop4315"
         offset="1"
         style="stop-color:#000000;stop-opacity:1" />
    </linearGradient>
    <linearGradient
       inkscape:collect="always"
       id="linearGradient4285">
      <stop
         style="stop-color:#333333;stop-opacity:1"
         offset="0"
         id="stop4287" />
      <stop
         style="stop-color:#999999;stop-opacity:1"
         offset="1"
         id="stop4289" />
    </linearGradient>
    <linearGradient
       id="linearGradient4277">
      <stop
         style="stop-color:#427ca0;stop-opacity:1;"
         offset="0"
         id="stop4279" />
      <stop
         style="stop-color:#95bed7;stop-opacity:1"
         offset="1"
         id="stop4281" />
    </linearGradient>
    <linearGradient
       inkscape:collect="always"
       id="linearGradient4165">
      <stop
         style="stop-color:#ffffff;stop-opacity:1;"
         offset="0"
         id="stop4167" />
      <stop
         style="stop-color:#ffffff;stop-opacity:0;"
         offset="1"
         id="stop4169" />
    </linearGradient>
    <linearGradient
       inkscape:collect="always"
       id="linearGradient3109">
      <stop
         style="stop-color:#e6e6e6;stop-opacity:1"
         offset="0"
         id="stop3111" />
      <stop
         style="stop-color:#808080;stop-opacity:1"
         offset="1"
         id="stop3113" />
    </linearGradient>
    <linearGradient
       inkscape:collect="always"
       id="linearGradient7687">
      <stop
         style="stop-color:#ff0000;stop-opacity:1;"
         offset="0"
         id="stop7689" />
      <stop
         style="stop-color:#ff0000;stop-opacity:0;"
         offset="1"
         id="stop7691" />
    </linearGradient>
    <inkscape:path-effect
       effect="skeletal"
       id="path-effect7638"
       is_visible="true"
       pattern="m 3.8941777,12.627476 0,10 10.0000003,-5 z"
       copytype="single_stretched"
       prop_scale="1"
       scale_y_rel="false"
       spacing="0"
       normal_offset="0"
       tang_offset="0"
       prop_units="false"
       vertical_pattern="false"
       fuse_tolerance="0" />
    <filter
       inkscape:collect="always"
       id="filter7410">
      <feGaussianBlur
         inkscape:collect="always"
         stdDeviation="3.5470057"
         id="feGaussianBlur7412" />
    </filter>
    <linearGradient
       inkscape:collect="always"
       xlink:href="#linearGradient7687"
       id="linearGradient7693"
       x1="353.73969"
       y1="336.73291"
       x2="345.61728"
       y2="568.32208"
       gradientUnits="userSpaceOnUse" />
    <linearGradient
       inkscape:collect="always"
       xlink:href="#linearGradient7687"
       id="linearGradient7697"
       gradientUnits="userSpaceOnUse"
       x1="342.05716"
       y1="517.05884"
       x2="343.6702"
       y2="538.45215" />
    <linearGradient
       inkscape:collect="always"
       xlink:href="#linearGradient3109"
       id="linearGradient3115"
       x1="324.35489"
       y1="570.96667"
       x2="312.61353"
       y2="990.72009"
       gradientUnits="userSpaceOnUse" />
    <filter
       inkscape:collect="always"
       id="filter3885">
      <feGaussianBlur
         inkscape:collect="always"
         stdDeviation="3.9119397"
         id="feGaussianBlur3887" />
    </filter>
    <linearGradient
       inkscape:collect="always"
       xlink:href="#linearGradient3109-3"
       id="linearGradient3115-2"
       x1="324.35489"
       y1="570.96667"
       x2="312.61353"
       y2="990.72009"
       gradientUnits="userSpaceOnUse" />
    <linearGradient
       inkscape:collect="always"
       id="linearGradient3109-3">
      <stop
         style="stop-color:#e6e6e6;stop-opacity:1"
         offset="0"
         id="stop3111-1" />
      <stop
         style="stop-color:#808080;stop-opacity:1"
         offset="1"
         id="stop3113-6" />
    </linearGradient>
    <filter
       color-interpolation-filters="sRGB"
       inkscape:collect="always"
       id="filter3885-8">
      <feGaussianBlur
         inkscape:collect="always"
         stdDeviation="3.9119397"
         id="feGaussianBlur3887-8" />
    </filter>
    <linearGradient
       y2="990.72009"
       x2="312.61353"
       y1="570.96667"
       x1="324.35489"
       gradientUnits="userSpaceOnUse"
       id="linearGradient3934"
       xlink:href="#linearGradient3109-3"
       inkscape:collect="always" />
    <filter
       color-interpolation-filters="sRGB"
       inkscape:collect="always"
       id="filter3885-8-9">
      <feGaussianBlur
         inkscape:collect="always"
         stdDeviation="3.9119397"
         id="feGaussianBlur3887-8-4" />
    </filter>
    <linearGradient
       y2="990.72009"
       x2="312.61353"
       y1="570.96667"
       x1="324.35489"
       gradientUnits="userSpaceOnUse"
       id="linearGradient3934-2"
       xlink:href="#linearGradient3109-3-4"
       inkscape:collect="always" />
    <linearGradient
       inkscape:collect="always"
       id="linearGradient3109-3-4">
      <stop
         style="stop-color:#e6e6e6;stop-opacity:1"
         offset="0"
         id="stop3111-1-5" />
      <stop
         style="stop-color:#808080;stop-opacity:1"
         offset="1"
         id="stop3113-6-8" />
    </linearGradient>
    <filter
       color-interpolation-filters="sRGB"
       inkscape:collect="always"
       id="filter3885-8-8">
      <feGaussianBlur
         inkscape:collect="always"
         stdDeviation="3.9119397"
         id="feGaussianBlur3887-8-1" />
    </filter>
    <linearGradient
       inkscape:collect="always"
       xlink:href="#linearGradient4165"
       id="linearGradient4171"
       x1="338.80396"
       y1="347.4115"
       x2="287.43552"
       y2="465.6423"
       gradientUnits="userSpaceOnUse" />
    <linearGradient
       y2="990.72009"
       x2="312.61353"
       y1="570.96667"
       x1="324.35489"
       gradientUnits="userSpaceOnUse"
       id="linearGradient3934-9"
       xlink:href="#linearGradient3109-3-8"
       inkscape:collect="always" />
    <linearGradient
       inkscape:collect="always"
       id="linearGradient3109-3-8">
      <stop
         style="stop-color:#e6e6e6;stop-opacity:1"
         offset="0"
         id="stop3111-1-2" />
      <stop
         style="stop-color:#808080;stop-opacity:1"
         offset="1"
         id="stop3113-6-4" />
    </linearGradient>
    <filter
       color-interpolation-filters="sRGB"
       inkscape:collect="always"
       id="filter3885-8-5">
      <feGaussianBlur
         inkscape:collect="always"
         stdDeviation="3.9119397"
         id="feGaussianBlur3887-8-2" />
    </filter>
    <linearGradient
       y2="990.72009"
       x2="312.61353"
       y1="570.96667"
       x1="324.35489"
       gradientUnits="userSpaceOnUse"
       id="linearGradient3934-3"
       xlink:href="#linearGradient3109-3-86"
       inkscape:collect="always" />
    <linearGradient
       inkscape:collect="always"
       id="linearGradient3109-3-86">
      <stop
         style="stop-color:#e6e6e6;stop-opacity:1"
         offset="0"
         id="stop3111-1-9" />
      <stop
         style="stop-color:#808080;stop-opacity:1"
         offset="1"
         id="stop3113-6-86" />
    </linearGradient>
    <filter
       color-interpolation-filters="sRGB"
       inkscape:collect="always"
       id="filter3885-8-6">
      <feGaussianBlur
         inkscape:collect="always"
         stdDeviation="3.9119397"
         id="feGaussianBlur3887-8-23" />
    </filter>
    <linearGradient
       inkscape:collect="always"
       xlink:href="#linearGradient4277"
       id="linearGradient4283"
       x1="379.83438"
       y1="944.43109"
       x2="378.79654"
       y2="626.86462"
       gradientUnits="userSpaceOnUse" />
    <linearGradient
       inkscape:collect="always"
       xlink:href="#linearGradient4285"
       id="linearGradient4291"
       x1="111.04447"
       y1="990.09418"
       x2="104.81767"
       y2="668.37665"
       gradientUnits="userSpaceOnUse" />
    <filter
       inkscape:collect="always"
       id="filter4301">
      <feGaussianBlur
         inkscape:collect="always"
         stdDeviation="1.6196811"
         id="feGaussianBlur4303" />
    </filter>
    <linearGradient
       inkscape:collect="always"
       xlink:href="#linearGradient4165"
       id="linearGradient4305"
       x1="336.98566"
       y1="1532.62"
       x2="336.50031"
       y2="1030.6025"
       gradientUnits="userSpaceOnUse" />
    <linearGradient
       inkscape:collect="always"
       xlink:href="#linearGradient4311"
       id="linearGradient4308"
       gradientUnits="userSpaceOnUse"
       x1="51.857063"
       y1="759.80493"
       x2="63.27285"
       y2="1008.8766"
       gradientTransform="translate(1.0706768,28.956354)" />
  </defs>
  <sodipodi:namedview
     id="base"
     pagecolor="#ffffff"
     bordercolor="#666666"
     borderopacity="1.0"
     inkscape:pageopacity="0.0"
     inkscape:pageshadow="2"
     inkscape:zoom="0.24089447"
     inkscape:cx="219.882"
     inkscape:cy="239.53583"
     inkscape:document-units="px"
     inkscape:current-layer="layer25"
     showgrid="false"
     inkscape:window-width="1366"
     inkscape:window-height="706"
     inkscape:window-x="-8"
     inkscape:window-y="-8"
     inkscape:window-maximized="1" />
  <metadata
     id="metadata6727">
    <rdf:RDF>
      <cc:Work
         rdf:about="">
        <dc:format>image/svg+xml</dc:format>
        <dc:type
           rdf:resource="http://purl.org/dc/dcmitype/StillImage" />
        <dc:title></dc:title>
      </cc:Work>
    </rdf:RDF>
  </metadata>
  <g
     inkscape:groupmode="layer"
     id="layer21"
     inkscape:label="fondo"
     style="display:none">
    <image
       y="209.8728"
       x="-247.23343"
       id="image6738"
       xlink:href="data:image/png;base64,iVBORw0KGgoAAAANSUhEUgAAASwAAAEsCAIAAAD2HxkiAAAAA3NCSVQICAjb4U/gAAAgAElEQVR4 nOy9d7gdV5Unutbedeqkm5Pu1ZWusq1gOUiyZGyCsY2NseERm9Cv+z3ADQ1m6Kbf9+Y9YL5+zHzd M03TM8NAdw8M0G1jN8nYgDNyNk6SLctWtqx8pZtzOKHCXu+POqHy2XXOuZIM+oF169Sp2rWrzv7V inttgAu4gAu4gAu4gD9k4LnuQP3R2tq6ZMmStWvXdXV19i3tS6VTnPMlvUvaO9qJCAAQcWJi4ujR o5xzxtjevXt1XT916tTIyEh/f//UzJQwxLm+iQv4A8LvAwk3bdp8yy3vW7NmzcqVK1evXt3Z2ckY cx1DRBYDLSAiov+965ref7p/ZHhkbGxsdnZ2dGz00KFDu3fvfumllxbwHi7gDxhvVRKqqvre9958 /fXXvec97+nr60smk4wxIhJCWP9Ga65MzwI/GWPWBhEZhmEYhhAir+UPHjy4f//+gYGBM2fOHDp0 6LnnnqvvfV3AHyDeeiRsb+/44Ac/9JGPfGjr1m3Nzc2MoUW80gH2bSlIHI6IBGSR0+KnrusTExOT k5Pz8/M7duzYuXPnG2+8MTAwcOrUqYg3dAF/6HgrkfATn/j4qtVrNm/a/I53vL2jo8M0Ta/EWwgG Fg90H1qSltYGAJw5c+bo0aODg4M7d+685557+vv7o3XmAv4gcV6TsKmp6U//9E/6lizdsmWLEGYm m1+xYsVFF1/EOQ9SOH1JiAgIiAAMoWAKFu4bgZzPgAr/Ff4hIoCinCXryxDaWnISijptJpN5/vnn 33zzzTfeeOOpp57at29fxAdwAX8QOE9JeOONN/7xH//xxRetMQ1zZno6l8txRe1b1nfJxktcLhY7 XPsZosLQEDSjGXnDnMubx2Zyg/PaRFabyZsZ3ZzI6IiOUxIK70ipJlF3Wk1w3plSWhOxnlQsrvAY Z6rCVI4phYPFTALh6YrL/cM555xrmjY5OZnJZHbs2PH0008fO3bs1VdfnZiYqNPTuoC3Ns47Em7Z suUb3/jGpRs3jgwPDw0OaJoGhEo80besb8OG9RCscJb2MwTOGAKcmsntGJg+ODp3aCZ3cl4byBkq QwWAAzBARHAxEACAQBAAgQlEBAaQTqQJaI3x7oTSmVC6EkpvMtbTnOxKx3sb42vb06Wwh/V2MP1e EVgEY4xzPjc3d+zY8VOnTj333O9++ct7jx49UtdHeAFvMZxfJPz5z3/+/ve//9TJE/2nTs3OzjJE AGBKfMnSJZdeeglRmMlHRAxR4Tgyrz17cuKON0YPzuRSDFWGCoL1PwC7ERjQFJX/CCgrp4JAABGB SWAQmYI0gjzRusb42tbEto6G3qZEe1rta062J2NEJKggLX1ZaSmunHNEGBoafumll95444377rtv 584dVT67C3jL4nwh4bZt2+68887Ojo5TJ0+NjAxns1kAAiIlFm9sbr7qqm1WBCLodCKKMRzL6j85 MPTA8YnhvJHmyIuRQLLoVPpg++NpyNakzUK0gH6HmUQmQV4QIaY5Niu8Pc43dDZc0p5e355qTMTa krGkwkxBokhI131YbCSiTCYzNzf34osvvvjii7t2vfLMM89UemwX8PuA84KEt95667e//e2W5uaB M6cHB4dyuSwAEgnOuJpIbdu2Nd2QDmegwnDX0Mw3XjxxOqunGGO22/JjIPiTMDoD7VtEZYFpCMiT YIirGtSVaXVlS3J9V+OmRY2pGFcYUxgKIiHct2SprJYZOTIyMjIy8vrrr/3kJz/ZvXv30NBQ0O1f wFsd556Era2tx48f1zVtaGhoeGgok8kU7DtERVEvvviiFStXmKYZeD5RTOH3HRz6f14+1aYwxZMH Uz6zBgZCJRIKnyYLnlUhQCfSBGUJNjQntnWkL+lIL2tNX7qo0ZKQJpGlvtrBGEMEi5Dj4+O7d+/e v3//j3/841dffdWn8xfwVsY5JuFFF1+8ffv2xob08NDQyMjIzMwMAgKQEEKJJTq7ui6//NKQ04lI Vdhdewf+6+uDKeaTiCbLQOcBwnNgFQwsnOj8yiTSCEwhGKLK8IqOhnf2Nm3sbOxuTCxKqwBgChIF y9ftZUVEIcTY2NhTTz31yiuvbN++/cCBA/73cgFvKZxjEr788svr1q0bHBgYHRmenJoSpjX+CRmL xRJbt21tCFZELS30hTNTX3jmaINTBbUgfAzA+jOQfCKH/gy0d10ACAKDKCdI5bgypa5ojG9c1HTN kubOdDytcpWhIcilsVr6qqIopmmOjo6eOXPmgQceePrpp19++eV8Ph9wsQs433EuSXjnnXd+7GMf Gx0dGRsZHR0dNQy9KACIK/EVK1esWbM6JAuUI5yYzv3xbw+SIO4RgmfTFPRtDgOuZsk5cp5gioJ3 JytoY0tic3v68u6GLb2tfU0JArKcOi5Clvyruq7v3bv30KFD3//+9y/ksr4Vcc5I+JnPfOZHP/rR wJkzExMTI8PD2WwWEQQREHFFVZTYte9+V8jpCDSvi89vP3R0Nq96hODZYSBEUURLFyFvP4qfrcuZ RJqgPNGsIVY1xG/pa3n7kpblbemlTQlBZNNXoRSitNioKMrk5OSzzz770ksvff/735+cnPTrwQWc dzg3JFy9evUzzzwTj8cnxsfHx8YmJycsK0gQIaASUy+66KK+ZX0huWkxzr750vGfH51IcZ9bqMIZ A7aoYAn1MgXL/fbth5OE9l1CQE4Igdgd58sa4u9Y2vr2pS1tabUtETOF8CYGlJTVmZmZN9988+GH H37hhReefvppv95cwPmCc0PCX//61zfffPPgwMDkxMTY+JiuaSUSKoqaTqev3Hqloii+1qBlCr4+ MvvZJ95MMJ9JgbKm4FlnINjls6dJLwPLeQIAQpBJlBUUY3hZa/LyjvQ7V7Rv6GyIc8YZmh7r0VJW FUWZmJg4fvz4U0899a//+q+HDh3y69kFnGOcAxLedttt3/nOd2ZmZibGx8fGxubn5qAw55YIQFHi a9ddvGTJEl8xSEQIgIgfvH/vaFb3BiTKiuh56YwJ6kMQA6HwdnB0whCkE82b1Bjj7+puvHlF6/ru 5hUtSYuowikerWw5RVEUhe/a9eru3a/efffdF9IAziucAxIeP3GirbV1fHxsfGx8cmLCNM0iCYEr SjrdsGnzJlVVvWLQ2hPj7Gf7B//m1TMtMc/0+YXMjLGfUAUDK5qCjl0BDHQdTwCaIM2kBoX1ptWP Xdx56aLGpS3JlriiCyomzZVPtMp5aJo2Ozv7wAMPvPDCC3feeUdAjy/g7OFsk/Bb3/qHL3/5342P j01NTo6OjGaz2UJQjAQRxlR1xcoVK1asCBKDDHE0o922/dB43nB5ROvljIHSQ5F1h0IFEtbCQAgj YelgAjBJzBmUUNgVrcmNXY03rmpf1pJMxTgQmE5V1YpzxGKxXC535syZF1988Wc/+9krr7wyPj7m 1/sLWHCcbRJOTEwgwsTExNTk5NjYWClVhEgwpnBFuebt18RisSAxqCrse6+e/qf9Q02KWwxGjwr6 mILe8e3aqo8pGMJAKPOKQIqBpctYItoQlCeaN+iy1uT1i5uuXNZ2ZW+LytDwOHJKblXG2KFDh3bt 2vWDH/yvC0GOs4+zSsI777zzU5/61PDw0PTU9Pj42Pz8PCKWSBiLxbt7utetXx80X54hDs7nP/3o oXlDuKISZ8cZE1kRrdYZA5UUUW8P7W8HqzMGUV6QJiilsA+saLtpRfvaRY3tyVgxUc7RcinqOD4+ /utf//q553539913+93SBdQfZ4+Emzdvfuihh+JxdWJ8YmpqcnJiwjBNsAhGgIhqPLHx0o0tLS2u AVL6qCrsH1859aNDo66whPChzAI4Y3xIcZacMZ7j3V3zMtB+nCDICyEQV6XVzd1N71nZvqYj3ZKI IRQ0VfsDZ4zFYrH5+fmJifGHH374oYcefuKJx3VdD7jDC6gDzh4J/+f//N7nPnfb8PDw1OTkxMTk /PwclBwygmKxeCqdvvKqK92JzMUhgghZg66557VGpy1YL1NwIRhYR1MwhIEu+ezsj+MWTCLdpCmD rmhLXtPTeM3y9q29LQzBOxe5ZDdqWv7QoTd27Xrlq1/92sTEeMCtXkBNOEskbGtrO3HihDDNycmJ ycnJyYlJ0zSoNIIIlJi6es3qJUvdkYnS0Igx/NmBof+8+4zLGlywSRKOrxcsLu9mYGRTMIyB4O5C 8ZNGlDfFnEnNKv/kqva397VduripJR7TrcJ1fnYj5+yVV1556aWXvv3tb584ccJ7ZxdQNc4SCb/7 j9/93J/92eTkpCUG5+bmLC6IgrHHk6n0ZZdfmkwmfYsXIsK8Zn76t4cGM5pdEFY/SaJODASyDEVr 1hJQofYM2eUzAiSs/PK6M9B5bJAM9Oty4aMgyAnBEbsSyk0r2t6zon1xc7IrHddNZxlJIChGODKZ zOHDh3/1q189/vjju3bt8j6aC4iKs0TCoaGhZDI5PTU1NTU5MT6haRoAlEioKGpnZ+f6DeuDyofG GD7bP/Xnzxxpi/HSzrMzSSKEgSSAM4wzTDBUOVvSlGCIvY3xBGf2kxji9hNjI/M6s9d5s1+FCv9U ZqDrXkJNQd9PBEBArteBReacKQhhQ3Pi3cvabljd0duUiCu8mItTbq007XhoaGjfvn0//vGPt2/f fqFoVS04GyS87bbbfvCDH4yMjMzMTE9OTMxMT4vCO5wEESJaWTKLFi0q6aIu3wxn+H8/+eazw7Px ole0OlOwjs4YIkgo/I5bN7YmYu3JWNC9W7jl568MzOa4Y8Kjg4GCYEAzBFGKYQwxhhhjwBB90hFK 9yLPQNsO4WEgOB4CmUQ5k+YFXdXZcMvKtnes6lzekjAE+WbGWWzs7+9//vnn77jjjieeeCLkIVxA EM4GCXe+/PKGdesmJyenp6cnJsbzuZydhJzH4vHE1m1X2heQsJOQI74xMf9nT7xp5azB2XLGmARE 4DdDAwBACGpKqE996sqwOy/inXfvnM1ptiQ7NwOVGPvVhzcBwp6hmRPjsyemsq+Nzx+ZzRumSHJU ES1ClvRYSWeMa4coyVzrLNu/AIBOjhmC8oIA4PLOhg+u6di8tKWvOSn8yslZbASA/v7TDz74wL33 3nsh2BgJykJf4NZbb928adPk5ISmaXktbzm7i/YRIgJjrKOj3ap0ZJ3iFYPP9k/NG2aaF1har8yY IOQF6QR9qZgQNJY3mYesSEAAjZ68uSAw9Hvb2ZhoCkKgnsbk4sYErOkigKmsntH0N8bmXhmYfn1g aihnDGZ1Q1ADR4RqGEh+DLQ14jgRAWIMYwxNgv1j8y+PzPWllC3dje9Z3Xlpd1NzMkZEZlEWCyEs Faanp+f227/08Y9/4sSJE/fc84tHHnnkQsq4DBachJ/+9KdN09Q1XdM1TdOEKQCwMIqBGCJjrLm5 2arbCR4GIoBJ8Otj44kiFapgIPgx0CsGDRJZkyYN8bEV7R+/eNHarqaf7Dn9vX0DqQL5ywwEAEGw pCEu+RDmdNNGQzdpCCDJHaUBEKA1GWtNxnqbU9et6gKAM7O5oens3qHpuw8MjmX00rGBARInXO8g H0XUhtJOQQU2tjCYzJsPH5/8xZHxi5oT71/Rds2qjst7mnSzrKYSAZHI5XKNjY2XX375lVde+Zd/ +ZVdu3b98Ic/ePjhh6V6+YeKhSVhT0/P1Vdfnc1mNV3XNE3LawSAliREBCLGFc55R0eH9Sr1Zqtx hjsHpkbyhkXCCM4YG7wRczsDCUAXNKkbl7WlPn7Rovev62ksun/6Z3PFyVIOBlow/Jw2vnhzLn9R wW70ccYIEp2JeFzhQacDQG9jorcxsXlJ6+sjs9tPTMQ5gg+F/MWg3R0Kfgy0i8Hyq6J8PAEAR+Ac E5yPzWv//PrgP7w6sLRBvf2K3s1LW5a3pUzTKthReI1a61i1t7fffPPNH/jAB/r7+x988IH77rvv qaeeCrnHP1gsLAlvu+229vb26elpXdd0TTNNAxFtvg7kjDc1NykxxTRN/9mDAL/rnwIqaLCyDJRz xhCBJggQrupMf2pj79be1oQzCDmlmcx2soOBRBc1J8Nu3oZiho+DgWBzhwbXc3TDJAiWqU44rlLY Dmeg/VTfHiEBR2xQsFGBrGb8pxdOdMaVSzrTH163aO2ixo503F7K0VJTdV3v7Oy87bY/++QnP3X4 8OGf/eynjz766OHDh2Vv+A8AC0vCG97zHtM0DV3XdV3TdVcgHhEBob29PaiUEwJopnigfyrOkHyT MH3hNAWde8qDTzNJI9ra2Xj7pqWbelt8zbuxnO6tH1Vqkgd9F96tspukSlgNRHPGBMBrCoLTJ4z2 4ISTyRyxScGsIV4YmNl+anJdc/Jdy1puXtu9rDWpMCZs3lSLjaqqXnbZZZs2bfrSl/7da6+99nd/ 918ulG+0sIAkVFX1ne94x+TkpG7ouqYbmu4aD4xzVY03NTUFrfHCGe4anB3O6h0qr0tmjDV6BMFg 3rixp/nzVyzdtqQlqP8EMJ43GBREj8v6EgRNapgCWcJYVlP93aJRJKATtbhDwUePdeyUYWBpgyGo AG0xPjCfv2Pv0H/dPXBtT+OHLl509cr27oa4ZorSWgAAYKmpPT09S5Ys+ehHP7pjx45nn33mb//2 b2ZmZqVu+/cUC0jCb/3DP+i6bhiGruu6phmmaa0HQYBAhECc80QykUqlgmrJIOLTJybSnNXLGQMA giCusHuu33DVktZwQUYEE3k9jj4MBACDqCelhjZQwFzecJG1+HaogYESMtilBUiagiIKA+3giCkF Uwo7NJ75T88dS75w4l3LWj66oXtlZ2NzXNHNcj5cSU3duHHjpZde+oUvfHH79t8++OCDd9xxR+W7 +n2ErJO9CmzbulXXDV23BKFODuMHAYAhb25qDlo7niGMZ7XXxuc5C37VByPIGaMJuq635W2VGAgA CHQ6p2OwB1KaQ440NR8G+kQjg0FSYpAsl1Ntzhip7nheJTGGVjDpseMTn3/owFd+s+euXafG5vOE oDjv0zRNwzAA4JZbbv3v//3bBw4c/MY3vrFp0ybJS//eYKFIeOmll27bti2fzxmGoRuGbhhAVFqi EwCs0HxLS0uIGBycye+dyZWLOXktPDvkTEGTqLNSgouF6byhos/qaRZUxHRCqh3mcK/6yEAToDup ptQqtJIQZ4wsA+2nBjljgtrxNSKs4xlCkmOC4RuT2f+249SHf7b77584vPPUZDzGVc7sBbqISNM0 znlfX99Xv/rV7du3P/TQQx/96Ef9+vL7iYUi4Z/8yZ+QIEsM6rouTAOcM5A4V5LJRDKZCPLKcIaP 9U+W00TCX82hpqD9MEM6vjea0QPVTSJEiHGppzc0l48Vb8L3fYNB0fwKCDUFpRlYnSkIoQwsNYIA CsOmGFMJHjo68ecPHrjhRzt+squ/fyoTV7hiW7mAiEzTyOVyqqpee+21P/nJTw4ePPitb31r48aN /nf/e4SFIuENN9yQy+dMw7BsQs8PhozxVDrFFf/XPwLoJr04MF1IFq3NFLTTmACa5GSOLgTzpUZx mlKQIu1CVjcdwf5qTUFXJ4J2hK7n7UbVpmDIIlk+VyFAhATHFpXndOO/7Tz1hV/v/X8f2vfq6amM Zsa4o3ClFWbMZrNLly69/fbbt2/f/qtf/eoTn/iE/OXeclgQEt5www19fX2WV8YwDEM3yG4LQmHO aGNTkz1f1NEtxDcnMwM5gyFWYKATYXF5AAJIMEwnpEh4ZiYbC2CZAEgwbJFTa8t+f/BhYFXJuyEM jBAVrMDA4I3AkFIok62/HLGBY0YXT5+cuu3+/X91/74fv3wybwiFo9di1HU9nU7fdNNNP/zhD3fs 2PHXf/3Xvtd9q2NBSHj1Nde0tbVZHlGLhnahgQiIDBGbm5uDfk6GcGx8frIoQ8Jgo2hhoqCfKVja qTCIx6RCC35hQCpVrEBEHvAGcQMXmIG2L+rpjIkosGUYWLoeQ4hzbImxNyYy39nZ/44fvvQ32w/t Pj2lcBbzWIy6rgshNmzY8PWvf314ePiuu+664YYbonXu/MaChChued/7crm8YRqGrhuGYble0ApM ABGBEuNcUcKDE4+fmY5DJTHodcbYG/EcRkRxjg1xKQl2ZirrLi5cGuEEiLIuzdmc7qu3VsVAP/gp orIMLJ7tyecObEfGFHTtDPmVFIaNDAHgkaPjjx6bWN2c+ORli69Y2tLdlDDMcviYiCxXaiKR+PCH P3zrrbe+/vrr995775133jkzM+Ptz1sL9SchY2zDhg26rhmGWfJBQzFACIQAgjHe0NAQ0ggBPDk0 m/TO/XEdVNwKc8Y4T4gzbJQLslvpy7azy5NbLbW2XS5OOJHVGbjHn3vQyzTkC7szBtxPINwd6uxU 3ZwxUWE1nuCMiI5PZf/Dk0eWN8XfubztY5f1djSoMc50s5xXbAlGxtiWLVu2bNny+c9//v777//R j3509OjRKi59nqD+6uiX/+IvlFjMMPSiKmq4L8kYAjQ3NwW1wBnuHZ2b1UzbmvMeSDpjnPsJIMYw GZoqXcJsTkOn0ma/AiL4LYThA5dnyQtTUGciFouWBOdA+DQlv/4ABJiCYVepwED//aHKiv1nopIr dXReu2vP4Ht//Mp/fPTQ746OJVQlxtGlo1pDa9myZX/1V3/1wgsv3HPPPW9dP2r9SXjN1VczxgzD NAzDMA3vSteITInFUunA1T854utDMylXfC0Y4ZMk7FsElGSsOS4l/+fzhv3peAv4SpIGgVxD1Clg AQC8q7tVRlEu12WSRPkAZztYcixVdodGU0Sdpzp+J0RMK6wlxp48MfmVhw/d/IMX79t9Zmgml4hx 13LMpmnmcrlEIvG+971v586dTz311O23316pn+cd6k/CKzZt0jXNNAxLFxWe0puMMYXzZCLp/2YF yJli//i8ai+N5ILLGePYE8hAC941ZIJgEBWid57yoQSU4rJkNgXZL1k3U7DcGVkG2k+RNAXDURdF 1N23YksMIM6xMcZmcvrfPXf8i/ft+R9PHzk9lRXgzryxdNR8Pn/llVf+zd/87b59+7/yla8sW7as ii6dE9SZhMuWLVu1cqWmaaZpmjYxiDbNkjMei8XiCf+IOSLM5Y3dE1klaCB4367SDDQJOtNShpwm aMiaOxswwypIox2e1wbm8oX/z+bndHM2o5WKFbvvKdztFATb28l3kkR4XJ4W2BSsQhH1btq/5Yhp hU3ljbv2DH7yZ699c/uh1wdmEjGucLdBoOsGIvb19f3d333zkUce/c53vuu97nmIOjtmPvvZzxKQ aVraqGkYRmkWPYA1e544VxqbmoKnL+HovHZoNtfj6z4JdcaEMxCK2dsyN8KsEAUReRPXCBjilG5+ /YlDA/P5U3P5Gc08OJdTABAgAYgIAkAAIJFJ0BFjad/cGvLdlEBRvQ2aJOGL+mbGBF6lFgaGPgeO mFaQiB45Ov7TQ6Obuho+vXnJ1hXtzQlFN8vTpiw/aiaT6e3tve222z7zmc/cc88v7rrrrieffFL+ Ls4y6kzCd117ra7ppilMU5im6Y1AIDJATKVTIQbhqyNzDb42UiVnTDgEgUm0uCEhc3DWMEezOgu4 AgLkBN1/dIwhcAQEWmcF7ouksBx53rPKsA/SSKPcdhV7Oy7yoLMDNWTGBHSD3I1A7Qz0E4OOM4kQ IMFZN2enprJff/zNJQ0nP3JJ93UXd3U2JIRwlL8SQuTzeUT82Mf+6JZbbt2xY8d3v/ud7du3+9/P OUU91dGVK1f29vbqum5aFDRMIrf7wiqSl0wGz0lHeH14xsdR4fw55J0xhS0CABAESblIvSko5zLm nE0ygARHlSEvuUmrYqDvvYRgdDbHCtH/CsULvZeuYpKE71vIN6k9sjPGdZmKDHSCM0xwHMlof//c iS/+cs/3fnd0dC7PGXI/c1FV1Xe/+9133/1vjz32+I033ijfq7ODepLw8ssvX7Vypa7rwjQN0zRM w5uWzDlPJOIxxWfxMwBAgqmccXIu77cQfQmRTcHSG9IEWCRnE/ordz6Kn3voVWagE4LK/8ogo5mA FRjo74wpWQWuvtXJFCycYr+eH3w5JmQY6DFkEYADtqh8NKPd8dqZ6/9lx/946vCh4dlEjLusxRIV t23bdv/9D/z2t7993/ve59u9c4J6knDLli0AYJqGUdBHi6942/NgjMfUmBLzU4MJGOLgXO5MznBn TtdgCtotDUHUICcJs7pxOqMxP7qFMDBokoQDDkUUAMAk6GlJyfTKai4SA8vOGL8e1N0ZU6nv5da9 m5IM9MLy3HTF+S8ODN927+tf+uVr+wemTQDFKRaFEIZhZDKZq6++5t/+7Se/+c39mzdvlur3AqOe JLzm7W+3ihoKIUxPhNBykDKGyWTKZ/6BZWMgjM3lx/KG4+GFMtD3MMdu2yeDoFtOEgY5CSozsEJA zNEvGxtkIxfVTZI4f50xAfLZAWdrAW9aQIAkZ3HEV87MfP5Xe7/+m727Tk544xkAYBW/ve66637z m/u/+MUvhlz57KCeJLzooosMXTcLDCwsKIKANqUUOefJRNz9G5cMLcRdo/NBcxfAj4Hhg9el5hlA ksE9IDKJXDI25FpFDVlSEfUorRHGfKAzBsA/Ll+vaUpVJ4hCsJTz15uDEcTA0iYCxDkmGO4YmPns fXu/+uu9r5+ZjivcZeBYCmpDQ8M3v/n3//Iv/xpyxbOAupHwwx/5SDqVMkzT8soYpunVmayJS2lX 1qj9mTN8ZnC6tOCETR4RSK2mBCGDgQAanDV2Q5DXzTPZYuJ1iO0jbwo67sVnYV1ZRGRgVc4YH9TC wCBUZwoGbdmfDAKoDDtUtnNg+lM/3/2nd7/84vFxhTOXVLQU1I9//OMPPXQuyxPXjYTbtm5taGgw DVOYpmkKYZpenZNzhXPFd0l6AEAA3RAnZvPcTzfzniBvChb2EDWrPPpBToAAACAASURBVMalbELE 4qOplyloQ/UM9DRekYFFZc/fhKvFFJRnYB2dMUFbQVAYLkooRyYy/9dDB//yl6/tG5hmiK45xPl8 /tprr73jjjsrtrZAqBsJV69ZUxCCQpjCJ0JIRJyzZMIZprM9RoZ4eDJjkPeryKYgBYwH+dd03hD2 +cRRTcGKzpi6INwdCgEP7JxMkrBa93asameM52CfBkvnxxgmOL4yOPvn9+35p2feNMk9WVTTtI98 5CPnyj6sGwnfdtVVuq4JUQjSF9Iti3dqTaXnjCeSCVtdEWdXEE5OZQgIwU2tqKagr4teAPWmYmk5 m/DETFYNkceuv9U5Y2oWg+Hfhk+SiM5A//1VmIJUSDmPwEB5RbR0uvtRAyQYxBHven3g03e/cmYq q9pyp6w8m6997Wtbt2713sVCo24k7Onp0XVDmEKQEKYpBAFAySVDQBYP4/GiJPTRL3FgJudtOaop GLKspxCykoiBVwz6MFDKFLRt2Y9dUEU0iIHoHP1R3KGRFdEgGRj1vmtnYOlbRGiK8VPT2dt/+dqu kxN2HgphNjc3f+1rX4vYuzqgPiT80Ic+DACiIAdN03ToohYVEZFxXsjb9vwOCJA3xJ7JjOosKlNd ZowTZcWxVeUJucmEpVzEILEjxUB3m4FfRVVSK8TlAzrjon1FD1W4KWi7XrgiQL6f6u6MsZ/r91DK ++KcTeWMv37k0MHBGcU2Y84wjHe84x3btm0LvJeFQX1I+IEPvN8yCK3iysI0wXouJXUU0FpmWVXV oDehQXRsNm+jSPTMmNC3LAGkFSZZp/DEdC4WvLAuSDLQ/jZxykD7UBYkGuVqT4HzBsMnSaDzeYRM U6rOFAxXxX0ZXn1c3peBAfB5cXvaVBFn8sbXHtyfNUTZGU+kquqXvvSlipeoL+pDwlWrVpmmSUUO +nhlkDjniBiPe4KEAACAiDndfG0yW3SNRs6MgVAxGFX3E0S2R+PHwIqwi+ewE8gkaEvJLnWIJc0q lIHuszyjv4IiGqrNQqUnIKuIVpKBFZ5zgCLq7oz3XUkAACrDwTnt7x89YA8IG4Zx0003tbQErlCy EKgDCbu7uxcvXmwVdBJClML0DhAwztW4GlL0/shUNskCGVgRIaag9dBNgq5ETHIOe0hNUSlF1MlA p/jyazOqOhqgWNYrMwY9jYAvAyOZgsGiOKQ11/W8O8NNQZ/u2Y5IKezhI+PPvTmqFPUjImpsbLzp ppsqNVNP1IGES5YsWblypWEYZpGFjp8WrX+QMxZX40EPiSEenphXg6vKVO2MsT90+SISo/N55uoL Ff6JxECAcAZGFNB+Jy5cXN53ZzgDgyCliNqPD92qfFYRbn3B8/wTHO/ceWo2b5TeuoZhvP/97694 rTqiDvMJN27ciIjW7EGXLoq258I5TwTootah/dPWbPropqAcAwlI0iAEgJm8lUTup4gSAYBOZFLh 6sLVA1vXECARuI5hlVRBolKuqV9c3nUwuI4sKhsBMjBUllZk4FmKy7saJAI5U9DZBgFAjOH+sfnn Do/cvHGxVdZNCLFq1aqQE+uOOpBww4YNRERFXVQIAeX5dWRNp2eMIWA84T+hFgEyujgzp/FynVzH twUE/Dg+uq91ovMLQdAuN6O3eFEq/7VaACg53y5pTS1viAsihbOupqB6OTinGfcdHrGsjgqrKUl2 LOCV46OohSqiAY2XDqume0FRwZBvA/c4v/b9ZL8XGQb6+wUI0pzdtev0rZf36qbVF2ppabnkkkv2 7dsX2qu6oQ4kfNe11xqGLoS1NquPVwYAGGNcUZSglScQZnL6cE63pqvW7IzxR8Rh5X75l+6KCJDj //futRd3hJVOtTCV1X99dMxwlxKvSV0soe6moLcRkBaDgXF517deVI7L+3xdnTPG1kz5s8Jw3+j8 yfFMT1NCEBFRe3v78uXLzxoJ62ATtrW2moUYvRBCEPnMR2fIFM455wE/P2Y0c0Qzor6CJU3Bcjek b3d41jGxuKghlzXleOi84xI0U1BFGVgVJcPj8rVMkvDdWQ0Dfe+sFlMwgIFRnx953rApznYeHVW4 ZQ5RY2NjW1tbxFarR60kfNvb3pZOpwuZalQgoc9lGFMURQlInkaE2bx+2qpUbd9f2qrBFCzBEKK3 KbishhOaNRmSCv+UTEHrY5Iz2YUoAFh9xJ4DFWSg82CTKG+SLsgkMsntrS2cUoMpGJjPUF9TMKC1 imLQFZX1MhABYgx3n57O6aJkMLe2tnoaXijUqo6u37ChtbU1l82SECSoREJ0Ph3GGeOcBUhChnBi NhdzRgXqZQrWDtdPTUCtqpKQm6FvmOZ4Xm8qO4TqIwYLpwZMkrAPL5NoUUq9pKtxcCozrZuzupk1 RMYUGV0oCBxRQVAAGQJDrHWa0oI6Y/xQnTPG3rbVPYXBgZH5nG6m4xyorln2EqiVhH1Ll6qqmslk hLDyRl29LywDwxiPxWKWk8bbCAKcnMnHnHsKCGKgu5lKDCQSUUq5lNop/syufsg2ZAqa0UUzd6xQ aOuVbH8cfQs926WIzuji61cu//BlSwFgTjMmM/pcXp/P69mc3j+dGZrT+qdzx6cyQ/Pa4elMI8eu uOI7laxiZ6AgYwkKhe2sOnRQiLnW3RlTlSkY1HkOcGwqK4RAUCLVLqgLaiXh6tWrC/lqRCSEKUwC QsCig7RwP5yzoGmEAACIr4/OxQJqXri2QOKN7GmHCEAj6GuWUkcNoqxJZWHul5siCQQIjH2WeR7h hiKZgoIgFeM3ru2xdjaoSoOqAAQ+hOmc8Zmf7Tg1lVHA02lPHwWBINIF6UR5UxhEvem4yplJEGPY 15Q4MZ0VBJopTs/mkgzjDGMMFYYcsS7OGPf7Xt4Z43cVBDo6Or9pWWBa5cKhVhJu2LDBqnVPJCzf KBaTRh3qKGOq6l/chYAAYXjeU6Y64FlEdcaULAcC8pYb8UVGN/OiqIRWTBCVQiADCUgARF0NRtIZ kxfik+t7GiQregAcGZneNzrXVtS0gxhoEmUM0RRXNram1/c0L+9ovKSnubMhznlBpUWEmMI1wwQC AtJ08/DI7KGh6TeHpl4fnj0xnUtxVJinboG0KejDwEq3FqSIlu5OQRybyzNE860nCdesMQyjSEBB 5OEfWAsYMd/4BAEhwlROz5hl9vocVdqKykAAsEcXZJ8vQigD/R0C0WENJl3QYmmPUaFThTwkf92+ BF3QTet65Fv+xasnU+5EIcdDMInmDbG0MfHlK5Zes6qrr6MhZG2PRGmiUBI6m5LXrO4CgKGZ7P7+ iX/Zefy1wekkZ9xeysSzJe+M8fmlnGZ8eIMAgAhZ3bR2FN0aZwk1kbCvr09hTDf0khwke5CwqHVw xgFRVVVyKyEEAAxweF7LmAT2KqW+r8cqtHXbWi6CQHIeE5Ro5vwhSjpeS0xJxOQdy2Fi0HoK8oIw yBnjfQcJokUpdfNSWVf7sbG55/unVMYggIGzutmVjv/19atvvWxp1SO0uynZvaH3+g29Lx0d+ebj Bw+MzbaoSt2dMVEZCAAccSqjFZJmETVNq9iTeqEmEr7t6quRMcscJM/kCSQiRCBinMcUxZUSXXo0 iDCR1fKCykXWAhQUv9+HINQZY/8mT9ArlzGDCMXUnXKf7b1LKUyVzoDz9KrwV0QaeqFH+kYFMyZ9 ZXOffL8eOzgwndN967ISwKwh/s/Llnzh2rWN0sptOK5a1fXTvvYfPvvGd1863lxwBtXfGSPJQABg AHM5w6oYj4hzc7Py91IjanqgV199NedcWMkywko2IACHRkoEDJk1j8m3EUSYmtdzQoQP6xBFNOiE AN5WxlRWmzOEt3y4vTNVaqN2GVj8iNFVn4pxeUHQlYy9c/Ui+Tb/1yunUgoHx5uvoBBMaea/v2bV Z9++JmI3KyAR41+6fn1Kjf39s4ebYtz1krZQozNGEvZMXETMZrNzc3PVNFQVagrW93R3A0BREyXX UoQl1nHGFKckdE3uGc1q5WfnJx6qdsb4nCABzSTDeUnf8SED31dP0LKesm1K9EATYmtP89JW2cLe T70xlNFNhm4GAsCsLr6wZVndGVjCZ96x5ovbVszo7hWdHfD7Qatwh/qKwZKdzwEBCBFnZmaGh4dl b6Bm1ETCjs5OIcyCFBQkhOXpdA8qxrhdErqkCBGdntMU25oq4NqqzRlTgqw5CG4HUS0W+pmZrFq6 tYLwczMw0rvb1ZmghXVnDPGRy5ZItimI7nu9P8WZHwPNT2zo/svr10XpY2R8+Yb1t67pyhiOoGxZ QQiYJBGOSAwEACFocWuSCBBxcnLy+PHjES9YPWoiYe/ixaZpWlqoICIS3gGLiFbOmvXRq8cRwCkr PiHrjKnEQM/CugAgBKxuiEtW/rXDfQK5exiOOc2Vug0uBvpcogLCFFELhqDNHemNi2Wnhx8fm9t+ YiLmyYY1iVY0J7/wzoujdbAq/NWNl7QmYiJA0V8gZ4xdgUdbYaFMZn5wcDBC72tD9SRMp9MrV640 DJOKjhnv4ysYuYg8YP4EABDByTlHaRnHt1G7FbCwLkgHCUMbj3yGKxbmu7BudQhJ0c6Y4sbVXSlV 1uB/eN8ZR8GB4iOc0szPvW1lZ6Ps/K9asLgl9b9v6pvTC3RboMyYkMn7OlFHOk4AiKiH68b1RvUk 7O3tVRSl5JSx3DIebQkRADlTOCc/qWYdfnJe80ZuoSpT0McZUxqs0uO/tHqGrylIQAmOMfkZGX7O GPAjjzzCJ0lMG+YHr5D1iw7N5B44NJQoicHiMDWJljUnP3Dp0ui9qxJ/+vaLiKFjEEWvWAEeMRj0 eMuPjoCADKLWtEpEnPOnn34qaudrQfUkvOSSjQBgUa+gjZYYUjIMiZAxjixQEiLkDDGpmd4nVRdn THWYmM/P6CJoZShB1KIqcjOZHA34OmNqYaAvNEHv7WvrSstWjtp1Yqx/rrj0gE1QZE36sy3Loveu eiQUdtumvmypXmYAA8MrVoTlpvkqolT4aQyC7qYEETDG9u7dW+1NVIPqSXj55ZcBgDV/qchDH68M ACBDrgTMnwAcmMvHQxKYwL0vkjPG3pB8WrK7p85++a3fW6lBa3DUg4F2+IpBTdAfbeyVb+SOXSdT VnDIOQeiKcavWt0VqT+GoNHZ3IHBqYOD0wcGp+bzhhkxzfeG9YtV7ucpL6K6SRIAwYooAAEJgu60 qhRcU7hr164Ina4Z1ccJN23aZJomFcKDwhshhII9iAw5D55JOJrRFGegtl7OGPsvIQiWplUmT8QA yM/DcHYk8sK6QQhXRE2iRYnY1dLhwddOTx6eyCQ8Yl0QLW5ILGtNS7aT1c1/e+HIPfsH9ozNJa2c G6K8oGuXtnz0sqUf3rxcsp31va1dydhYRue4UM4YcIpBUXixUl9jXOGMMezvP9Xf3y/Z4bqgehJ2 d3dbrlFrDosIGJ6cc0CyYvrebxFgKme45rDXzxlTuIT1KaFUxUHHy6Ea2J0xvgysRiP1bFjPIGfS xzZ0NUkntTywpx+IENzTGnKmeM/abslGJjPaJ+94/tR0Nq2wZSnV6o311Rujc197dP8jBwb/+Y+v kklSVzlb393y5JFh5sncqCEuH8jAEm9NohWtSVVhjPFDhw76jtWFQ/XqqDU1yXKMEgl/UUTEEINK ywAAIo5l7K7R6FHBUNvdwe4qOORkYPVTPevmEwUIZiABmAD/24bFku3M5vRfHBpOcDcDASBPsLlX NsLxz08ePDWdbYpx70TEGMNmlT9+YuwXO45Jtva2lR05jxZbkb6hYtCnHYuBpW8MgmUtSStn62wG JyxUScJly5en0+liqhoIUb4jV44I55wFOxIRYSqj2eqQew+pbAqGiMGa4LL4KfCrCm3USRF1wTsu dUFv72la2dUk2cJD+87ohvC2QwTNKpesTDc8nb3n4FCj4rN8ARRvvU1VfrXn9HRWl2lwXXfTvOl5 odc3KujwUgMACKKuliQgGIbx3HPPyfSzjqiShKtWrmxra7MnjQoiLGSaENgcpIgYi8WCxpopaE4z mTV1KKopaLmDfPYX/qJ3lzwcA8m5kkRV7dSXgY4rlELMhrhxbU9cLrM8o5kPHRhM+zl5BdDShnhj 0n/+pwtHRmdmtXLlXN+KFQriq6NzU3M+S2550dKQWNKYsJdyrXNcngA8AVtTwMquJiIQQtx9990y /awjqiRhb29va2trwSYsxikK33kkITIWVCAob9KEVkhZjOyMCZWBXgZWPeaDnaWyqDsDXYpooVMM S5PoK+LQ4NTOoWlfO40I2pOyCzkeHZ1L+Gkyri0hKCsXAY/HeHuy/NaulzPGDhcDrQ9ruhoJ8NSp UzKdrC+qJGGxFlXRLxM8rQBDbEKEvGGO5w1WBUPkTUH7OXJt64ZpFAIRUitJSCKIgVEdM14GAkDe FB9Y1dGSjPme4sVPXz2Z9GOgpck0xHhcspJVKWIT+nRVhFOTGZkGU2qsK6VaqkedJ0kUo4IuCEFr 2lKqwjjnL7zwQjUXqA1VktCqykiiTMGgn0DhYWFtkyBr+vpVq3LGBP1CBELQopQqebfZvJE1RcEZ Y9u/oAvrRm3N9cR1gg9eIhsePDkx/2L/pBpgqwuilrhSS1axr0CUzBpUOMY5IwkGVqGIetO2kEA3 6W3LWq3aEPv3n6WCv3ZU+aiXL19OhZzRgoPU9qUrYo9KzP/1jIBZ3Tid0Zl7KNZZEQUAAdAknUsJ 7jpV7s7Il8Qr6ea+YrDqqKWrAyZRZyJ2zSrZ2PoTBwcmc7qLFVjqT5Saf15dP3yrIlTOGlTuXt7D 57pVMNC/HybB5r4WIhgeHn722Wflu1ovVOsdXbbMNEty0J2WXGIhYwzDciyJyKbPFHcWGgkUaxGd MaW/0VReT/XGIgRRR5NsTrMpCAMYWL5SZFXcvSNn0gfXdctT+l9296fCRJ0nBzgYLQnFX5WxtxYR TXFlYdyhPm0SQWtC6WhOAuLk5OT+/fuj9rZ2VElCq9IhUXEyfeFnKIYnLL+o9T9EzvytCyLQTTFk W5WqMiTi8o5dxb9Rg6+uceUaAWpAApAXRyfmSxMUXHdZ+hg1C8czIRNUhb1XOrb+uyMjA7N5V0xP xp/hi87GhOkVg2Tfcl1AAh4XQ9BaLu62Q3PTXHuKq1ZSZ1JZ2pYGZOdEDELVJEwkEuV6FpYw9AMi MuZfJoKIEMBTNT+6KSgjA4NvxB9hzhiK1GBpLjMSeV/SVAUDPeNMJ9ra1biuRyq2LgAe3NPf5KxS VTUDwTYHD8IfS4gbrRJcb0C3UVf+zn+/Ky7vatMgWtvTlI4riPjIIw9X2cXaUCUJkTEqAYjIPz0a kSFjjDE31YgAABH65/Ix21MsnBXJGVMJhbOqDQnUXlTf24BfUK16zBvixrU9kpJmeCrz0LExeyzR fxBH71iNpmAQgq2S0LNsp4cOG8qbYvOyViI4fvzY4cOHq+tkjaiGhFdccYVirSphjW7foVTQSIEh uuus2Y43BGFZKgDU0Rlj/1s3Blbdjo+hUtrHahisgqAhxq+Vnu5w/97TJDENpHorNYiBVd2ix18X 0RR0nVXab2smxtnFixoB8ejRo6dPn66mlzWjGhIuX77cWuTMJgptq/OWRxkwxhAdl7AzkCEOzjum UNTdGVNa1rMeqLId5stAZ3NV91EzxQfXdLY3SM0enM0bj70xlKwkBqPbqGFb3k9VNR05Lo8EQD6l DGxjjExBGzrTTak4Inv88Seq7WWtqIaES5YsKWVvFzgIAI5UGURAArJswqB5TACQM0TlHtTijKlB BtZlYV3fc8nWLwTSgTql5+DagQRzhrhpvWzG9msnxw5MZBWvo8hu19V9PZR6mII+35bbDzAR/YqJ oPM1oQu6vKexJaUSwD/+43er7GjNqFISxuNxIlGs12DXSD1xMRu8bMqZAosP5hw7Y5zwjZrUCK8i alUY1AmaE9XMKSOCVIxftbxD8vi7dp1KFH9wfwYCUNXRS18x6PNLScBzdPB8+TBnjLtVTw91k9b2 tiJjZ21RXl9UQ8JUKkVF6hEF2IQAgMCQsaI66j0MEQaLhRXqW7GiRmeM1AUiwhuQQP9hK90gwbxh fu4K2RowA9PZF09PxjiDEAbWQW+smYEAILGsp/dq0s6Y8rlZk7asaEfGXnrpxah9rCOqIWEimbTn qlm/XFBhC2t50CCiWppRCAOrMAXrzUBPO9GFRZAMdH0boUEqiMHrL5KdRP/Inv7wjlMNnPFuVc9A d9sRnTHkPMu5v9wQgSHoncta0nFlenpm+/bHautmTaiGhD09PUKIwjRXEfjSKdMygA8ImNXNkNWk q8yMCWyvCvgxsOq2pNdyCYd1vEG0tjW5Qa64qG6Kn+0bSHKESs6YGjhTf72jLpMkwE8RRQBd0FXL WhljM9PT5ypCaKEaEiqKUioqU1RI7beNdgcpgv/qvAAACOPzmn8PasyM8RjrVY0tfwaS71fBsHtE fb6NysDiRsYw5Zc923Vq/MhU1rEeiNMZ42q8VkThTFXt12QKWvpqjOHFi5s55ztf3lnPvkVHNSS8 aM0aYZpgZUvYPDLomFWPgMCVwHVgigf5/fKycfkAGbhApmD5KtUwMHxZz6jdIKKmuHKjdKraL3ed bLHPHfRzhzoMrcgdC1VEq0q0CBODNkhmxtgZaPWoPRm7ZGmrIHjooYcidq3OqIaEpfgEQskw9Gca Y8xbsacEf5dOkDOm0ts6yBSsVgaSe0fhbzXOonAGcoBKOdBuaEJcv6yts1FqadETY3O/Oz1Vnrjk mygIlfaFoTIDF3olCV9nTMhPbwjauLipIR47ceL4q6++GrF3dUY1JOzu7rbKURWzR8N/M/9HgQhT OWPWr8ZJ9aZgfRgYiCLPI57lx0A74ogDM1KlH0rtZExx3cWy0yYeOzQ4pxkFOeh8RD6mYC16REBr 0VusjzPG6zEqvfhyJr374i4BeOpU/5EjRyJ3sK6oMndUCPdCaAEIGycmgXBNmlm4SRLVqFjeq0WO ZBMVBnqQM8ayV3VvaaMAoDXZH9m71kj5RTWT7t1zOu03canODAxA9cUD6+6MKf2OBF1pdVlHA+fK T3/606o7WC9EjhEnk2UVyDdOiLYKehjJJVJtXD7IGVMflK9S7QD1dMWngG+U7uZM8cm13ZJLBe84 NjKU0Qvlff1mPNTIQCFoSjfV4sqG6GxQFC80pYugyrThkJwk4T4rmIGWX3RDV7qnNZXL5++++64q elVfRCZhQ0MDWHwpz7/G4r/lXxaLPtGQ9W4dqGGShHV65YOq4KXb5VNNMxgQFfRuSPbIBHjnqk7J 43+z9wyCu7wv1U/mLW1v+A/vusjnjeBURHVTLO9sjNBuaPcqxOVDGQgAuqD1vS3JeOyZ353t6oa+ iEzCbdu2WRsEVKwBUb5FJBTOl2xg0VHPgK5OEa1sCvq8/aOBnIqov0c38FzPlIXaRj8BNMX4lSuk pk1M5/R7Dw8v8tRN84lJVEvKNV1Nf3H9+urODUQNpmC4DLQwa5jbVnaYAvbs2VOnHteEyCRkxZUG wFqUUHjUUdswUxQlaF1OBBzLaJO6iQDVTZIgGQb6NSgFsl/FvZJEYOkLD5rjin3iechKEpIwBF29 pFUy1/Q3u0+lGLpqasiZgvU3DqNChoFV2AiGoEu6Gpa0pzPZzJ133llbH+uDyI6ZtWvXAoD1YKzA YIg945rHVIIVmyrYD7SQ7tA6iEE3AxnCqLQzc1FDwiydXjMDAUAzSbLQfVY3n3hzOMldU8k8l/Yy sLLH+yyiTs6Y0v3mBV3V15KIKYODQwcOHKhbP2tAZBK2tDjypCisJhD58rNoKxY+VK+FVoTtJ4k6 qCj4RYsAcp5hALvYCWZgpM71NMTXylWyODw8/cLgTMz5ED3mkw8DBUFbg1QEcoGAtuHh2l/YiO6M sSAABNFlfW1qTHnyySfr2OdaEJmE6XQaiqlqQoiiVCvD6YkJFZQA7ll7QUd5/kYyBYmAIR6dzkkO ds4Yx2KdWH/yRJNh9WIgAGzsbupplmLIL189lbb9vHZnTHjviSghva7TQkATPq/vCs4YD7zPnIoD d9OKjrlM9oUXnq9Lb2tHZBKuW7fOLAa1PClpWNxf2PY+SteQkxOD7u+jOmMs1deUHu+pRCypoPDr TH2j/1XgunVSuujgTHbn6UnVL1MtXBEtblTfwxqhmWLMyiiuYZKEPwMBDEFblrS0pNTTp08/+uij 9e99VYhMQkdVQ5+v7Ue6v6xMgjq7QwGqWtYTS9x1Nl6dL7GOYhAALpVbsWz3ibH+2VyprqGUM+b8 sQMh7C0gYwp6G7OGTc4U717TSYCHDx+em5urQz/rgWpIaKmiQGUDPtD2s0+oqAcDfStWhBil1Y2r cAZihNK4ZdSFgQAgudDpP794LM1L06ndlw5noIyyt7BwxoztT746Z4zFQCJoUJW1i5sZV+6995d1 73XViEzCeCJhqy4DEJCGDQBF68mKQci2H9UZE+IOdQ2m6sjjugpWlVNQLwZK4vDIzJHJjFVLxm+S RAUZeO4Foi0UWxdnjAWTaHlTfFlX48joyDlZ+CUI0XNHyf2bBk1WQgQiAT7rwPo262zUuR+CTUHf gwsMtB27EGu5RG3k7DAQAB7bf8ayBqt4YZx7BtrgYiAFfBtyYuEUIrBmTixpaU7F9+7dd66qG/oi shOs8o+E5QWoDMNEmSXZQ/wz9s9RJkl4GRh1wXo/RbQaGXiWfTlZzbh3/6CVLFqFIuo8ujJmc/pM zig5gARBb0tN4Q1ERGdWkndh3QKCxWBpr33Y5ExxxbI2IejclnXyIhoJm5qaWlparMiE66ti3rbl 1Cjkjhby2sIbJa/X388U9CBAESVwOmOsH4Yj9M/mTUGK3ApddWGgvV8VxGD9BBBj2JKIzeb00kOL xsCInbnrxSO3bz+4WOWla2m2yZEEQESL4rHepiQAmQQXdaRjaR+lRAAAIABJREFUDOMKX9mW5gyX taVinDWmE6rCG5OxlnScAA0hXKtZVWEKuhhIBO0pdd3iZpPon/7pHyPc4cIjGgkVRSmlrUnOJLSS Jyv+rJUZGD5Jwvalb6cQYN6IMKvGSunxZWBUyYaVGFhfURlX+Ccu6/3Gk29Y68hHdodGVGHjCl+b ijUWVxT1XVSQCKbmCzlGO05kLb+XIYgADCIETCpMQUhwllSYwnA6Z5TLANTmjCnt1AVt6W5sSKqj I6PnZDneEFS9FGThdVOYVx+s6lVIswwyBR3fRzQF7b20i0Tpwd6YiKV5uTi9Z2Fd1KualePPwGoc PRVw4yVLDfeS0FGdMdX0KWhZT0TgiByRIaicxTmLc5aO8YYYb1WVFpWriAwgb4ipnD6W0Uwq2DC+ C+tGcsaUoAva2NvcmFSfefaZKm5tQRGNhMJ0RLxLRAw6PnweE/n4uxxiMMgZE5gZU8EZIzuwVM58 F3O3Ls0QRrN6TlquVnxKdUdLMnbTqk7N9Kla4IvqFFELg1MZpVA5toLFHlKxAoGsB8sQbetYWQPA +QaUlIHgEIMAkDfF+qWthmmeJzMn7IhGwq5Fi1qam33qbTvgcJwGyR8CaIjztCO9ODoDXW2GMlB2 ZqPrcr55GxH8LdZN+I/u2pd8CsJnr1oBpdrmkU3BCN3KGyIsuam8GcjASJkxFeEaNrafDDcubR0Z HX3ssXNZYtQX0UiYSqUSiYS/WmVnW3FT1/Wg0UpAcYXFWclgdP9IUgy0jZtQDZEQcTCjVVyE2X25 oPRy6ZAjZ74qldV4YSPSqkxTWU3msA1L2jZ2pA3hdexX0u2riIJSoCIaeEpoZ4KmKUV1xpSuYph0 ZW+zqrCZmdlzshZvOKKRsEg/fzvGSUO0/KWIwT+H99Vb/Cul6tkVUec1vGu5IMCoZkQcYC5TsHSx CE30taTyZuA4A3mBWsRTbwzJHBZjePOG3nnddH8RZAqSe4c8vAWsPKECx+8bxED7o6guLu8vAwny prhmZSsy/vzz50vSth3VOmYkfywEIcIsE98REaREBZqClRbWtSAXmyhe2Tm/o2zxRxylPKjEWqFZ /9dZCF48OpLxUssP77uktzOtOoR/BQaWEZMrYFM4OewN6KOI+sIZlw85NpCB9pRGV2txhV+8uJkx 9vTTT4d14hyhau+ohcrjOsQnyZk1Rt0jo7Ii6hw+wQyM0Bk72tNqk8JKHauagYHdqKGdg2Pzx0Zm ZI5sSam3rOnM+clhCDUFDYJFzSnZDskxUAia0swZzZzXzawhNFMYphCexa99nTG2ZkNlYFAHiVrj vK+zcXhk9NixY5K3dTZR5bQxmVGEgEIEzh8iotZ4rFFxPd5IDASoQAzHdxxwNm+0pdRKHQfOsCQ2 vVooepgfCehsJyrIFE+8MXRJb6vMwTdf2ve9Xf0pq96hvDOGSF5rCHmv2Rm4qDHxX969dmQ2l9HM genM2Fx+eCZ7amJeJxImCCKTgIhiiJyBK6HCRWzvBYNMwYJtSdDRoHY3p17edeic1/n1RdVzN+UG EAGE+AZLyUl2UzDKJAkXA8OX9VQBhuZyMiT08WXYmuMIA5n8TFZPyK2P69tDV/01ectQ5ezBg0N/ cd06mYMvW9J6+aKm01MZxScZoj7I62ap90HrmQmCZIxfdXFPg2eusGbS8HRmfDY3NpOZms0eGp49 PDJzYGimvJJpsOOgoilowRC0fnEzZ6y/v7/au1xYRM8dLT0UWySi4Pwo1Tks5o/6+eYKzVj/YSHL DSBabhp4mRLOQGuH5Dyg0vlBYpCFpScEIkgGcoDpnC7ZCEMYzuR3909csbRN5vjPbVv+7x/e1+BX /DdADEp2pIDR6SwLWWHS1qrhV+BY5bi0Lb20LQ3Qbu05fGbi5n9+qjMRAz8GhsflvQwEK2W0rwUY 2759u9QtnXVU4R11D37HB+fQNE3hFzoov9I603Hr+yBnjO95UCEu789AeTB0BAJ9V5KoF5CAI07M 5+VPMUx64ciw5MHbVi/qTMZK7plKiqh8L8pAGXeodMucoSid5bpQkCkYPGwIIKXypW0pRPboo7+V 7cTZRTQStra1tbe3CyKHHCxplU4gIBb1Udtu+49PMYZU8obJKqLuYyX9HBxheE6qSlqDyptiXBQt imJnamKgvyLqo1ZURlJhd+85I3lwezp+w5qurOm0Y0MZWGMuq9cdSgANKlfkPK5TGY27E/8D3AqV FFEAECR6G+PppDo2PjY6OiJ5C2cZ0UiYTCQYY1BM7QMKZCAAAILpLkvqfpoNKrdWG63sjLG9yr2T JJyH+u9AhHlNyrlfujoFMDDKMEXECgyMSm6GMDKv7TwxJnn8H21ZzhmW1bZKgzsqgkzBwrcARNSS iMWLSd7hGJ7JKRioiJY0FBkGApApYFlLorUh+fprr0vf0NlGRHXUZ19odqhjHV8PXQg6UqoRsVF5 d6h9hwACina3Xs270DcCQ5DkygoxhS1OqlQYQD6nVMeDlMKePjQoefCKzqZ39bVplkkWxECHGIwg 9f0j7F69kWRT0NCR3uE2BR1fVGAgAIBJ1NOSTMWVk+fZzAk7IidwA0A48exmoVWgO+zy1htadppS Nc4YKCZARfJ/2G1Ol/higCNZPaMZMu0gooJIXllarRBCACKIM3zi2LikJakwfO/G3rmQjHMXZ6IU /42ysqLUkbpZmkzoZmDIJAnweaRkda+vo8EwzfNqKr0L0Ug4NDQ0MjLCWLGaKNoHF0LBQVr8iCUS +gsVQbSsMW5IzHWytgiimILll7JllwJDnJRLvASAzsaE75JmFiqsP+zpSBADq1BIiYAIOOKRqczL 0hrpTRt6O1Nx4Zht694s3ZEuqK+9QabZ2bw+rRlF/TBQDAqiZIxJ2oQnRmcVxBAGFu0Stxh0ovCt IaivoyGTyb3++u+LOsoYsy/wgn4xLkcGKaJhhplhCYW58nSrniThf0rB4Cx8lA9RJBROQO5oXj1s KB9TMEqzBIVn1Bzjv3pNNvDFED+zaWmmkD0TxkBLceSy9QewIgPBKumdVOVT3kO+lTQFSzvzJi3r SOfz+fOqspMLNaatAUAFN4UIJqEg6G2I5226heQkCc8FAxVROwM5QCYvpUOGdyZSbB0qGlg+UR+Z NkFB3D86d2xsVvKUGy5Z4k0SLLVmx9lZ1jMIOd0sGYWSkySCGEgELclYUuWGaU5MTETtyVlDbSRE BMDweXq6EWaGMYZtKguSYqUtcjEwiilYOoshTEuH44STG47RgJA1hW/ouSJKNYtcOlW0RgAAgCFM ZLVn5SZVAMCKjoYtvS2avdvei9uW9ZTvStB6AY5EOek7PT0xx53Rf8nMGC8MoiXNCcb40JDsUzon iExCa3YSAAAgEHmnt9rNJUQ0Q9VRzlhTjBedh/bL2C7oTfEO+GDfIZwjw4K8OrqqPV1y27pGAwLM aIZuyEY7SuOvzlN4idIK+97OE/JnfOHtq/XSw/RXRJ17KsEUZJJj3QhfBgqilkbZEmzWWnrykySc sIlBAEHQ3RhXODtx4oTk1c8JqqjADZbTpSAFfcP05YcEhh6iAZKqsM6E4l5J0+WMsbcsN459xxlH nMz7BkR8EDIQsfIhZcQV3p1WCcjPFLQLatmRbz+OIQ7P5Xf3yypa65e0bexoMIV7sTerM1WoxdMZ bU4zZRJiktIrzExnNFbsl9sZUwEOBhKACdTdGOeM/b5JQgto+9ez2/FR1/UgVyIBxDhrVZWAjBqA qM6YsrLnM84QIGOYmpwaWY5PeMdrFCADlbOSmeXLQAA0oyq3xdMbY/yx/bLZM2lVee/6nqCqc1XI abJWd5UwBeX17qnZnGtQypmCjp1UvKiqIDIcHJSNqZ4TRCMhImLBO4ol31iYux7BDJ7NBARxjl1x JUCxq1CxwndHCAMxyjjrbIibRF4Glt4+puSwkpAvCsKZyXnprjlGdILjfQeGpjKyoZf3X9GXiimC bO4lIvBdKVm2M4W/QQy0AptJVVYSlkyGKKZg4SkX62IUYBL1tSQVxrLZrOTVzwmikXB0dHRyYgJL QUIiDOUhApIgwzB85YggSiisI6n4ha+iTVNyRAUDmMMQRjLavFyQvTURE8Uf09UOACgAJ6VpE66I Fo6Rjzs6TWSGOJ7Jv3hUNiuyPZ34yPruvFPw1mKrunUiv7wLIaijScomnM8b87pp9/VVnCThguvG rDj1zIzUNOhzhWgkzMzP5zUNC5XKJSQhgBBCmMHF8AnaUmpBqgQP0ggMDAYS+NY98oV3LbHyi5kI AYyIjs0QBtobl4Lz6EaFPbinX743t1zeN10qkOFrChJIEjOrGVlDlCkTlvkk1aA168bNQFezoc4Y ZwcK4+o8Wv3bDxHVUeY4vnKAAoBIGH6ORCpE0anTWtXdNkihginoaqj01xGX95KHAU3lDU3Oq9kU V0ybu8jOQOuzvCtFOF313gOqszZLDcYY2zEwfXR4WvKMy5e2rWtvsAqx+SrLKF0eMps3cuUsM1cj xQ0CkvZLj83mMrqJ9jiUXGaMtzJNuQBcTc/3bCCyTchK7lHrc9G4cEUmSoq9IDKF6Q4sUPkJdzeq enloEkSdJFHcG85AJALAjHR8r7sxHuJIRQBdrp1EjC9Kqb5v9DqACAAQIaebj+wbkD/vS29flTPt LpUykEhBHJ2VmvOlcKaUTG2Hs9exkRdicWtapsFMXtfNwroJcqZgeac/A98KiEbC8fHxufn5oh0I fi8Z9x4i0jXNnsxm1w0E0fLmZE7Y94RcvxpTEIo/CSLkTSFZetQuI9xiEEBB7J+WsvUZosqZO+3V hupf07YGkwr75d7TASWdfLBtzaLFadWrUVsPiiNOyyXZtjUkWuJKeAUFAaQTLGmTIuHUbDZjmAU9 MkpcvnrH0nmAyCGKXC7HGJaFH1pyL3AsIaKmaSX1xqWdE0FbMtYc4+TzZZRJEpUYaO0ZyxmaXL1A zrExxsiPgVZTFfLOg/rqRF0YCAAMcSyr75B2z3Q2JN590aKsM1aB5VcMnJTLhuttTfU0JlyPws4Z AaSZ4roV7Sk57+jpsVlTkBwDy2LQ4bwhsotBFnGN2nOCyCQsqaMFBgJCpWVAc/lcYaq0N3wEAABr mxKmc+ohRGKgB0GDm6Ns2cIY5y1qrCxpPT1nkRgUbgpGHSPk82gUgF/tjjBl7hNbVwArJwzaBy5n ODAuu577F65bO28I048zBGQSzRniK+/ZINnaa6enYlzmwQY6Y+xQEE9PZk1ByWRNSyYuNCKTUNO0 YoSw5BsNjRQiankt3IO6ujluONwXEd2hwRa4ayUJFfHklJQaSTZfq5eBiDCrSU9NlGBglLJRjnFX 2owz9tCR0Yl52YBhX0fjzas6fFMXFMRT07nprNQNvm1N93++dSMizummIYo5hgSGoFndRMSvv2f9 FSs6JXv1/InxGEN5UzDQGQOAVrZwzhCC0mnpMqrnApFJaJqmjVFY+scGd95MPp8XwfNEEXF9Wypv k1DyOZYSzhjXtcAQUuZDXGHtCSXoPcsBh2akXBecYbKgbNu64fzIEKfkit8AgC8DgQARhCl+u092 6ipHfO+lS2Z0AZ4HxREPj89PzsoGuD+yddXPP/+uz71t1erOxqwQGc2c182WtPqnW5fffds7/493 rZVsZ2Qmd3wqUxqRtTtjOOLAdM4UYtGiRZJ9OCeIXPLQMAxEKP7fEohFT2i55KG1s+jPZ5jL5VRV DZAJtLgxHpyRKaWIhjPQFmTHY5OZyjcJwBlLKZx8Fm8rNCgZXkeAzmQsUAe2xCBAVi6FAArTOwDc MR0AgJSCjx8c+NDmZQlFqprLu9ctXty4L5/XufNeGMB03thzemJ5V5Nkr1Z0Nn35vRu/LHl0AJ7Z f7q5WJox3BlTyAEIbso6gCMcHp0zTbF8+YraurawiCwJ9+zZg8igSMCiOlphRObz+aBjBEFvS6pR 4Z7B5f5g3+E7SSJEBpZgyPkQEYFhgCZZcCLJNAPguQcfUzCKdbm0vcG5vER5U2H43JnpI0OyAUOO +Pmtyz3uGQCAhhi/99WzWpRFN8WzBwcS3OFzDwxQeePyAQGSiYw2OZfdtOmKeve3nohMQsMovLPL /As3CgEAMJvJBJOQehrjKYZEsopouCnoWVi3dCHgCGdmpLSsZIx3JmJB71qGMDwjJVFd8HfGkM/b JggcMeBw+v/Ze+84Sa7qbPiceyt0npw3zGbtahdYSSiB0IIwQYCQbAzI+MdnBBaSDRgDtkkvwQQj kowxSAKbDzAW2QpIIEAoIQsU0Cpsms2TY0/nUOne94/qqk7VVdU9PSuJd5+ftNNdXX3rdlU9dfK5 CCAh3PpkE32m95y5JmSVkkHFTS8g7p/PHJxJ+h9qhZhdzt53fMl1IRq/pqC1OwcAmZKD06lwMBiL +ZXqpx5Nk/DgwYNgK2NW5ME5ZwLLL1StocOAc+gPS71BoS6C5ywGPTNjquZgvbD7yfoMsiMicSqJ txvvKU3UE9ZvqnrX7Doz9Yqo/Uqm+JuxeZ8+FQBY1x0+f123UmcnI4JqGN958HBzM1sBvvfbw4Rz XJkpWP+MkwnuG48Hg8FLL7207XNuF5omYT6fB8snSkr/Ekcpx7nNQywWi4yxRsLQYPwFA7HqcFMj BjbtjKkciyLOpHxJMIFgSKQ16mhl+1D/aWuRYEmi2qHSyl/XRgYCAAWcz2u/PdRE9sxbL9hkJjTV tA8NCuS/n55+7Phic/NrCWPTiTv3TQcE6oeBNVFB95EFgvumU0VGLrroojZNtv1omoR79+4FKKeM lppE1rKr6i0iKoriUpjEOJzdHyk49gKr3uAnM6ZmErzS+ELus54QAbqr1dGaBr4KYz6HigQlxp0T 2Nux1lrtEDLFH/luAAUAO9f2nD0YM5xM5X5Z+MzPn1ryl8K2Enz2tscLmmFT0KVQ0IWB9WIQASjB Q4u5mXjm/PPOa+eM24qmSRiPx80Xtme0MmGmJoPUfm0Yhqap2KCRFmN8tDMoU+LgbKnY4BiXb4SK TBd7C0eAvM58LrLp0t4XAXXGfY7DubMpaL/y72utGLRmjPI7ieC948s+IygAEBTpJWcM5Su0a/s5 JyAeXsp+6rbHm0wPag7/8Zv9j04lZMsadMkWdpmEIwPNfxnndz05ddbuF/T0+FpC59SjaRKapVkl 8hHz/vF2kCJiOpOhxNl1bnDeG5F3dgYcKmVr/GH+xGCNKQiW+AIAnfOCP/IM90Tszrb1fezRu4Ck /JUKRbQM+x1FWMyrK22iW3FmOgRyy6NNrIZ5xdkbwrJorcxTPuMAEBHpb44uXnnjvYlmlqzxj//+ 7dgn79rfIQkNTmUrzpjKLRxAJnjPgfnx+cT1X76+bfNuK1ppb6GqasketPJGPR/kiFgoFBqZjpxD d1AajciNivSaMgUdZaD1AvM6T/rLTi6nYtWNAwAaYxl//bwF6tBOrrJeEQEVnTXTytpEw/0DlPxq bD6r+HXPRIPim3YNFyubz1RMLyLSI4vZN91w7737p/32E/ABRTe+cNvj1921byQsVVzHyl3awEAO QBATRf3+fdMXXfTiHTt2tGv+bUQrJJydnSWE2JF6i4oOBKtUThWlWN95zT6ZBOGM/kitOGjeFKy5 ALXzAWCc+3SQmoWOjZb11BnP+ctc6+8IGdXVxPUVwwDcn1it2N/pnTmGQPCphcyB6YT/4V71/HV5 ++rUTS9AcTmvvufHj73vv/73Dyfa4Kp5aiJ+1Q33fPeRE6GKoIRLgKoRA11Q+eCWKd50/9GOrr5r r7mmxRmvJloh4czMLKW0FClEAJuMAFBr3tgbQVNVVVEqG3hXnkyD8YvWdaUqA8eVpmDz7tB6MWh+ q6Aznx1ZgpUBtOqbHjkgoM9CVQJVQX+nEP3KxEv9gJxHRPLDR0/4H2PX2u6tPeFK26/mtwkEQwL5 7Yn4n3/zt6++/lffuHvf74/M+yw7tDEZz9368NE3ffXuK75+79hiNuLGwLIYbNYZU/5+hcKfV/Xv 3Hvgij+94uyzz2pqzqcArSyXvbAwX5KEaFb5lpXSirsNzXOApXRc1HWjUCjIgQBjDqtiM+ADkcDz u4KL5vJ0Ts4Y95Bg5XZnBnIAAI1xn9VMIakUoqhnIEdQGEv7XtnCBreeJ1V3T3M6nvmIx/K7ugE5 gEjw4cnEyaXMaG/U57jvuXjb39+6N4bVdnu1liFTMhAi8Uzxaw8cRXIsJJCoLIx0hTf2RTqC4prO sMF4X1TuCcvmFAuqPhHPLWaLR+YzYzOJ5YKW0QyZYH+g6sbz37Gi6lt1kyz7Aup2Don0vx+euGDr 4Mc/9vHLXv961zNxqtEKCROJhMU6SxxWJRs5AxHT6XR3T4/jp5yDLJKXj3R8e2whZDlRa5wxDmP6 c8ZAxWXWGc/7M5YGIgGt7tAV40DRH5ndNeTqXZpEAwZyq8Lwd0fm/ZPw3C2DG2LBhZzSaLkbe6OA SEXKgOuMLxfUpZz6h8llxrkZ89c5N7iZFw4EUCQoIAgEBYIAGBFpGzpWeMpAqDw55pMUkPP/+M2h f3nLRXv27Lnvvvs8TscpRCskzOXMRmNlv6hrWW8JSDCTzZjqqOOjnyLuHIrph0qVqe1yxtRAJDiZ 8qVEIUGoWROmYkg/7igTAx1Bs1OGgyLqcTu6wkGtrdwMYYF84/cnrrxgs+dIJ+PZ4/OpmaUsZxwr DXnHhMzSg5GXDBFASkGEmkUFKUClOV3aysHhJ7e3Y0XdbVP2K0iUPDaZuuOxiS99/rqzz30WhQ1b IeHhw4c1TavQSM3EGQLgIRkM3chms5IkO/bG1w128YaewP3HzVSbSk3EPwMtZa9WgbT3pAAZfyUL o10h1anAyvxb1FnCX/qoJFBW0cHRgYEIKcVQdUP03ZzTGdXtQynidKa4dyK+e12t9nFyKbuYzB2Y Sd53bOGRqYSqMwpIEMICpfXPszrUB2xdFta1tzbBwNJRGqLRU8yFgSZCIn7hVwf+5+9e/uEP/tNn P3dd4yOcUrRy1ScnJzVdrxaDpdeuveWQcSObzfb1BR1JyAFCAr1kTcevJ5IStTY15YxxPGr13S8S fGIurehMFjycUhxAdq3y9pu5xt0YaG7MqLqmM5B8jVeaXN2A9XetTOCXT07uXteTV/VsQd07EX/4 2OLh2dRMTl3Iq4wzmWCYkIhUW0DUqHmh2bGi5ihtXFjX3rvmtzShiDZmIABHgIhAv3z7E3/7lrf+ 7I47n963r8EMTilaIeETe/eqqhoMyGjXMxGCFbd0TWFh5et0KtXX19eIrprBXru59/bxhFSX5tWI gX6cMZW7SQT3zqX/6vuPvO2c9a/YPuTyMxFxNBbIFzWCiHUXFMFvBpz9rUa3eOkj/yppA1OwdkzO g4TccXBW1fVjy/lHZlKGzoKUCAQpQlgg9d4dR1RyxukotdPyubBuHRo6Y3wy0Gdzf5Hig8eXLtk5 8rGPfOTPr7zS19RWGa2EKE6cPMnM+npEREJKiTOE1GalleMT1gtMp9PVtflVMDjfNdyxI1ZuBOZ+ Z7o7Y+p3M1+EBHIonr3mjqeu+PZD/+uaoCwSwusUUQAAzkX0Wx+8vjtc9A7E+zJ4Knesd8bUAxFU nf10/+zTc+kYJd2yEBSISMzgSu2v8jQFeU33b38MtNwkfk3Bmt+yEmdMNcpbOiXh3351YO2u8y6/ 7LV1uz0DaHFBmEw2SwglpIKJjUP2NUgkloUGpd+cQ3dQ/JPRHnNNWb+KaINTX2OWVM5MJNgrCyeT +Xfe9sRbvve7uw7M1CeCIsCGjqCt5FUy0Pwr+FvOtvboDql5vhnYYDRHMVh6gRCgRKyOabovrFt/ lHo3iU80Zwq6MtDHUaxvOSmilXsjgqobN/368D99+KN+xl9ttEjCfU8/TSm14oRW5NoHAxExlTJL vxsIQ4O/ektf5ZrJ7oqofdlqpXDjy2frbiLBICUHlnLv+vm+q7//yA//MJ6uzkQTSd1tYL2nCD69 rFWTWTED689xvRrm0FzH8SDNMLApU3A13KEtO2NqGGhCJGTvVPJgKvTZT38Knmm0SMKxsbFKx6gZ sSeNJWGlRprL5lRVpQ1qqA3O13QG37ihu+jah6LGFESAynPdaDUlqLOeEEAk2C3SA/Hcx+4Z23PT A5/6+VN7p0oJX1u7w3qlqKm6RzHnL04IAFGz11MDBiKCanCXog0b8byaKlS0hGlgCtZtqT5mdfTV TURbaIGB0KwzpiV3KDTFwGoEBfKluw6c/4orXnzBuY2PfCrQok98fHwcAAAs/pkaqQMJsebpBsAN w4jH48PDw84+Us4J4hufN3Lj4cV1tJRc79Kxwv5e+VPfDKwcUCTYJRHO+U8Ozv3g4NxQWHr9GUPz mYJAnG8bRCj4Lq4f7Qimc0rtuSnfT7iYVxUnSmcUfS6Vn1rM3H9s8eHx+FS6GKAommqCkynol4Fe WCVnTBNrufh3xvhnoP259eAOC/CtBybf+6FPPnjZq53me4rQIgmnp6d1XS+HCkmZh/U7IyKr8Jwg YiKxPDg4WO8jNd8ajJ/RF37Lxp67J5KBuiCBT2eMf9SE4IMC4QDpgvYfj40LxLrjoVZQEASfnfAB gJf6cTZW1xHNPMqsohUUfSaVf/jE0sHpxHS6OJlVFvNqiBCJYsg2Q/0trNuQgb4VUe7GW1cZCA6c afR1F1PQ2xnjE9UMNF8KBPfPJrcNrfnkJz7+8U98sqnx2ogWSXj06NH5hYW+3l47UkgQCaAdqKgh mJVBWvpIUZR0Oh2Nxuy2UTUwGL/67LX3T6cYBwoOl4SXt1QLySbFoGORBOEAiCGh8onv9F3/lbj1 364cEIEZ7D8fOJQuGvsWMwfiOd1gIYoiQYpIEHusIH61c6X+t7jdlj4ZWDGp6m+Vj+JykNLw/hVR 266rGN+JgQ2PYu/pSxHldZ8GBHL7EzPvf8Xl0dB1mfxQ/r/ZAAAgAElEQVSq9xBwRBP+vRrs27dv 27ZthUJeVVVV1RRF0TRV1TRN1UrLnpV+cem19fs5cGCcBYOhHdt3KKpavXMZQZHe8PDJf9073VkR VS/b4k7kaQsDK7e7k5Bx2D3ceUZfeDga6AtLkZBMECkhHaGqoDtB/LufPjaTKlTacpU7mPdTUWcI ICKSmg77NT+Kc2jeGVPftds9Lt+yM6Y0N28G8oqjNPwV7VFEnWRg1VQY5Bh+9CWxN77+VfBMoHUS /vbBBy+88MJ8LquqmqqpqqJqqmr+b9VJOJLQ/IAbhrF167ZwOGyuXujYaj6rGv9w18HHF3M17Sjd U7RPDQPNwTXGNYPpnOuchwXKAQhgSCSVdw9aBHMcre7GcDZj3KOCTZiCPhgIYEcFG43pykBrWHcG WkdpRRG1jmJu9JKBtSR0+FRn/JzR3tjcg5/79CfglMNXq2ZHbNu27aIXv1jTNMYMZjALnHNW7+ir 0Nw4ICAgB9B1rauzizf2l4REemZ/9H8OLwDnthhpCwMd94QmGQgAFEAkKFMSpIQCEkSCYBhcZ+Z/ TDe4znijgKKr6uSXgTU/of6tmyLq9K16blTv4IuB9vZVZWB5u18GOs4FKOLxpdzuXTs72PKhsVPX 6NFEiyEKALj/vvsAgBBCCEGChJg5M4hYM6bzDUgIplLpdDotNO73qjO+sSf81ZdvyxncKGmt9qDO 1Ko5ZEMGujLZJwPrZRoCIABB6z/rNTh9xf1VI8vNgRsOkY/Kl40Z2IwzppEpuBrOGB9Hsbe7fctT Ea1ESCR37lt64WVXuw24OmidhA899BCA2XyUEFMGWElsrh6Liig84szsjG4YhDTmocHOX9/17y/f KhKiWB1OPJ0x7lgJAxvBPUW7fosHAxsdpW6LX1PQz/Tqv+UwJjffrrxIwoWBZeu3Wq21jmLv5qqI ejLQ+gl2GIwb+m9OaB+77mtwatG6OqooypVXXtnb26vrOueGwRhnpirKmME45z6ch6hpGgB0dna4 hKoNxjf0hLZ3B5+YyywUdak6A6stpqCnx6+8p/2q8tq2gYE1OzsMuHoMrOSML2dM3Rd9MLBqwNoi iQavK7c0x0BPOD24EVHRDS3Yv70PDux7uonRVobWSQgAr3jFK7Zv367rGmfcYAbnjDNuspH5W4EM EbLZTDQSDciyCw8Z5+u7Qq/e0hfPFB9dzAqIgllP2g4GQs3NZH3f4etOn3LHjhU18BaqHoqoHy3U 81HiwxT0wcC66VW5NxserkoRrT6Eg1bsHhV0YmA13MVg46cSIizl1K1nvkCfH5ubm2swepvRujoK APv37+ccTJuQmhopIQQJaRC1t1D6yFpkFI8eO6aqqthwQS8OAJrBohL53CvP+OkVu140FJtXDbWs nVaP29gUdJ6NP0XUmYH1t4HXkT0EYgMGuty41paao/gSgyt3h/K6MZ3mU8XARoqoNwNdNGj/imjj E2L+kQg8MlU89w1/3+hgbceKJGEymbzqqrcBgGEYvCT/GDcFIuM1GilixQk3V9kubQfGWC6bjUaj oijW8afqROqMD0Tll27suWAwmito4xlVMZhZIvDMOGMctJpmFVHv+8NBDLpuaVeRhMtRqlVEd0XU FwNdDudDEa0/mrczps6HXAYFWNalC85+wb6H73H8bnvRepzQRDqdDgQCxWJRU1VV1zRV01RV0zVV 1cxsmMrneE3InkM5UM+YEQwEN2/eLAiCwXhljNFx0pQgA9g/m75zbOEnhxcZBxFRphVLk9Z8pZEi WnP/ecUzKndovzPGacBVMgVrCHNqiiRaiMv7YKBvGQhu56Tm6cA5xCIh/akf3n3LzbDKWJEkBIAL Lrxw+/btuq7zUpSQsZIUrDQLvamOiJqqLS0thSORQCAAXiol4wAcBmKBl27qvXLX8JZYIIDw5HI+ rxn1C5euBgPb4Yzxvj8cpFPbnTGnpEgC61y7ztajoyLqk4Ge8M1AAECEoqaFBrcFCnMLM00ssNMC VkrC0dHRSy65xDAMk4Gcc8Y42I7SZmwzQOCMLyeWdV0Ph8KC4J3XyjnojIsEt/RFL9rQfeWZg2f2 hMKIisFmCprKzPXuELm5cIQDA31MquJg9suKy4Z1n9bv740GDKwZollnTKOHX01UsPGYDRnoJzfN rpky3aG8/F9JJbJ/oC3uzDR3LPkLVlQkUbtDMwy091QY6R3dqUw/nU410c68WayUhIIgXPb61wdk uZKEJbsQOHPtwoLWVbPalpYW/ctms8lkUpIkWZYJIZ5M5ry0kntQpFv7Ii/Z1Hvxhp5Xbuje1Bng jBdVQ+WQ05nGOAIQU046XFAnJdbpU+5sCtbNqfKd6yufDKw/3KoUSZT78bvKQDDdwpxxMBgwAM3g OuOqwRWDmT4zBsA4iISYBd8hkciUSJQEKXYGhLBIwyKNiNR8ERIIIporcyGiYvCCwVWDMav8xKON QTsYCPVnGLiGgYHRM048+kvXw68IK7UJAeDgwYNbtmwpFAqaCV3TVE3XdVVTNVWrKBrkNRmkUHoo lrNMzbZkHLjp5IlEowP9/Z1dXS5C1XGzmS9AESnBtKKfWM7PJfNHlrJ7F7JPLeUSBT1AUCBIzH0A CDivsfTMmIKcw2rG5a3YNAAAA24/U8xFFDm32cXNjcDBZALn3ODAAFTGOedronJIpDGZDkRlw+Ab e0IEMSrTvojMAcIBURAIAsRCEiGIAJ1h2SzOFAj2ROTyErIAgKAbPJ5VCEI8oxiMLWeKBUVL5dTJ ROFEPD+VyE8kC5yDiCgQ88oCRSjFjNvFQIfrCAAARDAmH/39Dz5f+2mb0AYSfulLX3rf+95XKORV 1SRgiYmarquaqmt6pZelIhhY65upJKH54w3GOGOBgDw4NBSLdYiiWB9+9FT6EMEMmNjHiefVw4vZ 6WQhnlFmsspkRlnIqwsFrahzkYCASBEIIDVXP+OmIlSS1s2aguBAPQcG1ozmn4HWmS0/o6zW/VYA 09RPLHYBgGF5exTGGEC3LARFQhAHIxIy6AmJIiURiXTIAiD0xoIA0B2RZZGGZaE7LAHiSGewJsbN OXdco7K8qbTRvBBoGEahUNA1TTcM2+wza+JEQRBEIRAIiKJg6jhm0wHO+Ewid2Ihs5DITy5mplPF yWRhMlkADiJBgaCt5vgxtuuvhHv2HxWkhcdvP/Tr79Tu0w60gYR79uy59957i8WiJQU1TdN0Xdcs WMKwxIJGDtJ6EjLOLfHJJVGKxmJ9fb2yLFNCOeeA7vmGZVRVNkJpYUXz34LO8qqh6oaus4yiT6eL sxllLl3MKtpSVinorKiznM4Mxk2FVjF40WAUwLzqwDmtCLcQBOIq+QgCVGal1N8fjDMAo+ahzrlR 8Q17CTNEiIjUVCnDAqGInENUJKbACQtEIsg4H+oKIYIs0IFYgDPeG5EjsiBSHOoIEEBKTX0RZJFy AFmgBIFSlCjh3LpI1lksXx77uWT390JAQMaYqqqMMZNgzDCKipJOpRLLiWwmnc1kM5lMLpdTFUXX NMaYYeiEEEKo+WAwGUcIESUJCYZDYTkQ6OzsisZiHZ2x4eGRQEAWBEEQRQOozlFR9SNz6bHp5NhU Yj6jJAp6sqgJCKKZzOx4hptnoPkUBs5PPvj9qUd+VrvnitEGEgLAU08/feb27YVi0SaeSUJd11RN s4ShDxLWXHYAzpgtQhljgBAJh2Oxjs6urmAgYA3k8StcrEpTvpksMltVEevuIgh5zchrRqao64zl FF03uKoZqm5wDpPpoqIZiDiXVdKKbnI7VdRmMorDak2WOncsWQhSHIkFSj/PnkP1RNfEAkGRWNsg LJLhmGwKc4GQtR0Bs8IeEcMB0exIHw6IlCDnEAsKAiWcQywgSAIp66mW5VyWkFB1q1UYh1WtYkvS xRZw1gvzEi/H49lMJpvNLC8vF/KFbDaTSiQVRclmMkqxqChFXdNEUZJkWZJEUZQkSRQlSRQFSqkk SkCQMy5Jkv3rGWO6rumazhjTdV1VVVXTzKHyubwgSgE5EI5Gurq7u3u6u7q7hoaGRtas6enpiWfV pVRhIZl7YiLx2In4kYUsZ5wgiAStLo+tMBBsnxAiGPq+W69Pnni8dv+VoT0k/OKXvvT+972vWCio mq5rqqrregUPNU3TdcOVhCVPhAMJOQfrbuGWZDQrp2RZ7ujoiMVi5vMSgHPbxePh53dBnflUQVFr C4J55aq3QEnMOg1a5htCvS+k4uAWQar3qE4oq+ysU/nryhqpNUjDaVQTCqtkGuqGYYqyXDabz+eV YrFQLKRT6UKhkFiOpxLJZDKRiC8XC4VisSiKoigKgiCIkixJoiRJkiSJJt1Mvgmi9VaSJEmSZfOd HAhQSiRJBgBCqSiKYN0eCMA4MwyDGYbBmKaqhmFoqqqqqlIsForFQr6QzaTz+Xwum01nMqlEolhQ BoYGhoaHN23d2tPTNTg4GIp1Tya14zOJp8eXn5xKnVzOywQEAoLZoLPyEnuLQevsIQLAE9/7SG6+ iYWQPdEeEgIA51xVVVVVS3qorutaiYqqpum6ZptzlllY4hmzvTIcOGfW5iqN1DwDlW4bKKkuDAAo IVSg0WgsFusIBGQqCJIoEkIqrS3frSh8MbYpYvvft8nnBTjOtiZLyTbGzHNlurgURWGGoWmaoiia qhaLxVwum0okM5l0JpPJZbOZTFZVFfPyMcMwDAMBkBDRIpQoiYJgyjVTPZREsUw3m3VyICDLsizL hNJCoaAoSkFRKCEz0zOTU5Nz8/OLi4vJREI3jEQiAQxsc5gBEELMEtXhoWHGDM756LpRTmDd2nWi IIxuGCUAOmOcMWAMAAnBXDaXTCRy2Uy+UFBVtSMW27h509Da9eFop06k48vG4enk8YXMwfmMwbhM kSDS+nPYiIHmFkKKmfiRu76RGn+yyYvVEG0j4T333vvSPXsKhbymabqm28JQ13VLGOqWuLM8owA+ zcJaEnL7a7YENRMFOCVoKj+BQCAUCsmyHA5HzBuz1KO4YnHhuh/RfgaCbxI2HrZqplXl0dVfN6Fp GudcVRTGua7pqVSyWCjmctlCLq8oSjqd0lQtm83oulbI5RVV0TVdVRSOYCX+UkEQKKVUMNklCoIg iuarEs1KLwVRlCRBECRZCsgBSZYlSRIEAQkiUkGg+UJx/OTJYyeOz87MJJLJmZmZ6enpJ59s271r YmRkZKB/oL+/v7+/PxCQo5FIV1fXmrVrujo60+n08tJSKpnUNS0QCHR0dvQNDIR7hmK9wwen04+d SJxYyKSLmmYwsbRyWwNFtPoiIhEKybmDt3wxH59oy09oGwmvuuqqG2+6iTPD9JFW8s8wDE1TdV03 Y/pQqZk3RUJu72/7CspylNl6LWeMg8VKzjmXJVmSJFmWAoFg6b4xn9aiRAWhSs/kHAnhHAhBDkAs n0upxbF1r/s/LfUaYDVKym5pTERmMNPG45wzwzCzb3VdNw3CYqFguj0ymTRwyGYzjLFsJqvrej6X U5RiPpfTdS2fzxu6kc/lGGNWjy1ejoAAlLLsCaEllPkmWPwSREGkglCinCgIgiSJoiTLZX1SluWg HJCymezUzMz8/HwqmVqKLxw8OPbkU089+cQT/s/S6uGC8y/YuXPnQH8fAYhEo6FgEDmbnZ7p7uke Gh6SO3pzpDMPwd8dW3r0eDxIEQEoAWr5wsHxGco5EqGQnP3Df763LZNsGwkBYP+BA9vPOKNYLJTs QV03dF3TDF3XDJORhm7l1pjfcCUhWFLPspJs7jFba60UhtaLksjklhVp/qnI4DFHsT3qsiwLApVE SRAFQRAJpbIsc84ppQSRc6CUIiFgWeeyJFvPBG53ebR/Uflv+TcAB9C0UksrXdc5gOkbNK9yoVhk ugEIuqbncjkAbhhGLpsD4IqqFvN5QMxlM7pudgi2HzOmNl560pTOJ4D9E22Bj4iEEEKJQAVBEKhA BUEUbIgV/4il7ZIkCZbqaeqTkizrup5IJFLptKZqi0uL+/bt27t378GDB2dmZhXlmelT1gI2bdq0 ZcuW7du2dcZiuqpSSqLRWHdvX9fQugNzSkqTTib1I/MpAbjguB667bKiQj4+te8nn1Uz8RVOqZ0k fOc733njjTcqimIJQvNfwzAMTdMMo/RG1w3LPqwnoeV+qSKh/YF1i5Wp6ZeEFd+q/HbJELVEJpRu a84555RQROCcm5VZJd8d56IgWC4i865nYCbqVc/M9jCZgTpN1So0aK7pOjMM8wfqhm5U9BE2xzCP WJa6FT+QV/wU66ZABLMTMyGUmkayQAVKqSAK1FQwbc5RWsHBkkkniIIsByRJEiWJEKKqqmEYgJjL Zg8dOnTw0KH5+fnFpaWpyakDB/bn875Wwnn2IxQO79i+PRqJdsSimzZuHOzr1TmIke5Y//oTabJ/ OpPVMFPUKHDq1H6WUiE9d+LQ7V8uphdWMo12khAADhw8uG3bNqVYNDVR3dB13TB0XdN1wygx0DDj R4ZhkxAst5htI5bdo16+GXcS8vKHUMW60uCl5vOcm6kjptOolr6WyVn6EmfMmrYZQCkdpCKqCVD6 DCyyVg8HHAA5N4CjPaPyBO1zYQrwUgDNfGyZZCOISE190rTfqPXXZJZJQUGglAqCaG4uSUErSiCI QsmXKcuSKKmaeujQ2PjE+OLiYjwe379//5NPPnX06JH23h7PfuzYvn3blk0UccumjVt2PG8qDZrc M6mEnhyPi8gJcFKRWYUAhArZxanHv/P+lRy0zSS85JJL7r77blVVy6JPNwzDJCEzH/mGYTBmMMZK qinjlQ7SajoCNENCqOKfdReXvlCWgRU0L9PShYRQQxMopxFA+SDWvG0vcHkDt9TsMgmtgwK3yy/B Ng4tRbIk2QgllFJKbKaZbwUqUIFQYso7Sm3hR6ht4FlmnWSFDjRdn5udjScS2Wx2cXHxD3/4w1NP P3Xfvfe19zb4o8Hzd+3YNDo6PDg4vO2sJaNrvihO5lDVNMK5neeIVCgk5g/c+vl8fKq1o7SZhABw 9913X3LJJUWlWOKgrhlGWfrpus4YMwzGeYmE9lvLVmzaQQq2DltBIIujZaqUhq7Z3Z2EpQPZOmal tmn/b0vBqmNUk7Akz2wRbJ58sxqZUKshARJaEnBUMF/ZlKPEpFmJkZZDhZjCz3wjiWaoQBRFXddz uZyiKIyxpXj8wP79Y4cPT01Nzc/PL8zPjx0+1V39nuvo7YyNrlu7YdvO/pHNaWmoKPekNJou6hQ5 AiARism5I3f/Z3L8qRYGbz8JN2zYsPeJJ6KRiKoqlk2oG4YpAFnphcE4N7vRMMYMg5scLMOUDvUk tPlX1li55W4tSRZ3s7ARCa2UgAqWMZPhJV2zQvJaDhUOjDHT98jM/TnnyDmzUiShIgKOpY6QpX+o 2SmSCpYVh4QSQky2lew6QqnNQpuNlFLBCpBTKpgr8phsnZ+fHzt8eGJiYmlpaXZm5sjRowcOHJiZ mWn7Jf5/HBvX9G/a/rxg35Y1284aVzsyRVMXwmJm8fBdN6Unm16Cu/0kBICrr7766zfcwBnTNFXX DcZKktBWQRkrN8OwegabzsuKt4bdvI2xks+El3wmJlmY6b1gZXHYOglLkpBb2cKV3wRE2+JDRLPa oHT67IyT0lIcZn8dqORbyTlpdWgl1AoQ0NLL0r+UlrhpSkLBlnB2xE4URUE3jNnZ2ZmZmaWlpXwu f/TY0UcfffSpp56amGhPzOo0msLztm8c3H4x69ok92/O6AIztP23fiFxvLm8tlUhIQB87etf/5tr r7XCg8y2Ay3ls0w2kwflonzLG2FtL5GTW01sSr6KUvGivZdt8pWcPaYT3zLZyk5YALCdNrauamVL cjNsx4FjqbYRSGm9emsxVCvuX3KPVCzPaHZeLTVeJcR6Y3W+Mg28MhnRsvWoHa+zXZaE0lQqlUom C4WCpuuzM7OHDx9+et/Thw4dWlpaSiaTS0tLq3ThTqM1DAyt7du0O7zhgkDn0MTjd5343x/4/+5q kRAA7rzzzksvvdT00NgCkFWyyuqZb5OOgR1gt7hl8cj8HzgwKNG0ZHGZMorZyqQVPYAql2nZDwsc kVT4TtEqh+AmvTjnpcZRJTFnd8qwiWb7TcwqKZOFJTZaDLRfEVIhDM0IHaWCub646TxmjBHEmZmZ 48dPjI+Pz87OplKpqempY8eOHThwYPUu0GmsBka2nRsc2lrMpKb+4LfeYhVJCAA333zzlVdeyRjT NLWGgJYQs32D3P5b2g4206zQYclO5BV6ZVn0lc1EsOxHbr2x/CEIFu8sxw8SNIOBCAQAOHAkBEu7 gJ19aZt1ULE2uC3wypKPltwphBJCkJZSwARKCRICAMePHx8fH08kEqlkMr4cP3z4yNjY2AMPPLCq V+E0nuVYXRICwLXXXvvxT3xioL/ftAhNpdTy+XPLBgNeqVDaAQBbZSy7G8tyDsofWO9s/dLapVzi wK3fystrJ5pSrCT6OAJyuzbOVjqxpIWSSiXTZp7tpjQFndmYI5VKZbNZVdMSicShgwcPHz48Njb2 yCOPqKq62mf7NJ6LWHUSAsDGjRs/8IEPvO6yyzo7OyPhMACUg4QWqhyVZSdl1VbLPwpW5KAu4dq2 8KDiw5JJR+xP7WpPUqFmlv5aso9Qaooy244zdF1RFFVVNV0zAy2apo2NHZ6enp6enp6dnU0kEolE YmlpaWZmZn5+ftVP62n8seBUkNDGay699Lzzz9+4adNZu3dv3baNVq8DUzYDeckbalt9JRlWsu5K O1ePXctHALADBOYrQimYWQ6EcM6riioqmGiOduzY8VwuNzExkc1ml5eXs9lsNpudmpqanp6emp4+ sH9/O8/Lafy/jVNKwhoEg8E9e/bs2rXrjO3bBwcGzCLdQCDQ09uLiAP9/Ss/BOd8fn4eETVNW1xc JATz+UIul2WMKYoKAGNjY5lM5tixY8lk8uDBg8ePt7NY8zROww+eSRI6IhwK9fX3I2JXV5ckSZzz zs7OcDhsOmI8p4uImUwmlUqZMlBV1fjysqlMTkxMCKKoa9op+BWncRqncRqn8ZzBs04SnsazH+dG gkFCKMd7Mtlnei5/DDhNwtPwi4sioXcM9L4sGjWL6wjiRFH5x4np+zK5Z3pqz22sLgnPCQW3BgMv DIf6JWGjJJ1U1SuPjq/qEU9jlfC3/b3vGezrFgWtHCgCEXFSUd5+bOKJwnOmsv5ZiNUi4YXR0AeG +s8JhSKCYFgVqYzzs58emzntGnmu4Y1dHf+2YS3Hym6LJYiIJxXl3H2na6Nax0oXhHHEx0cGvrh+ 7XpZBkSNc8NcGwRAQIwS/GUqsxoHPY1VwlZZ+ubG9TIljsuZM4A+UdghB25Npk751P5IsKLlsh3x us7o2/t6OOdaXUCdAZwfCbf9iKexqnjPYF+PJDgy0ITBQfZYM+k03NB+Er6zvzdAqeOSaAbn20LB XcFg2w96GquEHoFc3BHVXCgIgACGc8bSafhC+0l4QSyq1YrAKoROPzSfO7iyp7tfFN1WmQTgAGMF 5RRN6I8RbSbhZknyHPH0M/M5hIxuGBWdBByBAN+YP11k3DraTEI8zbE/Lnwnnvh9Nis2XsmDIh4s FOfLS8GeRtNovzrqidPa6HML7zg6cVsiEaVUcGrlTwDuWE4+A9P6I0KbSaj7EIQ57m5inMazC8uM veP41F8cOfn7TDbPjAAhAiIBIAAS4r5c/gtzi8/0HJ/bENo73K5wyJ2FCDCn6e096GmcAtyRTN2R TJ0TCp0TCb2+q2NYEgJIUsz41PTcMz215zzaTELZh7J5OqT03MVj+fxj+fyNC0sAcHYo+Id84Zme 0R8D2qyOGuitjp7m4B8HTjOwXWizJOwTxPrOLzYQoMiYftokXB0IAC0o+r2UdghU5zB+ug/VM4Q2 k3BEFF0C9Qgwq2nx0+7stmJUFsNI3tHfc34kDID3Z7LfnF861phRmwPSheHwBdHwtoBMCZERRESD Q56xJU3/RTJ983KywE4/KU8d2kzCEPHQbwlHYi9M/kzg1R3RTbJ8ayI59dz3D50dCn563dDucEhG onNuPtu2hOS/6On6j4Wlf56p7fj2xbXDZ4WDu8IhgmiXttiaCwIiwMs6Y+8b6v/JcvLjpz0upwpt NtBu3bLhglhEbyANCcCCqp2zb+wZqWW6sqfzr/t6dlr+24cz2a8vLN2VfK6WdJwXDn5n0/puUdTr EuURQCbkp/HE1ScmAWBPLPLX/T0XRyMSIQzAcE0qBAACICBOqsonJuduT6ZX7RdUYZMkvqmnixC4 YzltVideHA2fFw5tDQVPKsXPTy/8EevKbZaEjTMrzE9x2dBPMQNf3hHZLgev6I5tDQZEQjSrYdT5 0cjzQsGvzC1e/9wMc13d39sjiqoToziAytieWORVHdHXdsZe1RXroILGuXtOrw0GoHI+LMlf27B2 48z8v65OStrZoeB5kfBZkdDzQgEACCIOSBIA/EVPT94wECFKaacgIABCx4WR6LUnJv9YrdY2S8Jf bNu0OxJq9KwVEB/L5F5z+NS1FfzHwb6PrR0ucqabS5dVf0oACOIXp+eei+Hmky/YIRHiwipTHhqc 14tKnyAAiHjj/OInptqpmu4Myh8ZHrwwFolQanBuWG3UmXVQu3mzPW0J8aF09vVHTrRxGs8etDNE IQEEvMZzF5XtxXsG+j64ZihlGArjhtONaOpm/zAy+NGRNvQ4PZVYIwqSl/nNAYqM1Vd1+gcDEKDN tYJfWTd8746tl3TGRERzeowD42U3AYPS28ppq5xfGIu8b7CvjTN59qCdJOyThAASlxAF+DBI2oVX xCLvGuxVvLx8HMDg/B39fa/piLZwlFFZHBbbrNL7wcaAfGoOhIhH8m0rU/rexnVX9vVoTgXfntCB v72vp9Pr0fNcRFtJSIUIpS4cRICEforiE59bP/QuVucAAB/PSURBVNIhCH7csAwgQMjn1o34HPn5 wcA5oVAPpesl6UebN9yydeNf9/W0PM81onBOKLQr2Byp7EVuVhUIkNP1k22yxL61Ye2rujpalsyM w6As/c1Ab1sm86xCO5/inaLQSan7KT41wYkfbR5dI0k+/RAAYHA+JIvf2rD2qhOT7nte2dN544Z1 DCCh6ccVZX1A5gCfWz8SN/T/WW6iycqVPZ2XdXY+LxQckUVTGn9+Zu7zs35NUzdbsH0giMcU9Z50 FgCu6Ow4LxKK0PKR70ikfpn223f0vYN9l3Z3OrqR/EPl7PKezq8tLKUM5/voRZHQzmBwSyBAkP8k kXwok1/J4fxje1DaE41uCgSCBGdU9TMzC019vZ0k7KJCWKDPeJz33f19L+uMKq4dGeqhMv7Kro43 pdM/jDfk0o6g/KHhgTxnjEOAkp3hkG75Wq/t7/NJwrf2dF0z0LchKFFAg/McYwBAAP5msP9QUb09 4WuQhzI5vvrVmwLCvanMm7s7/2l4YEASzVIme825K3u733rk5M/T3jGeDkreNdjLV2CdmmAcNgbk K3u7bpyPV26/rKvj8q7YS6NRkSBFpIgI8NqujveMTzmGoF7VEX1ZLLIzFDqQL1w/vzCtthgxPisU vLyr4/Lujm5BsI9LEEOUfGSyCVdWO9XRDuphEAKAusoUPT8cunawx70niiM4gID41h43xfJTa4aG JIlZayLa9q3B+a5w8JyId++cf103/C/rRzYFZcZB47zSGxEg5Lp1Qz5nq6x+Ci4BiKt6yjC+sG5k SJYAQONc5dy06FTOdYDPrhvZKkueQ31iZChGfZkGnjA4vLYjVrnlYyMDX10/8rquTpkSgsiseXYJ wjV9tbrrRZHQbVs33LBh7dv6e8+OhN420PvTLRteHAm1MJN/Gu7//ubRawf7+kSx8rgKY2/t6XlL T5f/odpJwiFR8HzWuSgk54dD7+zreWN3JwD83UDvO/q6W5jDR9YM9Hn1RGkExvnGoNTIOPu7gd4X xSKN4nIi4uaGXy3hPzes/f/6exHAMZnB4HxQlP7S98VbUPXV46H5XP9+fPkfRwYFgo6+ZYPzNQHx oyMeD44OSi7v7miUv9EsDM7PDAXXyyUN7q96u947NCASoprrWlbsqXF+brSqtd/HRgZu3jx6QTQi E6JyrnNeZGxTIPDptcNNKYS9lPxs64Z/GBqICVTlvMaRywFESj46MuB/wHaqoyOSx91PEGhFjOLS jujucGhDQD4nFFoTKCWdFhn7yugaAVFEPDcSuvrElP8JfGio/9yIM0/8gANECb2yt/vbS8s1H+0K yh9eM+Ti2uXAhyXRZfAfbx59WWcs76oIaJzviUW+F0/4me24qgzJIlvxzW0GS4m1ZKoZojtaUG6Y X3xlR4eI6GJaa4yfEwluD8oHGzd6evdAX0ygRa9+bSIiRWTAVdefxAFClL6tr+cTU/MA8Je9PY08 Paa6/rqujp8lUgDw/U2jr+yKmUGRyt1UzneGg9/auO6txydcZmjj+UH5p9s2xqigNJ6mwXmPKN40 uuadJ33dve0k4cZAwOX0EYCponZ/OvuPQ317otG1ATGMNCpQU6+zTTiKaGZs6JxfFI3sDgf25vy2 WL+6v3clNyUHkAnZEaoVaEGE69evhRUYYJ8cGdzTES36iJcMiW5MrsSUqq1QEpoPxAVVPVFUnyoU DuSLOcZMk35vrtBByXXr13hKMA4ooJs+9dJYRHMdw/wV35xfuiuZ3h4MfHjNoIgeFXG7QyEA2BmU +0XqcsURYVgQAOC7G9df0hlt5K0w3QHnh4O/z3kUZ50VCn5707oIFTx9fjrnr+6MnRMKPuaj4Kud JFwjCS5nhAEMSMK/b1wLHAwo5a/USy1esX+PKJ4fDvsk4ddG10QF6vJ88gMGsF6qNXLeN9R/diTk LsTccU445CtYwvmwLG6U5eOKd2huQWudhKbkmVTV7y7Evzm/5Liey9sHeiiC7n063fa4KBJaK0nu T0aK+Lt09sNTswDwQDb3DyP9Iro1hmfA18oSAOQZKzLu4p4igAOS8M8jQ6/qirk8TUyZ+d7h/jcf cVsopVsgX1g3POjP684BApR+YMRjTGue7cO+fIG4ZsQwAIVxhXO9TpN2BAKcGQz4OfRLIuHXdcZW 6AEHAMb588K1/hVEXGFzW59fZwCjsrxJ9iUM0wZrLZUFARDg/19YOuvpsX9twEAA+JNYzAcDPXBm KNQrie7DCIjfWSx7O/8349bczYSpgWYMpnKOjV1UHOCiaPTtAz2eiXsa5y+LxV4WdWsPf8Po2hdE Qv7jXjrn54RCF7uOaaKdJPxVKiO0NS2NAazz4XwDgHcP9gW8QpQ+jzgg1h7x18l0C+7W1mBwvrvu KeCIWVXL6UYLp1tCvG5m/h8nZ913KzB/g3PgjTt3bZIlzxwpBLilolbjx/FUwXA7NAKabd+Il4vY 4PzMUAB82xHXDDbMBHj3QO/FHbGm4l4coEMQ3ujD09Y2EnYSonHwNHuaAgV4JOcdb31lLHpOJORu vZientaeEVd0d7lLeE/4v3QGwPk+np0AMKmqLWjIAuLd6fS/+khY/3E86Xm6zLhOJ21o1HieNgIw rVRl5NyRTN+TbigMEYBzfmciBQDzupFrELWvnKFPGJzvCgbPCjk/Ad810Meh+VQ7zl8e806HXCkJ zwsHr1sz9OPNo7/bufUrG9a0UQ6KiJOK+u2FWkdlPd7U2xlxFYME4PfZ7E/jiXuSaaP5G7dXFFb4 u+5LZ316jBjw0Tqj1BHTqqZ49cauAQKkdeMDJ6f97HxfJldkzHN8iWBfY2fSou4RR0HEKa02Le6v jk+cKCqSEw9lQm5bTv4fq6pDa/IMuIAB9EvSqzsdOHP9umH3JXFcxowK9Np+j6zGVki4URb/dqD3 WxvWntx95m1nbH7bQO9LOqKdgqCs3F8OAGYNDuLJovKWYyenfCxm+NquThdN3bzzPjs1f+3JqR8n ksSpg607fp/JrlDNvn5usWB439AAwDnEKL3URzb5SVVTOG8qZi8g3pNK+2wpMKGqB7yMfNOf3EUb 3kV5nbnPkHM+4JQBf+7+w3uzeRGRIJg9Ts1S40P5wjUVfv/mL6YbVM7+vLtWe9wTi/xpd6faqj0i IF4c9biaTXhHuwVycSzypp6uXYFgjyQSAJ1zw+qq0C4IiCpjv0xl/u7k5JKXsgEA/zwyBK5aByJk mfFwLg8AI6IYpMQ9ZlWPe1PZeU3toELLj5jLujpEf14U05DYFQ7+3McqjjoDbCZ3jQDc18wq80ua t1koIm5uXNKR95KlDGBtgySH144d++jI4OXdHQgl54sEeEd1Wp9nlUxT4Bz6JfElkfAD2bK76h29 3SFKW/b56ZyfE/Uw8v2S8MND/a/p7tgaCJhhvbZzjwBQRAnxd9nst+aXf5zw21n9RVEP7z8BnFBK 4rRDoC080ToEGiErWk31okhItor6PcEBdvjzCU9o6ibf5RcIsKzpJ4pNlETkffhmdM5f39VhBhjq oZS8lx4hiotj4fvTtW5aFeBj03MfO4WtbszMpzf0dNok3CpL50XD/j2ijmP2CKJ7uNubhJ8cGXxz T1evJJqpcS3Pph6mr5wgSogni8of8oUvzswdauYuOT8cfH445B4bpAgPZEpSZYMktfAD/qynM0hJ sxnhlTg3Evb/xNY5f5mXAmNiStH8mxMEcV7XxppZXP5YUfH8zRygp3Gq0ISiLqlaRHCz2A3OX9MR qyehH6R9unB9gwE8P1xOJX33YF+X4JYc4wca51f39V6ba5g940bCs8KB69evPSMYYJy30e1pEk8A KDK2oOsTRfW78eVHMrkW2p9d3tXpeXoI4GErqWpUllr4Gb20FaPcxogo7gwH/evAHECg+OJI+MGs x305qSjYhDYKBYMnmrmOOX87uwThpjUtzYwoUpfbmAHsaHXd2BOK2l4SGpzvDAV2BuV9BQUAXtkR W4kYNMEB1stuCktDEl4SjXx1dG2v5J2h4x8UkXHOOJ8oKvdlck/k8nen0n4MPxtnBuSEwWYsb80F sYi7VowAGcOYtZpLjcpyC84jz9IQ+1iOeEd/d7PHpIB/1t3hScJpTWvKJmwW44p7wpk3jilqjnlo pIzzdbK4IygfaH6lUdY252gZHOA1XR37Cgtv7u7skcSVix8GvFeko7J4UnH2MjqTcFCg/za6pqfd DBwrFL88M3/bCrrofXF0ZHsweDBffDCTuTWR6qLEPRcCEWaK6qyiA8CI6CvUQFu6rBQapjteHI00 K+I5wDYfwiHZTLAefUs2Gwnma+LuHtSs1yQZwFpZ3hUKtEDC48UCafdTSOfwilj0upmFN/d0eabO CuhcYlIJzmGNJG2U5UYkdLYp3jvU3y+J7So/sY+0L19ojYHdAnldZ+z6dcNnh8My4jmR0ElF2x0K DUge6iUBXNT1WV0HgAsjYcGzNzHCoWasJhMU8ffZ7JedIuCviEW3hYLNil+D8+eFAvVZrDXIGbU1 AS4gAI/7yHyohI+FRYAgjrnmKD9RyHsarhrnL4lGmpiZhTznba+s5Jz3icK1/T07QwH3dB8R8Z5k Ou+a3wNWIMcl/Ot8fkZEj3y/1tBatvgmSbp9y8avblj7l309ZiEsA3hRNNwvCn6kVtE6jy+MhDzT 8wngpNJKSxXa4Fa4tDMqeR20HhwgSOlrO2PuuyWYsaTqPn0zBPGR7Kq0e+CukvCRTN4z38gAfn7E V55QDaaKbbYJAYAB9IriP40Mhl0zQCjiY9n8x6Zmsz4iwIzzdYEmSTipas+SBcxGRfHOMzZuDQUl RNs3ywHWSdKZwYDhdXcTgAnL3Wp2c/Hc/0SxaaWIA++m1LHt2ktj0dYUCp3zSz1JqOkppvuMVwsI ewur03PF9Qc+mst79rXgHDoEuifWtDBc0FalspkDSIjuSlYA8e9PTh5R1BxjnjkDDODMQMOwkzMJ b0+kEj4CtTZwdbotvLm789c7NneKYk3hJgJkmDHilZ4PAIgwrpYU8RcEvdVCnfPxBoq7CziHEVka lGpJeE1/b59XoXMjMM7XyuKuuuLGShQYV5kvfYwAHCsUF7T2t7pDgKyra21G0/flC9Qr86ZTEF7R PAlTq7a4kPuNIiL+YGl5TFEBwE9TJca5S0qDMwl/n8tPKorPrGXT56n4yDNsCn/Z2/npdUNRQajX yxFgQdU9C9UAAAGPFosAcE4oNOQVn0CArGE82ExOiQlT6e+uy2P+064O95vPBQxgSJL2uAYM04yl /PlmCOLxZgKw/oEA814rGxwrKp46s87hgkjTJEywFuu5VgIESGr6TdbqADl/d74LmxqenJ8up9zL utAqTTheLH50cu7zMwtq+7JpXxmLfmbNcIQ6MBAAGMAj+ZyfRDC02jG9uafLu6YGIaUbTzTvmAEA BnxjdSyoE/Esr9oOrzHhNV4aqezaCd8GAZj1kYVbOwF/l7PgFQJ9Kl/wFBaM8x3+arhqMKc0UdyM AC0/Fm2IiPelM3ut++SpXMGPWS4ibmlQl9fw6z9eThwrFOtnjFZ+GUV8LJN774nJC/cf+fZSXCbo 6fbwiTd3d35j0zqJEkfamKrvfy8liQ81DAEezxV6KN0TC+tenmwB8JdpB+etS9moDcbBXNjExpdG 16wwwGRwfkYoeEbjisrXdcTOabzyRyU0zvc26RoFf702EGBZ94hkfGsxzrwe0KZW3UKj+xxnPmmF AHnD2JcrrCQdHwFShn7jQrkKeW/BI80drIS4RuezIQkXdONfZucEALMMT0SUEGWCCmMnCsoPl5Zf deDIaw4fv3m5lOR5bjjkWRDtB3/V2/3pdUMyIY0erwLifak0WJfNE0uG8f6hvnUB2f15jQA68Iez Dt72Za96HABgAC+oSHfaIIkXRCMr7PnPAUKEvLNxz+mLYxE/B0AAjbGfNx8cGhC8A6uIkPUyijKM jxdVP3fqBc37SCdV1c/jGAAQoMDYXx07mdT8upTrISD+LpN7vCIqc7LgrWwDgEhwoAEJ3aIGtyyn B4WZS2LREKVLmrag6ZOqOlZU7nJK8EdfUSUPvK4z9vE1g0FKG92+CKAydmciDQC/SaX/tKfL3SxU Of/+pvUvjjZcMtEGQTycL9zv1FJ6TtM8s8M45yFKhkXRzOb50+7OgXYkWxicv7xxWZNPtwQizGv6 XPMLEER8LPygMZ704e95IJvZHJTd9zM4f0E4tFEWjzfjG3N3C1UBQeN8StN/nUq/sbe7tcI7iviZ 6pzycVXL6jp1tQtMSdgpOJ9Pj9DdDQvxGxbi7vuYKPCVptLuDMrXj464MBAAKOLxQvG78QQArJNl z7Ooc/6yzphnTgMACAAPZ/OOt/WCpntmh3GAPkovjIZ+spwCgDd0u5U4+gcDWCPLl3d23Jp06Mxd 8jp6HYgCOj5cPLEpIHuU5ALkmDFeV5Vbj9+l82/qYe4hUw7QIwovjkSOK76aPppY9h2lQMAM4wDw k0Tqsq4OwZ85XQkB8aF0pqbGIG4YJxR1ayjorvjIBPubVUebhZ/aMxe8JBL+8ZYNjTwxJhCAcf65 2VKjf58mqJ/V+RBA5fzTdetLm1g0vC8zBwhQ+qJIGACu7e/ZEJTbtf6UwvnfNuh9MqMZforfDc4v 6+po4dCe4S9TwTuS93Zl3ZpMzSneGqnG+eU9zU3V/11HAA7mCwBwXzq7rBvNGk8IoHP+X4sOrR5O +iln4Q2TkNtGQj9Zzo38mS8MBb+2YW23KLrfuALi7zLZOyzb5tFsbkVFfhWgiA+kM420u1lFy/ow C3XOX9PVAQBv6ulqY9zU4HxXOPSGbodb85hSPFH0jiRxgBAlF0abbvYeRC9ZgaAyfkz1pT3+NpP1 vF6M8w2SvN5fvzkAGBKEK3xkeJogCIetTIy7UxmhyWtEEE8WlR85LRYyp6l+ar6iDapS20ZCz+Qd g/MXOQWC1onC9zaPeqaqIgABeE9Fa4OxQrEtkVozjPHtxlr3nKZPat4pRAwgSun/7tiyJeiRcwgA tJmuUwjwzn4HYbikGz67j/KWokexxn0rTBBAP/1HTPjxDDGAYVm6xF85JQDM6nrlQlHuIIBHrJzE J/KFZttYioi3LjvXmj+UyftRfBqZ2G0j4YKmu9c+coCIQC+udn9tlMVfnLG5UxQ8H2YU8RvzS5U1 h3cmU1OKsvJYrYD4cCZ7V2OrKW4Y86rmK1ABsNFHqbuE+FAmc/Ni3LGXUT0MzneEglf1OizOMebP NQfNVxpEKekRqbuCIyDclfDrdL03k3sql/cM0yGAiy+qHjOq6ucMIEBc0+3Obr/P5WbUpkqi4WSx +J24c9uxW5Mp3U/IvsG5bBsJxzVVcRWGHEBAfG2FcbJBEv9702ivj3INAfFArlDTQ2HJYPsLxUaZ 0z6BAHnGvuXV0+1AoejzMJ61uwRgTtU+ODFz83Ji0t8NxAEo4jVOsYr/XIi3JTJUDxkw6Oq6QACN w4Gig0G4Oxx4z0DfSyLhM2Tpmr7e9wz0vWug9/nBQNyr4AAAdM59Nn00MZb3ldpFEKdV9Yiljh4t qguq5r+TpQj4m1TWJe/vd9lcyxeibW3wD+aVIudBryduZfeUH2/ZsDYgezIQATK6ft2cg9fkvxaX 3VuteUJAfCST+1nK43F+63LqmsG+ttStCYjfiy8fLqoA8MtE+h0DvX6ahhicbwzKn1ozaHf7M3FE VRc1PexDJSNNKqRLhvHrZPqt/b2N+m0SxIO5wiN1bSne3d979UDvGllaVLUcZ2bLegI4ragUfa2X HiDkL3q6bva3MI5PhRwB4rqeqQgaPZjJnu0vLIkABcP47pJbmOCbC/Hd4ZB7681GaJ8kVFW9cSdm Ewbnu6214B7asXWdDwYCQIiQm+aXHFd7vDudfTiTazkBwjy5H5zw7sP5WL7QWrvrGoiID2ey11kr uU6oqv8sKpXxt/X1vL4uke2XSY8EQwDgAPPNp619YHL2lnhCbOAkFREezNYmN7wsGvnndcO9kpBn LCLQQVFUGFcYLzDWKwqdgnfHOnOHmO/OWrP+uqJQhAerLY6fJzM+T76A+HAuv8+15vjudDbh6XFt 8Gk72+A/7iNZXkL84FD/Xds2bg7KfiSYiPizRPILjTtGf2lmHlr1RYqI315cPuSvgPDnyfQKFT8C UGCscrG3X6czE0W/Zq1ZZHhGnc15VyrrXleKAAXOjrRUJ/nOk1PXz84bnNdcWYKQ1o0asQwA24Ky wbm9jmrlU9nP6iM2fLYUAYC9uULRh5YrAN5cveLd7kgw58PpbeIbVrp2y3C5yu0k4WPZnOejReH8 /cMDL4j4aiNHEecU9apjbgvH/SaTvT/l95FWM/ikonzcd0e9OxMpn/nyjUAQvzm/NFMhkY4W1V+k Mv65zTi/r86BdEcydbSouJwBAfHny623FPnszMI1xycWVFWwRCJBYIx/ySmsesNC/FjRIeW4Wfin 6y+SKc+FawjArKrOV+fW/FlXl+xDe6SIJ4vKr3xkOyR1o1ECHUFYUvVGTqz2rspU9KOzqZz78ucC FA3jAxPTnlrUe05OLalaU0opAhiMfXFuwf9X7khljjpltPuEiPhkLl+fD/ChyZnjRcXP5Cni07n8 w05r6H1pdkFjzPFaioiTqvLlZn5pPe5MZZ739Ngt8QQCRCjJauyLswv/3iCo8+eHT4wXiz4dv/Uw UzKmVb9yWwE47BUsFRDrH14/SyT9XE0KcLtTulI9fpNKO15HBAAOX51bvDfj3LmrnSS8L5PzPB0+ gQAE8RNTc36eQHO6/obDJ8xHtc/BA4Tcspy8eclvi2ET31yMGy0F3AhAStc/NDHj+Onbjo7nDcNT KSUAjzaohPh5KvPpqVmzg6tY8V+AkIP5wp8cONZCO8l6XHNyaujxfaOP7dvy1IHrGxsIE5r+8gNH DhSK8grCR3f6aEBu4pMjg2e7lpIgQJGxX9fVx9yeTGW99FjTlf0f/nTRnySS8bqWFAggE/KV2YV/ X2g4SLtyTko4IyC9MBJeeQxdQvzuwvLnfT+/lwzj/kz20o5YzLXPLAAIiAWDfWV+4SN19own9heK F0fD62S52bxsEfH62YX/cUq2AIBF3Uho+kWRiEgaJuKZqauXjx1vRKbH8oXjxSJwOFxUDheLh4vF o4ryi0Tqr09ONdtkzR1FH6qiCnDLcnJ3OLjBR35vDSTE+1LZn/puwb5Bll4Si7g8+iniZFF5/0Rt j/CMwXaHg1uDAZezIyLek8rc3CBGX4OEwQDwoorJUESD828txD/ZICOytJuf0f3j0Uzu3UP9K/Tk S4i/TWfefmKyqW8t6savkqnNQXm9LAlOaaUIICHuy+X/5uTUD/2d1nqMFZS39HU39QMFxCez+b8Z d1u+/MlCkQBc1BGFBuaQiHhfJvODZTe96GBRuS2Zvi2Rui2Rvi2RvjWReiCTayf/moHC+Q/jyXWS uCscAvRr41HEtG78n8mZcX+pcACwTpZe3RF1IaFE8JvzSw85NbkaLyp/2dfj8uBjAJ+enjvu26f1 SC6f0vUdgUBUEAhiUtc+Pz1/nddCdO2P8/5o8+iejmjLsTsJ8Ylc/k8OHWt5Aq+IRd7W33NBJBwT BMNaEpgAqIzdMLf4mdkVWUcA8KGh/r8fHvCTFw5Wtt2rDh71U7D/qljkW5tHCWKNckUAioy9+cgJ R4PwWY43dHd8Zs1wtyh4hkMFxKJh/P341P/4zsIxcfwFOwIN8goExLF84SUHjzb67s2b1v9J3RrP pjUUQHwok7t0rJVbcUigO0PBX/srXmmzJASABVW7vLujNctQRBzLF646PpFspi13DY4p6k+XUz+O Jx7O5mY1TWU8pevjivKuk1Pfb1UAVuLBbO6ccHBTwE2NMYEAAuKN80s/8Hfco4p6MF94YSTULQi2 So8AIuLX5xe/7yoGn7U4UFC+sxh/YTi0JiA51oOhlUk7XlTedmL87uYXpXhpNLI+UGsjmMMWGXv7 sYmZxiZxXNdf3REzSwvMJ6ZEMKezsULxhrn4x6ZnWluIIsu4f/m5KhlP/7Vx3Su7OpoVhhQxqWt/ cfTk443Xr3mWIIx4y9aNuyMhl6c7ASCI96XSbzo63tTgL4wEPzsy/PxISOecIFKAW+OJvz7pps0+ J/C+wb53DfRFBGrfGBTR1FDmVO0H8cRNC0uZlhb9uKIz9pXRNSIhNg/NdfuSuvGRyZnbvRLHbxpd 82c9XQxAZSxh6Hcm0r9JZXwKsbZgVUi4VZZu3baxS2xiHRWCoBv8quPjp/LHrxB3bt14Xiys1lVo EwQJMaHrX5heuGnRV0l0PW4cXfPG3u7jheKPlpOfX7EK/SxBr0C+t2n0vGgEAQyAffnC07n8b7O5 H8ZXqqF8YLDvgyOD7P8OukSZYef7zyvevd+EYyQMDSiysa5TU7ry/fuOj5+WkjhgThVAk0zIwMAQ JsQ/RVGOyI4TpM+Tfu/xrk/EDkwPEjBdQSZQWICJgfE/rDHDwMBw78fPXZ8+1zzGfmXfKKAR0OFk L5ESF2NhYWVkKnn45CJZp+YNCKBVJmRgYGiXlUoWEyaYDyEuqHr0dMEbEg41GDwgWljQS5CP4T/D z///Hv36denrzxNfvj4jfaHmKBixgIaZkIGBYYGSvLcg32/c+RAybVD28Mm8oZkDR8EooBxQf3QU GUBuLzPh4cY6U8TIwMDIwNDw5PlsbOd2jIJRMEIAbTMhAwPD3k9fHv/8acnLDdlqxQi7np6VkfE/ I+PMV697nhOYyhwFo2B4A9o2R+FAk5O9WkrckZ/vz///n/78vfL9+/0fv+79/DlntA4cBaOAnkCL iPNXRsEoGAWjYBSMglEwCkbBKBgFo2AU0A0AALIBXJJ5tIKtAAAAAElFTkSuQmCC "
       height="300"
       width="300" />
  </g>
  <g
     inkscape:groupmode="layer"
     id="layer24"
     inkscape:label="bocadillo4"
     style="display:none">
    <path
       style="fill:#eeeeef;fill-opacity:1;stroke:none;display:inline"
       d="m 428.59438,469.84519 c 0,0 -40.81838,-26.0268 -49.58994,-54.5086 -8.77157,-28.48181 8.76399,-75.56883 -0.0671,-97.91972 -8.83103,-22.35088 -163.46825,-63.06493 -185.32534,-52.57046 -21.85706,10.49446 -34.24167,50.57425 -33.38834,88.37575 0.85334,37.80149 11.31819,122.30236 33.82344,128.8343 22.50525,6.53196 119.5317,-8.33049 139.19684,-12.93907 19.66515,-4.60857 95.35035,0.7278 95.35035,0.7278 z"
       id="path6741-7-1"
       inkscape:connector-curvature="0" />
  </g>
  <g
     inkscape:groupmode="layer"
     id="layer23"
     inkscape:label="bocadillo 3"
     style="display:none">
    <text
       xml:space="preserve"
       style="font-size:40px;font-style:normal;font-weight:normal;line-height:125%;letter-spacing:0px;word-spacing:0px;fill:#000000;fill-opacity:1;stroke:none;font-family:Sans"
       x="221.05115"
       y="360.15036"
       id="text7414"
       sodipodi:linespacing="125%"><tspan
         sodipodi:role="line"
         id="tspan7416"
         x="221.05115"
         y="360.15036" /></text>
  </g>
  <g
     inkscape:groupmode="layer"
     id="layer22"
     inkscape:label="bocadillo2"
     style="display:none" />
  <g
     inkscape:label="bocadillo"
     inkscape:groupmode="layer"
     id="layer1"
     style="display:inline" />
  <g
     inkscape:groupmode="layer"
     id="layer4"
     inkscape:label="boton"
     style="display:inline">
    <rect
       style="opacity:0.59401706;fill:#000000"
       id="rect3096"
       width="400"
       height="400"
       x="144.90225"
       y="595.52008"
       rx="20"
       ry="20" />
    <rect
       ry="19.5597"
       rx="19.5597"
       y="599.9231"
       x="149.30527"
       height="391.19397"
       width="391.19397"
       id="rect3107"
       style="opacity:0.59401705999999999;fill:url(#linearGradient4308);fill-opacity:1;filter:url(#filter3885-8)" />
  </g>
  <g
     inkscape:groupmode="layer"
     id="layer25"
     inkscape:label="text"
     style="display:inline">
    <text
       xml:space="preserve"
       style="font-size:73.86776733px;font-style:normal;font-weight:normal;line-height:125%;letter-spacing:0px;word-spacing:0px;fill:#ffffff;fill-opacity:1;stroke:none;font-family:Sans"
       x="326.00766"
       y="294.48764"
       id="text7427"
       sodipodi:linespacing="125%"
       transform="scale(0.6683047,1.4963235)"><tspan
         sodipodi:role="line"
         id="tspan7429"
         x="326.00766"
         y="294.48764"
         style="font-size:132.96199036px;font-weight:normal;-inkscape-font-specification:Sans" /></text>
    <text
       xml:space="preserve"
       style="font-size:40px;font-style:normal;font-weight:normal;line-height:125%;letter-spacing:0px;word-spacing:0px;fill:#000000;fill-opacity:1;stroke:none;font-family:Sans"
       x="364.2674"
       y="195.14035"
       id="text7437"
       sodipodi:linespacing="125%"><tspan
         sodipodi:role="line"
         id="tspan7439"
         x="364.2674"
         y="195.14035" /></text>
    <path
       style="fill:url(#linearGradient4291);fill-opacity:1;stroke:none;display:inline"
       d="m 529.95078,953.6236 c 0,0 -32.93168,-42.24594 -40.60783,-84.02174 -7.67617,-41.77581 27.0132,-110.12954 18.1948,-143.25031 -8.81843,-33.12075 -223.68779,-117.46309 -256.85961,-106.41806 -33.17183,11.04501 -57.85199,65.54698 -63.14431,119.12287 -5.29234,53.57592 -4.84388,174.82161 26.32274,187.95379 31.16661,13.13221 172.95164,8.93998 201.96355,5.83413 29.01195,-3.10583 114.13066,20.77932 114.13066,20.77932 z"
       id="path6741-7"
       inkscape:connector-curvature="0"
       sodipodi:nodetypes="cssssssc" />
    <path
       style="fill:url(#linearGradient4283);fill-opacity:1.0;stroke:none;display:inline;filter:url(#filter4301)"
       d="m 533.39356,952.8734 c 0,0 -48.03892,-42.40393 -53.52909,-80.88157 -5.49015,-38.47763 27.45082,-95.01621 20.58811,-125.64126 -6.86269,-30.62506 -201.0772,-117.00343 -231.95936,-108.36559 -30.88216,8.63784 -55.5879,57.32383 -62.45059,106.00982 -6.86271,48.68599 -10.98033,159.40734 17.15676,172.75673 28.13707,13.34939 158.52844,15.70517 185.29298,14.13464 26.76455,-1.57052 124.90119,21.98723 124.90119,21.98723 z"
       id="path6741"
       inkscape:connector-curvature="0" />
    <path
       inkscape:connector-curvature="0"
       id="path7466"
       style="font-size:126.10919952px;font-style:normal;font-weight:normal;line-height:125%;letter-spacing:0px;word-spacing:0px;fill:#ffffff;fill-opacity:1;stroke:none;font-family:Sans"
       d="m 237.44336,901.37537 -11.47311,0 c -18.60147,-58.4221 -4.65037,-129.7522 10.85085,-209.14978 l 18.56672,-19.36199 -17.05134,103.3177 c 5.22128,-12.65645 11.8853,-18.98473 19.99208,-18.98488 4.48843,1.5e-4 8.73647,1.74816 12.74408,5.24406 4.00752,3.49619 7.30519,8.40836 9.89299,14.73653 2.58768,6.32841 4.61437,13.9622 6.08007,22.90136 1.46555,8.93936 2.19838,18.49818 2.19844,28.67646 -6e-5,24.16265 -3.09163,42.83774 -9.27467,56.02535 -6.18318,13.18764 -13.60291,19.78145 -22.25922,19.78145 -8.6106,0 -15.36622,-6.94785 -20.26689,-20.84354 z m -0.13741,-71.55846 c -0.2276,14.89163 7.25022,36.61065 20.46036,36.43489 12.68751,-0.16881 18.77868,-21.76186 18.83678,-35.50553 -0.11279,-13.89763 -8.1753,-33.07009 -20.46035,-32.90736 -11.74819,0.15561 -18.77611,18.23585 -18.83679,31.978 z"
       sodipodi:nodetypes="cccccccccssscccacac" />
    <path
       inkscape:connector-curvature="0"
       id="path7468"
       style="font-size:126.10919952px;font-style:normal;font-weight:normal;line-height:125%;letter-spacing:0px;word-spacing:0px;fill:#ffffff;fill-opacity:1;stroke:none;font-family:Sans"
       d="m 306.96953,908.99945 c -9.57434,-78.64207 -15.31897,-137.92214 0,-231.08569 l 15.27603,0 c -7.65949,73.80157 -3.82975,149.21662 0,231.08569 z"
       sodipodi:nodetypes="ccccc" />
    <path
       inkscape:connector-curvature="0"
       id="path7470"
       style="font-size:126.10919952px;font-style:normal;font-weight:normal;line-height:125%;letter-spacing:0px;word-spacing:0px;fill:#ffffff;fill-opacity:1;stroke:none;font-family:Sans"
       d="m 382.77208,904.48249 0,-30.17848 c -13.99049,64.24411 -57.40414,10.98401 -55.06392,-17.08962 -0.53366,-6.83527 2.48336,-74.45086 2.48336,-74.45086 l 1.64192,-83.72671 21.30807,-4.8405 c 0,0 -4.57674,59.78553 -4.92575,89.74056 -0.33944,29.13495 -9.89023,61.58392 2.75606,87.36862 1.90951,3.89332 5.96706,7.83483 9.89665,7.8348 3.92952,3e-5 7.61649,-2.67602 11.06095,-8.02828 3.44438,-5.35207 5.88215,-12.63877 7.31334,-21.86 1.43108,-9.22113 2.87703,-95.61253 3.78862,-51.43572 l 0,-89.2498 12.41841,4.84048 c 4.05783,63.69184 -1.73582,128.99718 -0.96181,191.07551 z"
       sodipodi:nodetypes="ccccccaasscscccc" />
    <path
       inkscape:connector-curvature="0"
       id="path7472"
       style="font-size:126.10919952px;font-style:normal;font-weight:normal;line-height:125%;letter-spacing:0px;word-spacing:0px;fill:#ffffff;fill-opacity:1;stroke:none;font-family:Sans"
       d="m 455.91859,850.26244 11.26418,3.19238 c -1.77647,15.08277 -3.36757,28.40161 -8.17196,36.72948 -19.1491,24.27982 -35.85463,7.96493 -45.88526,-13.87971 -7.72533,-18.28701 -8.26648,-30.28696 -8.26648,-54.25284 0,-24.79854 2.78576,-48.88572 8.35731,-62.58061 5.57152,-13.69464 16.19703,-28.60953 25.07922,-28.60967 39.02258,12.83824 29.39831,66.82101 29.25054,92.89048 -6e-5,1.4806 -0.0204,3.70136 -0.0604,6.66234 -15.98788,0 -31.97576,0 -47.96364,0 0.40371,16.19322 2.4022,28.5925 5.99546,37.19795 3.5932,8.60554 8.07465,12.90828 13.44434,12.90828 3.99694,0 7.4085,-2.40583 10.23468,-7.21753 2.82608,-4.81163 5.06682,-12.49184 6.72219,-23.04055 z m -35.79105,-40.39031 35.91217,0 c -0.48453,-12.39924 -0.15786,-28.15271 -2.41876,-34.3525 -3.47214,-9.62323 -7.97379,-16.04838 -13.5049,-16.04849 -5.00633,1.1e-4 -10.91459,11.9077 -14.32613,19.58774 -3.41157,7.68029 -5.29904,17.95135 -5.66238,30.81325 z"
       sodipodi:nodetypes="ccccssccccsscccccccsc"
       inkscape:transform-center-x="17.687048" />
  </g>
  <g
     inkscape:groupmode="layer"
     id="layer5"
     inkscape:label="brillo"
     style="display:inline">
    <g
       transform="matrix(1,0,0,0.34523182,7.3095154,247.5379)"
       style="opacity:0.74358975000000005;fill:url(#linearGradient4305);display:inline"
       id="g3890-8">
      <path
         style="fill:url(#linearGradient4305);fill-opacity:1"
         d="m 161.92361,1008.8462 352.07457,0 c 10.83607,0 19.5597,8.7236 19.5597,19.5597 8.8535,795.8227 -458.948593,484.1024 -391.19397,0 -0.10493,-10.8336 8.72362,-19.5597 19.5597,-19.5597 z"
         id="rect3107-6"
         inkscape:connector-curvature="0"
         sodipodi:nodetypes="ssccs" />
    </g>
  </g>
  <g
     inkscape:groupmode="layer"
     id="layer26"
     inkscape:label="hand text"
     style="display:none">
    <g
       transform="scale(0.75377616,1.3266538)"
       style="font-size:41.13355255px;font-style:normal;font-variant:normal;font-weight:bold;font-stretch:normal;line-height:125%;letter-spacing:0px;word-spacing:0px;fill:url(#linearGradient7693);fill-opacity:1;stroke:none;font-family:Segoe Script;-inkscape-font-specification:Segoe Script Bold"
       id="text7589" />
    <g
       inkscape:groupmode="layer"
       id="layer27"
       inkscape:label="sign"
       style="display:none"
       sodipodi:insensitive="true" />
  </g>
</svg>
